ECG_Samples/New_Data/test_sub1/Shane_1.csv

#Digilent WaveForms Oscilloscope Acquisition
#Device Name: Discovery
#Serial Number: SN:210244566833
#Date Time: 2019-07-09 13:28:49.531
#Sample rate: 800Hz
#Samples: 8192
#Trigger: Source: Channel 1 Type: Edge Condition: Either Level: 0 V Hyst.: Auto HoldOff: 0 s
#Channel 1: Range: 100 mV/div Offset: 0 V Attenuation: 1 X
#Channel 2: Range: 100 mV/div Offset: 0 V Attenuation: 1 X
#Power Supplies: ON
#Positive Supply: ON
#Negative Supply: ON

Time (s),Channel 1 (V),Channel 2 (V)
-5.12,0.0009874170945816775,-0.003574817479480818
-5.11875,0.001321982694570074,-0.01463355514865752
-5.1175,0.001321982694570227,-0.0210007071400096
-5.11625,0.001656548294558776,-0.02167093366541455
-5.115,0.001321982694570227,-0.01731446125028236
-5.11375,0.0009874170945815253,-0.007596176631905355
-5.1125,0.0006528514945931285,0.003797674299973667
-5.11125,0.0003182858946045794,0.01519152523185787
-5.11,-0.0003508453053722144,0.02490980985022527
-5.10875,-0.0003508453053725187,0.0296013955280639
-5.1075,-0.0003508453053725187,0.02859605573995693
-5.10625,-1.627970538396967e-05,0.02289913027401483
-5.105,0.0003182858946044272,0.01217550586754046
-5.10375,0.0006528514945931285,0.0004465416729489012
-5.1025,0.0009874170945816775,-0.01161753578434026
-5.10125,0.001321982694570227,-0.01966025408919969
-5.1,0.001656548294558776,-0.02200604692811581
-5.09875,0.001656548294558776,-0.01932514082649722
-5.0975,0.001321982694570227,-0.01128242252163778
-5.09625,0.0009874170945818298,0.0001114284102412422
-5.095,0.0003182858946045794,0.01117016607942815
-5.09375,-1.627970538396967e-05,0.0218937904859074
-5.0925,-0.0003508453053725187,0.02859605573995693
-5.09125,-0.0003508453053725187,0.02926628226536021
-5.09,-0.0003508453053725187,0.02558003637563465
-5.08875,-1.627970538396967e-05,0.01586175175726282
-5.0875,0.0003182858946044272,0.003797674299979154
-5.08625,0.0006528514945931285,-0.008266403157315489
-5.085,0.001321982694570227,-0.01798468777568731
-5.08375,0.001321982694570227,-0.0223411601908195
-5.0825,0.001321982694570227,-0.02167093366541166
-5.08125,0.001321982694570227,-0.0153037816740675
-5.08,0.0009874170945816775,-0.004245044004885771
-5.07875,0.0006528514945932807,0.006813693664290927
-5.0775,-1.627970538412181e-05,0.01787243133348134
-5.07625,-0.0003508453053725187,0.02591514963833712
-5.075,-0.0006854109053610678,0.02859605573995693
-5.07375,-0.0003508453053726709,0.02625026290104066
-5.0725,-1.627970538396967e-05,0.01854265785888264
-5.07125,0.0003182858946045794,0.006813693664295956
-5.07,0.0006528514945931285,-0.004915270530290724
-5.06875,0.0009874170945818298,-0.0159740081994755
-5.0675,0.001321982694570227,-0.02267627345352198
-5.06625,0.001321982694570227,-0.02368161324162941
-5.065,0.0009874170945818298,-0.0193251408264992
-5.06375,0.0009874170945816775,-0.009606856208125396
-5.0625,0.0003182858946045794,0.001786994723758807
-5.06125,-1.627970538396967e-05,0.01284573239294053
-5.06,-0.0003508453053726709,0.02256401701131449
-5.05875,-0.0006854109053610678,0.02725560268914703
-5.0575,-0.0006854109053610678,0.02658537616374208
-5.05625,-0.0003508453053726709,0.02055333743510024
-5.055,-1.627970538396967e-05,0.009829713028618245
-5.05375,0.0003182858946045794,-0.001899251165968435
-5.0525,0.0009874170945816775,-0.01396332862325759
-5.05125,0.001321982694570227,-0.02234116019082057
-5.05,0.001321982694570227,-0.02468695302973684
-5.04875,0.001321982694570227,-0.0223411601908195
-5.0475,0.0009874170945818298,-0.01429844188596372
-5.04625,0.0006528514945929764,-0.002904590954070836
-5.045,0.0003182858946045794,0.008154146715105863
-5.04375,-1.627970538396967e-05,0.01887777112158511
-5.0425,-0.0003508453053723666,0.0255800363756316
-5.04125,-0.0003508453053725187,0.02658537616374208
-5.04,-0.0003508453053725187,0.02289913027401483
-5.03875,-1.627970538396967e-05,0.01318084565564301
-5.0375,0.0003182858946047316,0.001451881461050845
-5.03625,0.0006528514945931285,-0.01061219599623283
-5.035,0.0009874170945816775,-0.02066559387730712
-5.03375,0.001321982694570074,-0.02502206629243734
-5.0325,0.001321982694570227,-0.02401672650433189
-5.03125,0.0009874170945816775,-0.01798468777568731
-5.03,0.0006528514945931285,-0.006925950106505584
-5.02875,0.0003182858946044272,0.004467900825383649
-5.0275,-1.627970538396967e-05,0.01552663849456035
-5.02625,-0.0003508453053725187,0.02390447006212226
-5.025,-0.0006854109053609156,0.02692048942644318
-5.02375,-0.0006854109053610678,0.02423958332482474
-5.0225,-0.0003508453053725187,0.01653197828266778
-5.02125,0.0003182858946045794,0.004803014088081097
-5.02,0.0006528514945932806,-0.006590836843807984
-5.01875,0.0009874170945816775,-0.01731446125028236
-5.0175,0.001321982694570227,-0.02401672650433189
-5.01625,0.001321982694570227,-0.02468695302973654
-5.015,0.001321982694570074,-0.02100070714000488
-5.01375,0.0009874170945816775,-0.01061219599623283
-5.0125,0.0003182858946045794,0.0001114284102464246
-5.01125,-1.62797053838175e-05,0.01117016607942312
-5.01,-0.0003508453053725187,0.02088845069779997
-5.00875,-0.0006854109053610678,0.02558003637563465
-5.0075,-0.0003508453053725187,0.02490980985022969
-5.00625,-0.0003508453053723666,0.01921288438428271
-5.005,-1.627970538396967e-05,0.008489259977808339
-5.00375,0.0003182858946045794,-0.003574817479480818
-5.0025,0.0009874170945813731,-0.01496866841135984
-5.00125,0.001321982694570227,-0.02368161324162941
-5,0.001321982694570227,-0.02636251934324923
-4.99875,0.001321982694570227,-0.02368161324162941
-4.9975,0.0009874170945815253,-0.01563889493676479
-4.99625,0.0006528514945931285,-0.004245044004885771
-4.995,0.0003182858946045794,0.00647858040159348
-4.99375,-1.62797053838175e-05,0.01720220480806785
-4.9925,-0.0003508453053725187,0.02423958332482474
-4.99125,-0.0006854109053610678,0.02524492311293217
-4.99,-0.0003508453053725187,0.02155867722320493
-4.98875,-1.627970538381753e-05,0.01184039260482777
-4.9875,0.0003182858946045794,0.0001114284102464246
-4.98625,0.0006528514945931285,-0.01195264904704273
-4.985,0.0009874170945815253,-0.02200604692811246
-4.98375,0.001321982694570227,-0.02669763260595124
-4.9825,0.001321982694570227,-0.02569229281784427
-4.98125,0.0009874170945816775,-0.01932514082649722
-4.98,0.0006528514945932807,-0.008601516420022843
-4.97875,0.0003182858946045794,0.002457221249163761
-4.9775,-1.627970538396967e-05,0.01351595891834549
-4.97625,-0.0003508453053725187,0.02222890374860988
-4.975,-0.0006854109053609157,0.0252449231129311
-4.97375,-0.0003508453053725187,0.02289913027401483
-4.9725,-0.0003508453053725187,0.01519152523185787
-4.97125,0.0003182858946042751,0.003797674299978848
-4.97,0.0006528514945931285,-0.007931289894613013
-4.96875,0.0009874170945816775,-0.01899002756379474
-4.9675,0.001321982694570227,-0.02569229281784427
-4.96625,0.001321982694570227,-0.02669763260594972
-4.965,0.001321982694570227,-0.0223411601908195
-4.96375,0.0009874170945816775,-0.01262287557244769
-4.9625,0.0006528514945932807,-0.001229024640568663
-4.96125,0.0003182858946045794,0.009829713028618245
-4.96,-0.0003508453053725187,0.01988311090969254
-4.95875,-0.0003508453053725187,0.02490980985022969
-4.9575,-0.0003508453053725187,0.02390447006211982
-4.95625,-0.0003508453053725187,0.01854265785888264
-4.955,-1.627970538396967e-05,0.007819033452403385
-4.95375,0.0003182858946044272,-0.004245044004880284
-4.9525,0.0009874170945818298,-0.01597400819947611
-4.95125,0.001321982694570227,-0.02401672650433189
-4.95,0.001321982694570227,-0.02703274586865418
-4.94875,0.001321982694570227,-0.02468695302973791
-4.9475,0.0009874170945816775,-0.01664423472487741
-4.94625,0.0006528514945931285,-0.005250383792993201
-4.945,0.0003182858946045794,0.005808353876188527
-4.94375,-1.627970538412181e-05,0.01653197828267098
-4.9425,-0.0003508453053725187,0.02356935679941979
-4.94125,-0.0003508453053725187,0.02490980985022969
-4.94,-0.0003508453053725187,0.02122356396050412
-4.93875,-1.627970538396967e-05,0.01150527934213063
-4.9375,0.0003182858946045794,-0.000223684852456052
-4.93625,0.0006528514945931285,-0.01195264904704273
-4.935,0.001321982694570227,-0.02200604692811916
-4.93375,0.001321982694570227,-0.0266976326059517
-4.9325,0.001321982694570227,-0.02602740608054675
-4.93125,0.001321982694570227,-0.01999536735190491
-4.93,0.0006528514945931285,-0.008936629682720442
-4.92875,0.0006528514945931285,0.002122107986461284
-4.9275,-1.627970538396967e-05,0.01318084565564301
-4.92625,-0.0003508453053725187,0.02189379048590877
-4.925,-0.0003508453053725187,0.02490980985022969
-4.92375,-0.0003508453053725187,0.02289913027401483
-4.9225,-1.627970538412184e-05,0.01519152523186137
-4.92125,0.0003182858946047316,0.003797674299968333
-4.92,0.0006528514945931285,-0.007931289894613013
-4.91875,0.0009874170945816775,-0.01932514082649722
-4.9175,0.001321982694570074,-0.0260274060805437
-4.91625,0.001321982694570227,-0.02703274586865418
-4.915,0.001321982694570227,-0.02267627345352198
-4.91375,0.0009874170945816775,-0.01329310209785264
-4.9125,0.0006528514945929764,-0.001899251165963254
-4.91125,0.0003182858946045794,0.009494599765915769
-4.91,-1.627970538396967e-05,0.01954799764699007
-4.90875,-0.0003508453053723666,0.02457469658752493
-4.9075,-0.0003508453053725187,0.02390447006212226
-4.90625,-0.0003508453053725187,0.01854265785888264
-4.905,0.0003182858946045794,0.007819033452403385
-4.90375,0.0003182858946048837,-0.003909930742188781
-4.9025,0.0009874170945816775,-0.01597400819947245
-4.90125,0.001321982694570227,-0.02435183976703437
-4.9,0.001321982694570227,-0.02703274586865296
-4.89875,0.001321982694570227,-0.02468695302973684
-4.8975,0.0009874170945816775,-0.01697934798757988
-4.89625,0.0006528514945931285,-0.005585497055695677
-4.895,0.0003182858946044272,0.005808353876193403
-4.89375,-1.627970538396967e-05,0.01653197828266778
-4.8925,-0.0003508453053725187,0.02356935679941979
-4.89125,-0.0003508453053725187,0.02490980985022908
-4.89,-0.0003508453053723666,0.02155867722320066
-4.88875,-1.627970538396967e-05,0.01217550586753558
-4.8875,0.0003182858946045794,0.0004465416729489012
-4.88625,0.0006528514945929762,-0.01161753578433477
-4.885,0.001321982694570227,-0.02167093366541455
-4.88375,0.001321982694570227,-0.02636251934324923
-4.8825,0.001321982694570227,-0.02569229281784427
-4.88125,0.001321982694570074,-0.01999536735189714
-4.88,0.0009874170945816775,-0.008936629682720442
-4.87875,0.0006528514945931285,0.002457221249163761
-4.8775,-1.627970538366533e-05,0.01351595891834046
-4.87625,-0.0003508453053725187,0.02222890374860988
-4.875,-0.0003508453053725187,0.02524492311293217
-4.87375,-0.0003508453053725187,0.02323424353671731
-4.8725,-0.0003508453053722145,0.01586175175725749
-4.87125,0.0003182858946045794,0.004132787562676143
-4.87,0.0006528514945931285,-0.00726106336920806
-4.86875,0.0009874170945815253,-0.01831980103838476
-4.8675,0.001321982694570227,-0.02535717955514179
-4.86625,0.001321982694570227,-0.02636251934324923
-4.865,0.001321982694570227,-0.0223411601908195
-4.86375,0.0009874170945815253,-0.01295798883514498
-4.8625,0.0006528514945931285,-0.001564137903265958
-4.86125,0.0003182858946045794,0.01016482629132072
-4.86,-1.62797053838175e-05,0.02021822417239045
-4.85875,-0.0003508453053725187,0.02524492311293202
-4.8575,-0.0003508453053725187,0.02490980985022969
-4.85625,-1.627970538396967e-05,0.01921288438428759
-4.855,-1.627970538396967e-05,0.009159486503217863
-4.85375,0.0003182858946045794,-0.003239704216778341
-4.8525,0.0009874170945816775,-0.01496866841136502
-4.85125,0.001321982694570227,-0.02334649997892694
-4.85,0.001321982694570227,-0.02636251934324816
-4.84875,0.001321982694570227,-0.02401672650433189
-4.8475,0.001321982694570227,-0.01597400819947245
-4.84625,0.0006528514945934328,-0.00458015726759343
-4.845,0.0003182858946045794,0.00647858040159348
-4.84375,-1.627970538396967e-05,0.01753731807077521
-4.8425,-0.0003508453053725187,0.02490980985022969
-4.84125,-0.0003508453053725187,0.02658537616374025
-4.84,-0.0003508453053725187,0.02256401701131236
-4.83875,-1.627970538396967e-05,0.01351595891834549
-4.8375,0.0003182858946044272,0.001786994723764141
-4.83625,0.0009874170945816775,-0.01027708273353035
-4.835,0.0009874170945816775,-0.02033048061460465
-4.83375,0.001321982694570227,-0.02502206629243932
-4.8325,0.001321982694570227,-0.02435183976703162
-4.83125,0.001321982694570227,-0.01831980103838979
-4.83,0.0006528514945931285,-0.007596176631910537
-4.82875,0.0003182858946047316,0.003462561037266161
-4.8275,-1.627970538412181e-05,0.01485641196915936
-4.82625,-0.0003508453053725187,0.02356935679941979
-4.825,-0.0006854109053610678,0.02692048942644455
-4.82375,-0.0003508453053726709,0.02490980985023061
-4.8225,-1.627970538396967e-05,0.01753731807077521
-4.82125,0.0003182858946045794,0.006143467138891003
-4.82,0.0006528514945931285,-0.005920610318398154
-4.81875,0.0009874170945818298,-0.01697934798758293
-4.8175,0.001321982694570227,-0.02368161324162941
-4.81625,0.001321982694570227,-0.02468695302973684
-4.815,0.001321982694570227,-0.02066559387730895
-4.81375,0.0009874170945816775,-0.0109473092589353
-4.8125,0.0006528514945931285,0.0004465416729489012
-4.81125,-1.627970538396967e-05,0.01150527934213063
-4.81,-0.0003508453053725187,0.02155867722320736
-4.80875,-0.0003508453053725187,0.02692048942644455
-4.8075,-0.0003508453053725187,0.02658537616374208
-4.80625,-0.0003508453053725187,0.02088845069780257
-4.805,-1.627970538396967e-05,0.0104999395540232
-4.80375,0.0003182858946045794,-0.001564137903265958
-4.8025,0.0006528514945931285,-0.01329310209785264
-4.80125,0.0009874170945818298,-0.02167093366541592
-4.8,0.001321982694570227,-0.02468695302973684
-4.79875,0.001321982694570227,-0.02267627345352198
-4.7975,0.0009874170945818298,-0.01496866841136853
-4.79625,0.0006528514945929764,-0.003574817479475789
-4.795,0.0003182858946045794,0.007483920189700909
-4.79375,-0.0003508453053725187,0.01854265785888264
-4.7925,-0.0003508453053725187,0.02558003637563144
-4.79125,-0.0003508453053725187,0.02692048942644455
-4.79,-0.0006854109053610678,0.02323424353671731
-4.78875,-0.0003508453053725187,0.01418618544375044
-4.7875,0.0003182858946047316,0.002122107986455798
-4.78625,0.0006528514945931285,-0.009941969470827873
-4.785,0.0009874170945816775,-0.01966025408919969
-4.78375,0.001321982694570074,-0.02468695302973456
-4.7825,0.001321982694570227,-0.02435183976703437
-4.78125,0.0009874170945816775,-0.01865491430109226
-4.78,0.0006528514945931285,-0.008266403157315489
-4.77875,0.0003182858946044272,0.003127447774573743
-4.7775,-1.627970538396967e-05,0.01418618544375044
-4.77625,-0.0003508453053725187,0.02289913027401483
-4.775,-0.0003508453053725187,0.02625026290103807
-4.77375,-0.0006854109053610678,0.02423958332482474
-4.7725,-0.0003508453053725187,0.01686709154537025
-4.77125,0.0003182858946045794,0.005808353876188527
-4.77,0.0003182858946048837,-0.006255723581105812
-4.76875,0.0009874170945816775,-0.01764957451298483
-4.7675,0.001321982694570227,-0.02435183976703437
-4.76625,0.001321982694570227,-0.02569229281784366
-4.765,0.001321982694570074,-0.02200604692811261
-4.76375,0.0009874170945816775,-0.01228776230974521
-4.7625,0.0006528514945931285,-0.001229024640563482
-4.76125,-1.627970538366533e-05,0.01016482629131554
-4.76,-0.0003508453053725187,0.02021822417239502
-4.75875,-0.0006854109053610678,0.02558003637563465
-4.7575,-0.0006854109053610678,0.02524492311293217
-4.75625,-0.0003508453053723666,0.01988311090968782
-4.755,-1.627970538396967e-05,0.009494599765915769
-4.75375,0.0003182858946045794,-0.002569477691373388
-4.7525,0.0006528514945929762,-0.01463355514865706
-4.75125,0.001321982694570227,-0.02301138671622446
-4.75,0.001321982694570227,-0.02602740608054675
-4.74875,0.001321982694570227,-0.02435183976703437
-4.7475,0.0009874170945815253,-0.01664423472487223
-4.74625,0.0006528514945931285,-0.005250383792993201
-4.745,0.0003182858946045794,0.005808353876188527
-4.74375,-1.62797053838175e-05,0.01686709154536523
-4.7425,-0.0003508453053725187,0.02423958332482474
-4.74125,-0.0006854109053610678,0.02558003637563465
-4.74,-0.0003508453053725187,0.02256401701131236
-4.73875,-0.0003508453053722145,0.01318084565563768
-4.7375,0.0003182858946045794,0.001451881461056331
-4.73625,0.0006528514945931285,-0.01027708273353035
-4.735,0.001321982694569922,-0.0206655938773024
-4.73375,0.001321982694570227,-0.02569229281784397
-4.7325,0.001321982694570227,-0.02502206629243932
-4.73125,0.0009874170945816775,-0.01966025408919969
-4.73,0.0006528514945932807,-0.008601516420022996
-4.72875,0.0003182858946045794,0.002457221249163761
-4.7275,-1.627970538396967e-05,0.01385107218104796
-4.72625,-0.0003508453053725187,0.02256401701131236
-4.725,-0.0003508453053725187,0.02625026290103868
-4.72375,-0.0003508453053725187,0.02423958332482474
-4.7225,-0.0003508453053725187,0.01720220480807273
-4.72125,0.0003182858946042751,0.005473240613491385
-4.72,0.0006528514945931285,-0.005920610318398154
-4.71875,0.0009874170945816775,-0.01731446125028236
-4.7175,0.001321982694570227,-0.02468695302973684
-4.71625,0.001321982694570227,-0.02602740608054492
-4.715,0.001321982694570227,-0.02200604692811703
-4.71375,0.0009874170945816775,-0.01295798883515016
-4.7125,0.0006528514945932807,-0.00156413790327114
-4.71125,0.0003182858946045794,0.009829713028618245
-4.71,-0.0003508453053725187,0.02021822417239502
-4.70875,-0.0003508453053725187,0.02524492311293217
-4.7075,-0.0003508453053725187,0.02524492311292973
-4.70625,-0.0003508453053725187,0.01988311090969254
-4.705,-1.627970538396967e-05,0.009494599765915769
-4.70375,0.0003182858946044272,-0.002234364428665578
-4.7025,0.0009874170945818298,-0.01396332862326155
-4.70125,0.001321982694570227,-0.02267627345352198
-4.7,0.001321982694570227,-0.02569229281784427
-4.69875,0.001321982694570227,-0.02401672650433265
-4.6975,0.0009874170945816775,-0.01630912146217493
-4.69625,0.0006528514945931285,-0.004915270530290724
-4.695,0.0003182858946045794,0.006143467138891003
-4.69375,-1.627970538412181e-05,0.01720220480807608
-4.6925,-0.0003508453053725187,0.02457469658752721
-4.69125,-0.0006854109053610678,0.02591514963833712
-4.69,-0.0003508453053726709,0.02256401701131388
-4.68875,-0.0003508453053725187,0.01351595891834549
-4.6875,0.0003182858946045794,0.001786994723758807
-4.68625,0.0006528514945931285,-0.009941969470827873
-4.685,0.0009874170945818298,-0.02033048061460693
-4.68375,0.001321982694570227,-0.02535717955514179
-4.6825,0.001321982694570227,-0.02502206629243932
-4.68125,0.001321982694570227,-0.01966025408920213
-4.68,0.0009874170945816775,-0.008601516420017967
-4.67875,0.0003182858946045794,0.002457221249163761
-4.6775,-1.627970538396967e-05,0.01351595891834549
-4.67625,-0.0003508453053725187,0.02256401701131388
-4.675,-0.0003508453053725187,0.02591514963833712
-4.67375,-0.0003508453053725187,0.02423958332482474
-4.6725,-0.0003508453053725187,0.01720220480807593
-4.67125,0.0003182858946047316,0.005473240613480717
-4.67,0.0006528514945931285,-0.006255723581100631
-4.66875,0.0009874170945816775,-0.01764957451298483
-4.6675,0.001321982694570074,-0.02435183976703132
-4.66625,0.001321982694570227,-0.02602740608054675
-4.665,0.001321982694570227,-0.0223411601908195
-4.66375,0.0009874170945816775,-0.01295798883515016
-4.6625,0.0006528514945929764,-0.001564137903260777
-4.66125,0.0003182858946045794,0.009829713028618245
-4.66,-0.0003508453053725187,0.02021822417239502
-4.65875,-0.0003508453053725187,0.02524492311292988
-4.6575,-0.0003508453053725187,0.02524492311293217
-4.65625,-0.0003508453053725187,0.02021822417239502
-4.655,-1.627970538396967e-05,0.009829713028618245
-4.65375,0.0003182858946048837,-0.001899251165974073
-4.6525,0.0009874170945816775,-0.01429844188596007
-4.65125,0.0009874170945816775,-0.02301138671622446
-4.65,0.001321982694570074,-0.02602740608054538
-4.64875,0.001321982694570227,-0.02401672650433189
-4.6475,0.0009874170945816775,-0.01664423472487741
-4.64625,0.0006528514945931285,-0.005250383792993201
-4.645,0.0003182858946044272,0.005808353876193708
-4.64375,-1.627970538396967e-05,0.01720220480807273
-4.6425,-0.0003508453053725187,0.02457469658752721
