ECG_Samples/New_Data/test_sub5/Akwasi_1.csv

#Digilent WaveForms Oscilloscope Acquisition
#Device Name: Discovery
#Serial Number: SN:210244566833
#Date Time: 2019-07-09 11:55:05.658
#Sample rate: 800Hz
#Samples: 8192
#Trigger: Source: Channel 1 Type: Edge Condition: Either Level: 0 V Hyst.: Auto HoldOff: 0 s
#Channel 1: Range: 100 mV/div Offset: 0 V Attenuation: 1 X
#Channel 2: Range: 100 mV/div Offset: 0 V Attenuation: 1 X
#Power Supplies: ON
#Positive Supply: ON
#Negative Supply: ON

Time (s),Channel 1 (V),Channel 2 (V)
-5.12,0.0290909274936198,-0.008266403157315489
-5.11875,0.0287563618936314,-0.0008939113778643577
-5.1175,0.0284217962936427,0.006143467138891003
-5.11625,0.0284217962936427,0.01318084565564301
-5.115,0.02808723069365415,0.01753731807077521
-5.11375,0.02808723069365415,0.01854265785888127
-5.1125,0.02808723069365415,0.01552663849456035
-5.11125,0.0284217962936427,0.009159486503213292
-5.11,0.0284217962936427,0.001451881461059836
-5.10875,0.0287563618936314,-0.006590836843805851
-5.1075,0.0290909274936198,-0.01262287557244769
-5.10625,0.0290909274936198,-0.0153037816740675
-5.105,0.0290909274936198,-0.01429844188596053
-5.10375,0.0290909274936198,-0.009941969470827873
-5.1025,0.02875636189363125,-0.002569477691373388
-5.10125,0.0284217962936427,0.004803014088081097
-5.1,0.02842179629364255,0.0125106191302405
-5.09875,0.02808723069365415,0.01787243133347768
-5.0975,0.02808723069365415,0.01988311090969254
-5.09625,0.02808723069365415,0.01820754459618092
-5.095,0.02808723069365415,0.01318084565564301
-5.09375,0.0284217962936427,0.005808353876188527
-5.0925,0.02875636189363125,-0.002234364428670911
-5.09125,0.0287563618936314,-0.009606856208127072
-5.09,0.0290909274936198,-0.01329310209785264
-5.08875,0.0290909274936198,-0.01362821536055512
-5.0875,0.0290909274936198,-0.0106121959962342
-5.08625,0.02875636189363125,-0.004245044004885771
-5.085,0.02875636189363125,0.00346256103727119
-5.08375,0.0284217962936427,0.0104999395540232
-5.0825,0.02808723069365415,0.01686709154537147
-5.08125,0.02808723069365415,0.01954799764699007
-5.08,0.02808723069365415,0.01887777112158511
-5.07875,0.02808723069365415,0.01485641196915722
-5.0775,0.0284217962936427,0.007148806926994623
-5.07625,0.0284217962936427,-0.001229024640563482
-5.075,0.02875636189363125,-0.008936629682720442
-5.07375,0.02909092749361965,-0.01429844188595763
-5.0725,0.0290909274936198,-0.01630912146217493
-5.07125,0.0290909274936198,-0.01463355514866255
-5.07,0.0290909274936198,-0.008936629682720442
-5.06875,0.0287563618936311,-0.001564137903262758
-5.0675,0.0284217962936427,0.00547324061348605
-5.06625,0.02808723069365415,0.01217550586753558
-5.065,0.02808723069365415,0.01619686501996347
-5.06375,0.02808723069365415,0.01653197828266778
-5.0625,0.02808723069365415,0.01385107218104796
-5.06125,0.0284217962936427,0.007148806926998433
-5.06,0.02842179629364285,-0.0008939113778646626
-5.05875,0.02875636189363125,-0.008936629682720442
-5.0575,0.0290909274936198,-0.01496866841136502
-5.05625,0.0290909274936198,-0.01764957451298362
-5.055,0.0290909274936198,-0.01697934798757988
-5.05375,0.0290909274936198,-0.01262287557244769
-5.0525,0.02875636189363125,-0.005250383792993201
-5.05125,0.0287563618936311,0.001786994723762312
-5.05,0.0284217962936427,0.009494599765915769
-5.04875,0.02808723069365415,0.01452129870645292
-5.0475,0.02808723069365415,0.01653197828266686
-5.04625,0.02808723069365431,0.01452129870645048
-5.045,0.0284217962936427,0.009159486503213292
-5.04375,0.0284217962936427,0.001451881461056331
-5.0425,0.0287563618936311,-0.006590836843799451
-5.04125,0.0290909274936198,-0.01396332862325759
-5.04,0.02942549309360835,-0.01798468777568731
-5.03875,0.02942549309360835,-0.01831980103838979
-5.0375,0.0290909274936198,-0.01530378167406445
-5.03625,0.0290909274936198,-0.008601516420017967
-5.035,0.02875636189363125,-0.001229024640563482
-5.03375,0.02842179629364285,0.006143467138887651
-5.0325,0.0284217962936427,0.01251061913023806
-5.03125,0.02808723069365415,0.01552663849456035
-5.03,0.02808723069365415,0.01452129870645292
-5.02875,0.0284217962936427,0.01083505281672232
-5.0275,0.0284217962936427,0.00346256103727119
-5.02625,0.02875636189363125,-0.004580157267588247
-5.025,0.02909092749361965,-0.01228776230974171
-5.02375,0.02942549309360835,-0.01731446125028236
-5.0225,0.02942549309360835,-0.01865491430109226
-5.02125,0.0290909274936198,-0.01664423472487741
-5.02,0.02909092749361965,-0.01061219599622932
-5.01875,0.02875636189363125,-0.002904590954075865
-5.0175,0.02875636189363125,0.004132787562676143
-5.01625,0.02842179629364285,0.01150527934212727
-5.015,0.02808723069365415,0.01519152523185818
-5.01375,0.02808723069365415,0.01586175175726282
-5.0125,0.02808723069365415,0.01418618544375044
-5.01125,0.02842179629364255,0.008154146715108605
-5.01,0.02875636189363125,-0.0005587981151585285
-5.00875,0.0290909274936198,-0.008266403157315489
-5.0075,0.0290909274936198,-0.01429844188596007
-5.00625,0.02942549309360819,-0.01664423472487695
-5.005,0.0290909274936198,-0.01563889493676997
-5.00375,0.0290909274936198,-0.0109473092589353
-5.0025,0.0287563618936314,-0.00357481747948417
-5.00125,0.0284217962936427,0.003797674299973667
-5,0.0284217962936427,0.01150527934213063
-4.99875,0.02808723069365415,0.01686709154537025
-4.9975,0.02808723069365415,0.01887777112158435
-4.99625,0.02808723069365415,0.01720220480807273
-4.995,0.02808723069365415,0.01251061913023806
-4.99375,0.02842179629364255,0.004467900825382277
-4.9925,0.02875636189363125,-0.003574817479480818
-4.99125,0.0290909274936198,-0.01061219599623283
-4.99,0.0290909274936198,-0.01429844188596007
-4.98875,0.0290909274936198,-0.01463355514866117
-4.9875,0.0290909274936198,-0.01161753578434026
-4.98625,0.0290909274936198,-0.004915270530290724
-4.985,0.0287563618936314,0.002457221249160408
-4.98375,0.02842179629364255,0.009829713028621141
-4.9825,0.02808723069365415,0.0161968650199653
-4.98125,0.02808723069365415,0.01887777112158511
-4.98,0.02808723069365415,0.01854265785888279
-4.97875,0.02808723069365415,0.01418618544375044
-4.9775,0.0284217962936427,0.006813693664295956
-4.97625,0.02875636189363125,-0.001229024640563482
-4.975,0.0290909274936198,-0.008936629682722729
-4.97375,0.0290909274936198,-0.01396332862325759
-4.9725,0.0290909274936198,-0.01563889493676997
-4.97125,0.0290909274936198,-0.01362821536055603
-4.97,0.0290909274936198,-0.007596176631910537
-4.96875,0.02875636189363125,-0.000223684852456052
-4.9675,0.0284217962936427,0.00647858040159348
-4.96625,0.02842179629364255,0.01351595891834732
-4.965,0.02808723069365415,0.01753731807077521
-4.96375,0.02808723069365415,0.01787243133347768
-4.9625,0.02808723069365415,0.01452129870645444
-4.96125,0.0284217962936427,0.008154146715105863
-4.96,0.02875636189363125,0.0001114284102464246
-4.95875,0.0290909274936198,-0.007931289894613013
-4.9575,0.02909092749361995,-0.01429844188596129
-4.95625,0.02942549309360835,-0.01697934798757988
-4.955,0.02942549309360835,-0.01597400819947245
-4.95375,0.02909092749361995,-0.01195264904704456
-4.9525,0.02875636189363125,-0.004580157267584895
-4.95125,0.02875636189363125,0.002792334511866237
-4.95,0.0284217962936427,0.009829713028618245
-4.94875,0.02808723069365431,0.01519152523185543
-4.9475,0.02808723069365415,0.01653197828266778
-4.94625,0.02808723069365415,0.01452129870645292
-4.945,0.0284217962936427,0.009159486503213292
-4.94375,0.0287563618936314,0.001116768198350197
-4.9425,0.0290909274936198,-0.006925950106505584
-4.94125,0.0290909274936198,-0.01396332862325759
-4.94,0.02942549309360819,-0.01764957451298316
-4.93875,0.02942549309360835,-0.01798468777568731
-4.9375,0.02942549309360835,-0.01496866841136502
-4.93625,0.0290909274936198,-0.008266403157315489
-4.935,0.02875636189363125,-0.0005587981151550235
-4.93375,0.02875636189363125,0.007148806926998433
-4.9325,0.0284217962936427,0.01318084565564301
-4.93125,0.02808723069365431,0.01619686501996393
-4.93,0.02808723069365415,0.01586175175726282
-4.92875,0.0284217962936427,0.01184039260483311
-4.9275,0.0284217962936427,0.00446790082537862
-4.92625,0.0287563618936314,-0.003239704216781846
-4.925,0.0290909274936198,-0.0109473092589353
-4.92375,0.02942549309360835,-0.01597400819947245
-4.9225,0.02942549309360835,-0.01697934798757942
-4.92125,0.02942549309360819,-0.01496866841136213
-4.92,0.0290909274936198,-0.008601516420017967
-4.91875,0.02875636189363125,-0.0008939113778610051
-4.9175,0.02875636189363125,0.006143467138887803
-4.91625,0.0284217962936427,0.01351595891834549
-4.915,0.02808723069365415,0.01787243133347768
-4.91375,0.02808723069365415,0.01820754459618016
-4.9125,0.02808723069365431,0.01552663849455745
-4.91125,0.0284217962936427,0.009159486503213292
-4.91,0.0284217962936427,0.001116768198353854
-4.90875,0.0290909274936195,-0.006590836843799602
-4.9075,0.0290909274936198,-0.01262287557244769
-4.90625,0.02942549309360835,-0.0153037816740675
-4.905,0.0290909274936198,-0.01429844188596007
-4.90375,0.02909092749361965,-0.009941969470824367
-4.9025,0.02875636189363125,-0.002234364428670911
-4.90125,0.02875636189363125,0.004803014088081097
-4.9,0.02842179629364285,0.01251061913023455
-4.89875,0.02808723069365415,0.01787243133347768
-4.8975,0.02808723069365415,0.01921288438428759
-4.89625,0.02808723069365415,0.01720220480807273
-4.895,0.02808723069365431,0.0118403926048296
-4.89375,0.0284217962936427,0.004132787562676143
-4.8925,0.02875636189363125,-0.003909930742183295
-4.89125,0.02909092749361965,-0.0109473092589321
-4.89,0.0290909274936198,-0.0146335551486627
-4.88875,0.0290909274936198,-0.01496866841136502
-4.8875,0.0290909274936198,-0.01161753578434026
-4.88625,0.0287563618936314,-0.004915270530293772
-4.885,0.02875636189363125,0.002457221249163761
-4.88375,0.0284217962936427,0.009829713028618245
-4.8825,0.02808723069365415,0.01586175175726282
-4.88125,0.02808723069365415,0.01887777112158481
-4.88,0.02808723069365415,0.01820754459618016
-4.87875,0.02808723069365415,0.01385107218104796
-4.8775,0.02842179629364255,0.006478580401596832
-4.87625,0.02875636189363125,-0.001899251165968435
-4.875,0.0290909274936198,-0.009606856208125396
-4.87375,0.0290909274936198,-0.01463355514866255
-4.8725,0.0290909274936198,-0.01597400819947153
-4.87125,0.0290909274936198,-0.01396332862325759
-4.87,0.0290909274936198,-0.007931289894613013
-4.86875,0.0287563618936314,0.0001114284102427671
-4.8675,0.0284217962936427,0.007148806926998433
-4.86625,0.02808723069365415,0.01385107218104796
-4.865,0.02808723069365415,0.01854265785888264
-4.86375,0.02808723069365415,0.01854265785888142
-4.8625,0.02808723069365415,0.01586175175726282
-4.86125,0.0284217962936427,0.009494599765915769
-4.86,0.0284217962936427,0.001116768198357664
-4.85875,0.0287563618936314,-0.006255723581103374
-4.8575,0.0290909274936198,-0.01228776230974521
-4.85625,0.0290909274936198,-0.01496866841136502
-4.855,0.0290909274936198,-0.01396332862325805
-4.85375,0.0290909274936198,-0.009606856208125396
-4.8525,0.02875636189363125,-0.002234364428670911
-4.85125,0.0284217962936427,0.005138127350783573
-4.85,0.02842179629364255,0.01217550586753787
-4.84875,0.02808723069365415,0.01720220480807273
-4.8475,0.02808723069365415,0.01887777112158511
-4.84625,0.02808723069365415,0.01653197828266884
-4.845,0.02808723069365415,0.01083505281672567
-4.84375,0.0284217962936427,0.002792334511866237
-4.8425,0.02875636189363125,-0.004915270530290724
-4.84125,0.0290909274936198,-0.01195264904704456
-4.84,0.0290909274936198,-0.01597400819947245
-4.83875,0.0290909274936198,-0.01563889493676997
-4.8375,0.0290909274936198,-0.01295798883515138
-4.83625,0.02875636189363125,-0.006255723581100631
-4.835,0.02875636189363125,0.001116768198353854
-4.83375,0.0284217962936427,0.008489259977808339
-4.8325,0.02808723069365415,0.01485641196915661
-4.83125,0.02808723069365415,0.01753731807077521
-4.83,0.02808723069365415,0.01686709154537025
-4.82875,0.02808723069365415,0.01251061913024004
-4.8275,0.02842179629364285,0.005473240613482392
-4.82625,0.02875636189363125,-0.002569477691373388
-4.825,0.02875636189363125,-0.009941969470827873
-4.82375,0.02909092749361965,-0.01496866841136274
-4.8225,0.0290909274936198,-0.01630912146217493
-4.82125,0.0290909274936198,-0.01396332862325759
-4.82,0.02875636189363125,-0.007931289894613013
-4.81875,0.0287563618936311,-0.0002236848524528517
-4.8175,0.0284217962936427,0.006813693664295956
-4.81625,0.02808723069365415,0.01385107218104796
-4.815,0.02808723069365415,0.01787243133347586
-4.81375,0.02808723069365415,0.01820754459618016
-4.8125,0.02808723069365415,0.01519152523185787
-4.81125,0.0284217962936427,0.008824373240510816
-4.81,0.02842179629364285,0.0007816549356478727
-4.80875,0.02875636189363125,-0.006925950106505584
-4.8075,0.0290909274936198,-0.01329310209785264
-4.80625,0.0290909274936198,-0.01563889493676891
-4.805,0.0290909274936198,-0.01463355514866255
-4.80375,0.0290909274936198,-0.009941969470827873
-4.8025,0.02875636189363125,-0.002569477691373388
-4.80125,0.02842179629364255,0.004467900825381972
-4.8,0.02808723069365415,0.01184039260483311
-4.79875,0.02808723069365415,0.01720220480807273
-4.7975,0.02808723069365415,0.01887777112158435
-4.79625,0.02808723069365415,0.01686709154536781
-4.795,0.02808723069365415,0.01150527934213063
-4.79375,0.0284217962936427,0.00346256103727119
-4.7925,0.0284217962936427,-0.00458015726758459
-4.79125,0.02875636189363125,-0.01161753578434026
-4.79,0.0290909274936198,-0.0153037816740675
-4.78875,0.0290909274936198,-0.01563889493676997
-4.7875,0.02909092749361965,-0.01228776230974216
-4.78625,0.02875636189363125,-0.005585497055695677
-4.785,0.0284217962936427,0.002122107986461284
-4.78375,0.0284217962936427,0.009494599765912416
-4.7825,0.02808723069365415,0.01552663849456035
-4.78125,0.0277526650936656,0.01820754459618016
-4.78,0.0277526650936656,0.01753731807077521
-4.77875,0.02808723069365415,0.01284573239293718
-4.7775,0.02808723069365415,0.00547324061348605
-4.77625,0.0284217962936427,-0.002569477691373388
-4.775,0.0287563618936311,-0.00994196947082452
-4.77375,0.0290909274936198,-0.01496866841136502
-4.7725,0.0290909274936198,-0.01630912146217493
-4.77125,0.0290909274936198,-0.01429844188596007
-4.77,0.02875636189363125,-0.008266403157312136
-4.76875,0.02875636189363125,-0.0008939113778610051
-4.7675,0.0284217962936427,0.006143467138891003
-4.76625,0.02808723069365431,0.01318084565563981
-4.765,0.0277526650936656,0.01720220480807273
-4.76375,0.0277526650936656,0.01720220480807273
-4.7625,0.02808723069365415,0.01418618544375044
-4.76125,0.02808723069365415,0.007483920189703957
-4.76,0.0284217962936427,-0.0005587981151585285
-4.75875,0.02875636189363125,-0.008936629682720442
-4.7575,0.0290909274936198,-0.01496866841136502
-4.75625,0.0290909274936198,-0.0173144612502819
-4.755,0.0290909274936198,-0.01630912146217493
-4.75375,0.0290909274936198,-0.01195264904704273
-4.7525,0.0287563618936314,-0.004245044004889276
-4.75125,0.0284217962936427,0.002792334511866237
-4.75,0.0284217962936427,0.01016482629132072
-4.74875,0.02808723069365415,0.01552663849456035
-4.7475,0.02808723069365415,0.01720220480807181
-4.74625,0.02808723069365415,0.01519152523185787
-4.745,0.02808723069365415,0.009829713028618245
-4.74375,0.02842179629364255,0.002122107986464789
-4.7425,0.02875636189363125,-0.005920610318398154
-4.74125,0.0290909274936198,-0.01262287557244769
-4.74,0.0290909274936198,-0.01597400819947245
-4.73875,0.0290909274936198,-0.01597400819947108
-4.7375,0.0290909274936198,-0.01295798883515016
-4.73625,0.02875636189363125,-0.005920610318398154
-4.735,0.02842179629364285,0.001116768198350653
-4.73375,0.02808723069365415,0.008489259977811234
-4.7325,0.02808723069365415,0.01485641196915539
-4.73125,0.02808723069365415,0.01753731807077521
-4.73,0.02775266509366575,0.01686709154537056
-4.72875,0.02808723069365415,0.01251061913023806
-4.7275,0.0284217962936427,0.005138127350783573
-4.72625,0.0284217962936427,-0.003239704216778341
-4.725,0.0287563618936314,-0.01094730925893759
-4.72375,0.0290909274936198,-0.01597400819947245
-4.7225,0.0290909274936198,-0.01697934798757988
-4.72125,0.0290909274936198,-0.01496866841136594
-4.72,0.0290909274936198,-0.008936629682720442
-4.71875,0.02875636189363125,-0.001229024640563482
-4.7175,0.0284217962936427,0.00547324061348605
-4.71625,0.02808723069365415,0.01251061913023989
-4.715,0.02808723069365415,0.01653197828266778
-4.71375,0.02808723069365415,0.01686709154537025
-4.7125,0.02808723069365415,0.01351595891834701
-4.71125,0.02808723069365415,0.007148806926998433
-4.71,0.0284217962936427,-0.001229024640563482
-4.70875,0.02875636189363125,-0.008601516420017967
-4.7075,0.0290909274936198,-0.01496866841136624
-4.70625,0.0290909274936198,-0.01764957451298483
-4.705,0.0290909274936198,-0.01630912146217493
-4.70375,0.0290909274936198,-0.01195264904704471
-4.7025,0.0287563618936311,-0.004245044004882418
-4.70125,0.0284217962936427,0.003127447774568714
-4.7,0.0284217962936427,0.01016482629132072
-4.69875,0.02808723069365431,0.01519152523185558
-4.6975,0.02808723069365415,0.01653197828266778
-4.69625,0.02808723069365415,0.01418618544375044
-4.695,0.02808723069365415,0.009159486503213292
-4.69375,0.02842179629364285,0.001116768198350349
-4.6925,0.02875636189363125,-0.006590836843803107
-4.69125,0.0290909274936198,-0.01362821536055512
-4.69,0.0290909274936198,-0.01731446125028068
-4.68875,0.0290909274936198,-0.01697934798757988
-4.6875,0.0290909274936198,-0.01396332862325759
-4.68625,0.02875636189363125,-0.006925950106505584
-4.685,0.0284217962936427,0.0004465416729522538
-4.68375,0.0284217962936427,0.007819033452403385
-4.6825,0.02808723069365415,0.01418618544375044
-4.68125,0.02808723069365415,0.01686709154536904
-4.68,0.02808723069365415,0.01586175175726282
-4.67875,0.02808723069365415,0.01117016607942815
-4.6775,0.0284217962936427,0.003797674299973667
-4.67625,0.0287563618936314,-0.004245044004889123
-4.675,0.0290909274936198,-0.01161753578434026
-4.67375,0.0290909274936198,-0.01630912146217493
-4.6725,0.0290909274936198,-0.01764957451298422
-4.67125,0.0290909274936198,-0.0153037816740646
-4.67,0.0290909274936198,-0.008936629682720442
-4.66875,0.02875636189363125,-0.001564137903265958
-4.6675,0.02842179629364285,0.005808353876185175
-4.66625,0.02808723069365415,0.01251061913023806
-4.665,0.02808723069365415,0.01686709154537025
-4.66375,0.02808723069365415,0.01720220480807273
-4.6625,0.02808723069365431,0.01418618544374739
-4.66125,0.0284217962936427,0.007483920189700909
-4.66,0.0284217962936427,-0.0005587981151585285
-4.65875,0.0287563618936311,-0.008266403157311983
-4.6575,0.0290909274936198,-0.01463355514866255
-4.65625,0.0290909274936198,-0.01697934798757988
-4.655,0.0290909274936198,-0.01563889493676997
-4.65375,0.02909092749361965,-0.0109473092589318
-4.6525,0.02875636189363125,-0.003239704216778341
-4.65125,0.0284217962936427,0.003797674299973667
-4.65,0.02808723069365431,0.0111701660794248
-4.64875,0.02808723069365415,0.0161968650199653
-4.6475,0.02808723069365415,0.01753731807077521
-4.64625,0.02808723069365415,0.01552663849456035
-4.645,0.02808723069365431,0.01016482629131707
-4.64375,0.0284217962936427,0.002122107986461284
-4.6425,0.02875636189363125,-0.005585497055695677
-4.64125,0.02909092749361965,-0.01228776230974216
-4.64,0.0290909274936198,-0.01563889493676997
-4.63875,0.0290909274936198,-0.01563889493676997
-4.6375,0.0290909274936198,-0.01262287557244769
-4.63625,0.0287563618936314,-0.005920610318401202
-4.635,0.0284217962936427,0.001451881461056331
-4.63375,0.02808723069365415,0.008824373240510816
-4.6325,0.02808723069365415,0.01485641196915539
-4.63125,0.02775266509366575,0.0175373180707749
-4.63,0.02808723069365415,0.01686709154537025
-4.62875,0.02808723069365415,0.01217550586753558
-4.6275,0.02842179629364255,0.004803014088084449
-4.62625,0.0284217962936427,-0.003574817479480818
-4.625,0.02875636189363125,-0.0109473092589353
-4.62375,0.0290909274936198,-0.01563889493676997
-4.6225,0.0290909274936198,-0.01664423472487634
-4.62125,0.0290909274936198,-0.01429844188596007
-4.62,0.02875636189363125,-0.008266403157315489
-4.61875,0.02842179629364285,-0.0005587981151620337
