ECG_Samples/New_Data/test_sub3/Jailyn_5.csv

#Digilent WaveForms Oscilloscope Acquisition
#Device Name: Discovery
#Serial Number: SN:210244566833
#Date Time: 2019-07-09 13:23:31.370
#Sample rate: 800Hz
#Samples: 8192
#Trigger: Source: Channel 1 Type: Edge Condition: Either Level: 0 V Hyst.: Auto HoldOff: 0 s
#Channel 1: Range: 100 mV/div Offset: 0 V Attenuation: 1 X
#Channel 2: Range: 100 mV/div Offset: 0 V Attenuation: 1 X
#Power Supplies: ON
#Positive Supply: ON
#Negative Supply: ON

Time (s),Channel 1 (V),Channel 2 (V)
-5.12,0.007009597894375561,0.07015010031506402
-5.11875,0.006675032294387164,0.08120883798424074
-5.1175,0.006675032294387012,0.07383634620479128
-5.11625,0.007344163494364109,0.05238909739183277
-5.115,0.009016991494306854,0.01552663849456035
-5.11375,0.01035525389426151,-0.02234116019083505
-5.1125,0.0113589506942267,-0.05652271298647212
-5.11125,0.01236264749419235,-0.07864018832483557
-5.11,0.01269721309418074,-0.08232643421456114
-5.10875,0.01236264749419189,-0.06959213023185591
-5.1075,0.0113589506942267,-0.04144261616486067
-5.10625,0.0100206882942725,-0.003574817479480818
-5.105,0.008682425894318915,0.03161207510426322
-5.10375,0.007678729094352659,0.06311272179831202
-5.1025,0.006675032294387012,0.07986838493343586
-5.10125,0.006675032294387012,0.07852793188262594
-5.1,0.00700959789437617,0.06277760853559415
-5.09875,0.008347860294329757,0.02893116900265941
-5.0975,0.009686122694283953,-0.00927174294542292
-5.09625,0.01102438509423754,-0.04512886205457161
-5.095,0.0120280818942038,-0.07227303633348851
-5.09375,0.01269721309418089,-0.08199132095186033
-5.0925,0.01236264749419235,-0.07495394243510833
-5.09125,0.01169351629421464,-0.05216624057132316
-5.09,0.01035525389426105,-0.0153037816740675
-5.08875,0.009016991494306854,0.02088845069779997
-5.0875,0.007678729094353268,0.05473489023073472
-5.08625,0.007009597894375561,0.07718747883181604
-5.085,0.006675032294387012,0.08154395124694823
-5.08375,0.006675032294387012,0.07015010031506402
-5.0825,0.007678729094353268,0.0430059260361459
-5.08125,0.009016991494306854,0.00446790082537862
-5.08,0.01035525389426105,-0.0323945580718938
-5.07875,0.01169351629421464,-0.06423031802861461
-5.0775,0.0123626474941925,-0.08065086790104936
-5.07625,0.01269721309418089,-0.07830507506213309
-5.075,0.0120280818942038,-0.06121429866430679
-5.07375,0.01068981949425021,-0.02803808565677669
-5.0725,0.009686122694283953,0.008824373240510816
-5.07125,0.008347860294329757,0.04401126582427085
-5.07,0.007344163494364109,0.07182566662857641
-5.06875,0.006675032294387012,0.08254929103505246
-5.0675,0.006675032294387012,0.07551191251830365
-5.06625,0.007344163494364109,0.05439977696804763
-5.065,0.008682425894317697,0.01753731807079197
-5.06375,0.0100206882942725,-0.02033048061460465
-5.0625,0.0113589506942267,-0.05484714667295974
-5.06125,0.01236264749419235,-0.07662950874862071
-5.06,0.01236264749419219,-0.08065086790104495
-5.05875,0.0120280818942038,-0.06858679044376127
-5.0575,0.0113589506942267,-0.04043727637675324
-5.05625,0.01002068829427311,-0.002904590954092935
-5.055,0.008682425894318306,0.03261741489238665
-5.05375,0.007344163494364109,0.06411806158641944
-5.0525,0.006675032294387012,0.08087372472154328
-5.05125,0.006675032294387164,0.07953327167072621
-5.05,0.007009597894375561,0.06378294832371698
-5.04875,0.008013294694341208,0.03094184857887427
-5.0475,0.009686122694283192,-0.00826640315729766
-5.04625,0.01102438509423861,-0.04378840900379066
-5.045,0.0120280818942038,-0.07160280980808356
-5.04375,0.01269721309418089,-0.08165620768915786
-5.0425,0.0123626474941925,-0.07461882917240906
-5.04125,0.01169351629421525,-0.05216624057133992
-5.04,0.01035525389426105,-0.01563889493676997
-5.03875,0.009016991494306854,0.02122356396050245
-5.0375,0.007678729094352203,0.05473489023076031
-5.03625,0.006675032294387012,0.07718747883181604
-5.035,0.006675032294387012,0.08187906450965071
-5.03375,0.007009597894375409,0.07082032684047401
-5.0325,0.007678729094352659,0.0433410392988659
-5.03125,0.009016991494306854,0.004132787562676143
-5.03,0.01035525389426105,-0.0323945580718938
-5.02875,0.01169351629421555,-0.06356009150323175
-5.0275,0.01236264749419235,-0.08031575463834796
-5.02625,0.01236264749419235,-0.07864018832483557
-5.025,0.01202808189420395,-0.06188452518971936
-5.02375,0.01102438509423815,-0.02904342544486904
-5.0225,0.009686122694283953,0.008489259977808339
-5.02125,0.008347860294329757,0.0433410392988659
-5.02,0.007344163494363805,0.07115544010317663
-5.01875,0.006675032294387012,0.08254929103505566
-5.0175,0.006675032294387012,0.0761821390437086
-5.01625,0.007344163494363805,0.05473489023075986
-5.015,0.008682425894318915,0.01820754459616279
-5.01375,0.0100206882942725,-0.01999536735190217
-5.0125,0.0113589506942267,-0.05350669362214983
-5.01125,0.01236264749419189,-0.07662950874861019
-5.01,0.01269721309418089,-0.08132109442645538
-5.00875,0.01236264749419235,-0.06925701696916622
-5.0075,0.0113589506942267,-0.04110750290215819
-5.00625,0.01002068829427189,-0.00323970421676234
-5.005,0.008682425894318306,0.0319471883669817
-5.00375,0.007344163494364109,0.06344783506101449
-5.0025,0.006675032294387317,0.07986838493342839
-5.00125,0.006675032294387012,0.07852793188262594
-5,0.007009597894375561,0.06311272179831202
-4.99875,0.008347860294329757,0.03060673531617179
-4.9975,0.009686122694284562,-0.008601516420033815
-4.99625,0.01102438509423815,-0.04345329574107553
-4.995,0.0120280818942038,-0.07126769654538109
-4.99375,0.01236264749419219,-0.08199132095185546
-4.9925,0.01236264749419235,-0.07562416896051329
-4.99125,0.01169351629421525,-0.05350669362214983
-4.99,0.01035525389426105,-0.01697934798757988
-4.98875,0.009016991494306245,0.0195479976470053
-4.9875,0.007678729094352659,0.05305932391723772
-4.98625,0.007009597894375561,0.0761821390437086
-4.985,0.006675032294387164,0.08087372472154114
-4.98375,0.006675032294387468,0.07048521357775386
-4.9825,0.007678729094352659,0.04267081277346095
-4.98125,0.009016991494306854,0.003797674299973667
-4.98,0.01035525389426044,-0.03239455807187734
-4.97875,0.01169351629421525,-0.06423031802862908
-4.9775,0.01236264749419235,-0.08132109442645538
-4.97625,0.01269721309418089,-0.079645528112943
-4.975,0.01202808189420319,-0.06288986497780424
-4.97375,0.0106898194942496,-0.03004876523297647
-4.9725,0.009686122694283953,0.007148806926998433
-4.97125,0.008347860294330366,0.04233569951074247
-4.97,0.007009597894375561,0.07048521357776651
-4.96875,0.006675032294387012,0.08120883798424576
-4.9675,0.006675032294387012,0.0748416859928987
-4.96625,0.007344163494364718,0.05372955044262637
-4.965,0.008682425894318306,0.01787243133347768
-4.96375,0.0100206882942725,-0.02033048061460465
-4.9625,0.01135895069422609,-0.05484714667294403
-4.96125,0.01236264749419235,-0.07763484853672814
-4.96,0.01269721309418089,-0.08132109442645538
-4.95875,0.01236264749419235,-0.07026235675727366
-4.9575,0.01135895069422609,-0.04244795595295088
-4.95625,0.0100206882942725,-0.004580157267588247
-4.955,0.008682425894318306,0.03060673531617179
-4.95375,0.007678729094353115,0.0624424952728926
-4.9525,0.006675032294387012,0.0798683849334354
-4.95125,0.006675032294387012,0.07886304514532842
-4.95,0.007009597894375561,0.06344783506101449
-4.94875,0.008347860294329148,0.03127696184159137
-4.9475,0.009686122694283953,-0.007931289894613013
-4.94625,0.01102438509423815,-0.04345329574107553
-4.945,0.0120280818942038,-0.07160280980808356
-4.94375,0.01269721309418074,-0.08232643421455961
-4.9425,0.01236264749419235,-0.0752890556978108
-4.94125,0.01169351629421525,-0.05317158035944735
-4.94,0.01068981949425006,-0.01664423472489402
-4.93875,0.009016991494306854,0.01921288438428759
-4.9375,0.008013294694341208,0.0533944371799402
-4.93625,0.007009597894375561,0.0761821390437086
-4.935,0.006675032294387164,0.08120883798424104
-4.93375,0.007009597894375561,0.07082032684046899
-4.9325,0.008013294694341208,0.04367615256156838
-4.93125,0.009351557094294796,0.005473240613503426
-4.93,0.0106898194942496,-0.03138921828378637
-4.92875,0.01169351629421525,-0.06356009150322413
-4.9275,0.01236264749419235,-0.08031575463834796
-4.92625,0.01269721309418059,-0.07897530158753058
-4.925,0.0120280818942038,-0.06255475171511669
-4.92375,0.01102438509423815,-0.03004876523297647
-4.9225,0.009686122694284562,0.00748392018968384
-4.92125,0.008347860294329301,0.04267081277347375
-4.92,0.007344163494364109,0.07082032684046899
-4.91875,0.006675032294387012,0.08221417777235318
-4.9175,0.006675032294387012,0.07618213904371135
-4.91625,0.007344163494364109,0.05540511675615506
-4.915,0.008682425894318306,0.01854265785888264
-4.91375,0.0100206882942725,-0.01932514082649722
-4.9125,0.01135895069422715,-0.05350669362216019
-4.91125,0.01236264749419235,-0.07629439548591824
-4.91,0.01269721309418089,-0.08065086790105043
-4.90875,0.0123626474941925,-0.06959213023187373
-4.9075,0.0113589506942267,-0.04211284269026563
-4.90625,0.0100206882942725,-0.004245044004885771
-4.905,0.008682425894318306,0.03127696184157674
-4.90375,0.007344163494363805,0.06277760853561762
-4.9025,0.006675032294387012,0.08053861145884081
-4.90125,0.006675032294387012,0.07986838493343586
-4.9,0.007009597894375409,0.06478828811183127
-4.89875,0.008013294694341208,0.03228230162968418
-4.8975,0.009686122694283953,-0.006590836843803107
-4.89625,0.01102438509423815,-0.0424479559529681
-4.895,0.0120280818942041,-0.07059747001998115
-4.89375,0.01269721309418089,-0.08165620768915786
-4.8925,0.01236264749419235,-0.07495394243510833
-4.89125,0.01169351629421555,-0.05350669362215958
-4.89,0.01068981949424884,-0.01697934798756342
-4.88875,0.009016991494306854,0.01921288438428759
-4.8875,0.008013294694341208,0.05305932391723772
-4.88625,0.007009597894376017,0.07651725230640041
-4.885,0.006675032294387012,0.08187906450965071
-4.88375,0.007009597894375561,0.07149055336587394
-4.8825,0.007678729094352659,0.04434637908697334
-4.88125,0.009016991494307463,0.005808353876171916
-4.88,0.01035525389426105,-0.03071899175838142
-4.87875,0.01169351629421525,-0.06288986497781918
-4.8775,0.01236264749419204,-0.08031575463834004
-4.87625,0.01269721309418089,-0.07897530158753804
-4.875,0.0120280818942038,-0.06255475171511669
-4.87375,0.01102438509423815,-0.03038387849567895
-4.8725,0.009686122694283344,0.007148806927014434
-4.87125,0.008347860294329757,0.04233569951075847
-4.87,0.007009597894375561,0.07048521357776651
-4.86875,0.006675032294387164,0.08187906450964554
-4.8675,0.006675032294387012,0.0761821390437086
-4.86625,0.007344163494364109,0.05540511675615506
-4.865,0.008682425894318306,0.01854265785888264
-4.86375,0.01002068829427311,-0.01899002756381059
-4.8625,0.0113589506942267,-0.05384180688485231
-4.86125,0.01236264749419235,-0.07662950874862071
-4.86,0.01236264749419235,-0.08132109442645324
-4.85875,0.01236264749419189,-0.06992724349455884
-4.8575,0.0113589506942267,-0.04278306921567058
-4.85625,0.0100206882942725,-0.004915270530290724
-4.855,0.008682425894318915,0.03027162205345331
-4.85375,0.007678729094352659,0.06210738201020459
-4.8525,0.006675032294387012,0.07986838493343586
-4.85125,0.006675032294387012,0.07953327167073337
-4.85,0.007009597894376017,0.06445317484910745
-4.84875,0.008013294694341208,0.03261741489238665
-4.8475,0.009686122694283953,-0.006925950106505584
-4.84625,0.01102438509423754,-0.04278306921565427
-4.845,0.0120280818942038,-0.07093258328267861
-4.84375,0.01236264749419235,-0.08199132095186033
-4.8425,0.01236264749419235,-0.07562416896051329
-4.84125,0.01169351629421464,-0.05417692014753833
-4.84,0.01035525389426105,-0.01798468777568731
-4.83875,0.009016991494306854,0.01921288438428759
-4.8375,0.008013294694341665,0.05238909739181768
-4.83625,0.007009597894375561,0.07584702578100613
-4.835,0.006675032294387012,0.08120883798424576
-4.83375,0.007009597894375561,0.07082032684046899
-4.8325,0.007678729094353268,0.04468149234965844
-4.83125,0.009016991494306854,0.00647858040159348
-4.83,0.01035525389426105,-0.0310541050210839
-4.82875,0.01169351629421464,-0.0628898649778047
-4.8275,0.01236264749419235,-0.08031575463834766
-4.82625,0.01236264749419235,-0.079645528112943
-4.825,0.0120280818942038,-0.06356009150322413
-4.82375,0.01068981949425021,-0.03105410502109868
-4.8225,0.009686122694283953,0.006143467138891003
-4.82125,0.008347860294329757,0.04133035972265105
-4.82,0.007344163494364109,0.06981498705236155
-4.81875,0.006675032294387012,0.08154395124694579
-4.8175,0.006675032294387012,0.0761821390437086
-4.81625,0.007344163494364109,0.05540511675615506
-4.815,0.008682425894317697,0.01887777112160172
-4.81375,0.0100206882942725,-0.01899002756379474
-4.8125,0.0113589506942267,-0.05384180688485231
-4.81125,0.01236264749419235,-0.07662950874862071
-4.81,0.01236264749419219,-0.08098598116374774
-4.80875,0.0120280818942038,-0.06959213023186871
-4.8075,0.0113589506942267,-0.04278306921567058
-4.80625,0.01002068829427311,-0.005250383793010273
-4.805,0.008682425894318306,0.03027162205346932
-4.80375,0.007344163494364109,0.06210738201020459
-4.8025,0.006675032294387012,0.07986838493343586
-4.80125,0.006675032294387164,0.07953327167072637
-4.8,0.007009597894375561,0.06411806158641944
-4.79875,0.008013294694341208,0.03295252815508913
-4.7975,0.009686122694283192,-0.005920610318380475
-4.79625,0.01102438509423861,-0.04211284269027858
-4.795,0.0120280818942038,-0.07059747001997613
-4.79375,0.01236264749419235,-0.08199132095186033
-4.7925,0.01236264749419235,-0.07562416896051619
-4.79125,0.01169351629421525,-0.05384180688485231
-4.79,0.01035525389426105,-0.01764957451298483
-4.78875,0.009016991494306854,0.01854265785888264
-4.7875,0.007678729094352203,0.05238909739184344
-4.78625,0.006675032294387012,0.07584702578100613
-4.785,0.006675032294387012,0.08154395124694823
-4.78375,0.006675032294387012,0.07115544010317618
-4.7825,0.007678729094352659,0.04535171887508076
-4.78125,0.009016991494306854,0.006813693664295956
-4.78,0.01035525389426105,-0.03038387849567895
-4.77875,0.01169351629421555,-0.0628898649778271
-4.7775,0.01236264749419235,-0.08031575463834796
-4.77625,0.01236264749419235,-0.079645528112943
-4.775,0.01202808189420395,-0.06356009150323144
-4.77375,0.01102438509423815,-0.03172433154648885
-4.7725,0.009686122694283953,0.00547324061348605
-4.77125,0.008347860294329757,0.04066013319724609
-4.77,0.007009597894375409,0.0694798737896644
-4.76875,0.006675032294387012,0.08120883798424576
-4.7675,0.006675032294387012,0.0761821390437086
-4.76625,0.007344163494363805,0.05540511675616451
-4.765,0.008682425894318915,0.01887777112156805
-4.76375,0.0100206882942725,-0.01865491430109226
-4.7625,0.0113589506942267,-0.05350669362214983
-4.76125,0.01236264749419189,-0.07696462201131252
-4.76,0.01269721309418089,-0.08199132095186033
-4.75875,0.01236264749419235,-0.07059747001997613
-4.7575,0.0113589506942267,-0.04412352226648048
-4.75625,0.01002068829427189,-0.00625572358108463
-4.755,0.008682425894318306,0.02893116900265941
-4.75375,0.007678729094352659,0.06076692895939469
-4.7525,0.006675032294387468,0.07919815840802251
-4.75125,0.006675032294387012,0.07919815840803089
-4.75,0.007009597894375561,0.06445317484912193
-4.74875,0.008013294694341208,0.03261741489238665
-4.7475,0.009351557094296166,-0.006255723581117089
-4.74625,0.01102438509423815,-0.0424479559529681
-4.745,0.0120280818942038,-0.07093258328267861
-4.74375,0.01269721309418059,-0.08232643421455764
-4.7425,0.01236264749419235,-0.07662950874862071
-4.74125,0.01169351629421525,-0.05551737319836469
-4.74,0.01035525389426105,-0.01899002756379474
-4.73875,0.009351557094294796,0.01720220480808827
-4.7375,0.008013294694341208,0.05138375760372534
-4.73625,0.007009597894375561,0.07517679925560118
-4.735,0.006675032294387164,0.08120883798424301
-4.73375,0.007009597894375865,0.07082032684045725
-4.7325,0.007678729094352659,0.04501660561237829
-4.73125,0.009016991494306854,0.007148806926998433
-4.73,0.01035525389426044,-0.03004876523295955
-4.72875,0.01169351629421525,-0.06255475171511669
-4.7275,0.01236264749419235,-0.08065086790105043
-4.72625,0.01269721309418089,-0.079645528112943
-4.725,0.01202808189420334,-0.06423031802861445
-4.72375,0.01102438509423815,-0.03205944480919132
-4.7225,0.009686122694283953,0.00547324061348605
-4.72125,0.008347860294330366,0.04066013319723009
-4.72,0.007344163494364109,0.06947987378965907
-4.71875,0.006675032294387012,0.08154395124694823
-4.7175,0.006675032294387012,0.07651725230641108
-4.71625,0.007344163494364718,0.05641045654424588
-4.715,0.008682425894318306,0.01988311090969254
-4.71375,0.0100206882942725,-0.01798468777568731
-4.7125,0.01135895069422609,-0.05283646709672903
-4.71125,0.01236264749419235,-0.07662950874862071
-4.71,0.01269721309418089,-0.08165620768915786
-4.70875,0.01236264749419235,-0.07093258328267861
-4.7075,0.01135895069422609,-0.04445863552916574
-4.70625,0.0100206882942725,-0.006590836843803107
-4.705,0.008682425894318306,0.02893116900265941
-4.70375,0.007678729094353115,0.06110204222208253
-4.7025,0.007009597894375409,0.07986838493343586
-4.70125,0.006675032294387012,0.07986838493343586
-4.7,0.007009597894375561,0.06512340137452688
-4.69875,0.008013294694340752,0.0336227546805084
-4.6975,0.009351557094295405,-0.005585497055695677
-4.69625,0.0106898194942496,-0.04110750290215819
-4.695,0.0120280818942038,-0.06992724349457118
-4.69375,0.01236264749419235,-0.08199132095185759
-4.6925,0.01236264749419235,-0.07595928222321575
-4.69125,0.01169351629421525,-0.05518225993566221
-4.69,0.01035525389426166,-0.0189900275638112
-4.68875,0.009351557094295405,0.01787243133347768
-4.6875,0.008013294694341208,0.05138375760372534
-4.68625,0.007009597894375561,0.07551191251830365
-4.685,0.006675032294387164,0.08187906450964615
-4.68375,0.007009597894375561,0.07182566662857641
-4.6825,0.007678729094352659,0.04635705866318819
-4.68125,0.009016991494306245,0.007819033452420909
-4.68,0.01035525389426105,-0.02937853870757151
-4.67875,0.01169351629421525,-0.06121429866430679
-4.6775,0.01236264749419235,-0.079645528112943
-4.67625,0.01236264749419219,-0.07897530158753104
-4.675,0.0120280818942038,-0.06356009150322413
-4.67375,0.01102438509423815,-0.0310541050210839
-4.6725,0.009686122694284562,0.006143467138874086
-4.67125,0.008347860294329148,0.04166547298536678
-4.67,0.007009597894375561,0.07082032684046899
-4.66875,0.006675032294387012,0.08321951756046062
-4.6675,0.006675032294387012,0.07819281861992576
-4.66625,0.007344163494364109,0.05842113612047735
-4.665,0.008347860294329757,0.02222890374860988
-4.66375,0.0100206882942725,-0.0153037816740675
-4.6625,0.01102438509423861,-0.05015556099513573
-4.66125,0.0120280818942038,-0.07361348938429842
-4.66,0.01236264749419235,-0.07897530158753804
-4.65875,0.01202808189420395,-0.06791656391836134
-4.6575,0.0113589506942267,-0.04144261616486067
-4.65625,0.0100206882942725,-0.003574817479480818
-4.655,0.008682425894318306,0.0319471883669817
-4.65375,0.007344163494363805,0.06445317484913046
-4.6525,0.006675032294387012,0.08321951756046062
-4.65125,0.006340466694398463,0.0835546308231631
-4.65,0.00667503229438686,0.06914476052696315
-4.64875,0.008013294694341208,0.03831434035832876
-4.6475,0.009351557094295405,-0.0008939113778610051
-4.64625,0.0106898194942496,-0.036751030487026
-4.645,0.01169351629421555,-0.06557077107944431
-4.64375,0.01236264749419235,-0.07729973527402567
-4.6425,0.01236264749419235,-0.07160280980808356
-4.64125,0.01169351629421555,-0.05082578752053947
-4.64,0.01035525389426044,-0.01463355514864594
-4.63875,0.009016991494306854,0.0218937904859074
-4.6375,0.007678729094352659,0.05574023001885754
-4.63625,0.006675032294387468,0.08020349819612721
-4.635,0.006340466694398463,0.08657065018748539
-4.63375,0.006675032294387012,0.07651725230641108
-4.6325,0.007344163494364109,0.05104864434102287
-4.63125,0.008682425894318915,0.01351595891832842
-4.63,0.0100206882942725,-0.02401672650433189
-4.62875,0.0113589506942267,-0.05618759972376964
-4.6275,0.01202808189420349,-0.07461882917239747
-4.62625,0.0120280818942038,-0.07428371590970338
-4.625,0.01169351629421525,-0.05920361908809193
-4.62375,0.0106898194942496,-0.02770297239405913
