ECG_Samples/New_Data/test_sub3/Jailyn_1.csv

#Digilent WaveForms Oscilloscope Acquisition
#Device Name: Discovery
#Serial Number: SN:210244566833
#Date Time: 2019-07-09 13:19:33.313
#Sample rate: 800Hz
#Samples: 8192
#Trigger: Source: Channel 1 Type: Edge Condition: Either Level: 0 V Hyst.: Auto HoldOff: 0 s
#Channel 1: Range: 100 mV/div Offset: 0 V Attenuation: 1 X
#Channel 2: Range: 100 mV/div Offset: 0 V Attenuation: 1 X
#Power Supplies: ON
#Positive Supply: ON
#Negative Supply: ON

Time (s),Channel 1 (V),Channel 2 (V)
-5.12,0.01403547549413509,-0.0008939113778610051
-5.11875,0.01403547549413509,-0.001899251165967978
-5.1175,0.01470460669411219,-0.01128242252163778
-5.11625,0.01537373789408929,-0.02937853870757151
-5.115,0.01604286909406638,-0.04747465489350525
-5.11375,0.01671200029404364,-0.06322497824052546
-5.1125,0.01704656589403203,-0.07160280980808356
-5.11125,0.01704656589403203,-0.06959213023186871
-5.11,0.01671200029404364,-0.05819827929998968
-5.10875,0.01604286909406593,-0.03708614374971735
-5.1075,0.01503917229410074,-0.01262287557244769
-5.10625,0.01437004109412364,0.009159486503213292
-5.105,0.01370090989414685,0.02960139552805507
-5.10375,0.01303177869416944,0.04099524645994856
-5.1025,0.01303177869416944,0.04133035972265105
-5.10125,0.01336634429415799,0.03295252815508913
-5.1,0.01403547549413539,0.01552663849455105
-5.09875,0.01470460669411219,-0.004915270530290724
-5.0975,0.01537373789408929,-0.02435183976703437
-5.09625,0.01604286909406608,-0.03842659680053198
-5.095,0.01604286909406638,-0.04177772942756315
-5.09375,0.01604286909406638,-0.03608080396162105
-5.0925,0.01537373789408929,-0.02066559387730712
-5.09125,0.01470460669411173,0.001786994723768408
-5.09,0.01370090989414654,0.02289913027401483
-5.08875,0.01303177869416944,0.04166547298535352
-5.0875,0.01269721309418105,0.05372955044263719
-5.08625,0.01236264749419235,0.05540511675615506
-5.085,0.01269721309418089,0.04836773823940305
-5.08375,0.01303177869416944,0.03127696184157674
-5.0825,0.01403547549413539,0.008824373240501216
-5.08125,0.01470460669411219,-0.01228776230974521
-5.08,0.01537373789408929,-0.02971365197027399
-5.07875,0.01570830349407768,-0.03876171006323675
-5.0775,0.01570830349407768,-0.03708614374972375
-5.07625,0.01537373789408929,-0.0266976326059517
-5.075,0.01470460669411219,-0.006925950106505584
-5.07375,0.01403547549413539,0.0135159589183362
-5.0725,0.01336634429415799,0.03261741489238665
-5.07125,0.01269721309418089,0.04736239845129563
-5.07,0.01236264749419235,0.05238909739183277
-5.06875,0.01236264749419265,0.04702728518858675
-5.0675,0.01303177869416944,0.03295252815508913
-5.06625,0.01370090989414654,0.01083505281672567
-5.065,0.01437004109412334,-0.01128242252162772
-5.06375,0.01503917229410074,-0.03205944480919132
-5.0625,0.01570830349407784,-0.04479374879188544
-5.06125,0.01570830349407784,-0.04747465489350525
-5.06,0.01570830349407753,-0.04043727637674577
-5.05875,0.01503917229410074,-0.02401672650433189
-5.0575,0.01437004109412364,-0.002904590954075865
-5.05625,0.01370090989414685,0.01485641196914732
-5.055,0.01303177869416944,0.03127696184157674
-5.05375,0.01269721309418089,0.03931968014643619
-5.0525,0.01303177869416944,0.0363036607821139
-5.05125,0.0130317786941699,0.02524492311292287
-5.05,0.01403547549413509,0.004803014088081097
-5.04875,0.01470460669411219,-0.01865491430109226
-5.0475,0.01570830349407738,-0.04077238963944566
-5.04625,0.01637743469405509,-0.05719293951187981
-5.045,0.01671200029404349,-0.06322497824052165
-5.04375,0.01671200029404349,-0.05920361908809193
-5.0425,0.01604286909406669,-0.04579908857999897
-5.04125,0.01537373789408929,-0.02535717955514179
-5.04,0.01470460669411219,-0.005920610318398154
-5.03875,0.01403547549413509,0.01251061913023806
-5.0375,0.01370090989414639,0.02390447006212303
-5.03625,0.01336634429415799,0.02558003637563465
-5.035,0.01370090989414654,0.01787243133347768
-5.03375,0.01437004109412334,0.0004465416729568239
-5.0325,0.01537373789408929,-0.02200604692811703
-5.03125,0.01604286909406638,-0.04378840900377801
-5.03,0.01671200029404349,-0.06188452518971174
-5.02875,0.01704656589403218,-0.07126769654538063
-5.0275,0.01738113149402058,-0.07026235675727366
-5.02625,0.01704656589403203,-0.06020895887619936
-5.025,0.01637743469405524,-0.04077238963946456
-5.02375,0.01570830349407784,-0.01966025408919969
-5.0225,0.01503917229410074,-0.0008939113778610051
-5.02125,0.01437004109412364,0.01385107218104796
-5.02,0.01437004109412364,0.01921288438428561
-5.01875,0.01437004109412364,0.01485641196915539
-5.0175,0.01503917229410074,0.001786994723758807
-5.01625,0.01570830349407753,-0.01999536735189227
-5.015,0.01637743469405539,-0.04177772942757245
-5.01375,0.01738113149402058,-0.06221963845241422
-5.0125,0.01805026269399768,-0.07461882917240585
-5.01125,0.01805026269399768,-0.07629439548591747
-5.01,0.01805026269399768,-0.06892190370646376
-5.00875,0.01738113149402058,-0.05015556099512506
-5.0075,0.01671200029404349,-0.02904342544486904
-5.00625,0.01604286909406608,-0.01094730925892723
-5.005,0.01537373789408929,0.006813693664295956
-5.00375,0.01503917229410074,0.0161968650199653
-5.0025,0.01503917229410074,0.01452129870645368
-5.00125,0.01537373789408929,0.004803014088081097
-5,0.01604286909406638,-0.01396332862325759
-4.99875,0.01704656589403203,-0.03641591722432352
-4.9975,0.01771569709400943,-0.0568578262491816
-4.99625,0.01838482829398623,-0.07227303633348851
-4.995,0.01871939389397478,-0.07729973527402567
-4.99375,0.01871939389397478,-0.0722730363334908
-4.9925,0.01838482829398623,-0.05752805277457955
-4.99125,0.01771569709400913,-0.03507546417351361
-4.99,0.01704656589403203,-0.01463355514866255
-4.98875,0.01637743469405463,0.005473240613492299
-4.9875,0.01570830349407784,0.01921288438428759
-4.98625,0.01570830349407784,0.02256401701131236
-4.985,0.01570830349407784,0.01686709154537284
-4.98375,0.01637743469405524,0.001786994723749207
-4.9825,0.01704656589403203,-0.01932514082649722
-4.98125,0.01771569709400913,-0.03943193658864581
-4.98,0.01838482829398592,-0.05652271298646434
-4.97875,0.01905395949396333,-0.06456543129133155
-4.9775,0.01905395949396333,-0.06188452518971174
-4.97625,0.01871939389397478,-0.05015556099512506
-4.975,0.01805026269399737,-0.02971365197026424
-4.97375,0.01738113149402058,-0.008266403157315489
-4.9725,0.01671200029404349,0.01150527934213063
-4.97125,0.01604286909406669,0.02792582921454451
-4.97,0.01570830349407784,0.03496320773130399
-4.96875,0.01570830349407784,0.03127696184157674
-4.9675,0.01604286909406638,0.01887777112158511
-4.96625,0.01704656589403234,-0.002234364428680817
-4.965,0.01771569709400913,-0.02401672650433189
-4.96375,0.01838482829398623,-0.04378840900377801
-4.9625,0.01905395949396302,-0.05652271298646633
-4.96125,0.01938852509395188,-0.05920361908809193
-4.96,0.01905395949396333,-0.05183112730863745
-4.95875,0.01871939389397478,-0.03474035091081114
-4.9575,0.01771569709400882,-0.01362821536054658
-4.95625,0.01704656589403203,0.005138127350783573
-4.955,0.01637743469405493,0.02323424353671731
-4.95375,0.01604286909406654,0.03295252815508471
-4.9525,0.01604286909406654,0.03127696184157232
-4.95125,0.01637743469405493,0.02155867722320493
-4.95,0.01704656589403203,0.002792334511866237
-4.94875,0.01805026269399722,-0.01966025408918948
-4.9475,0.01871939389397478,-0.04077238963945572
-4.94625,0.01938852509395188,-0.05685782624917459
-4.945,0.01972309069394042,-0.06255475171511669
-4.94375,0.01972309069394027,-0.05819827929997855
-4.9425,0.01938852509395188,-0.04512886205458792
-4.94125,0.01871939389397478,-0.02368161324162941
-4.94,0.01771569709400959,-0.002904590954085313
-4.93875,0.01704656589403203,0.01519152523185787
-4.9375,0.01671200029404349,0.02792582921455198
-4.93625,0.01671200029404349,0.02993650879076684
-4.935,0.01671200029404379,0.02289913027400737
-4.93375,0.01738113149402058,0.00647858040159348
-4.9325,0.01838482829398623,-0.01597400819947245
-4.93125,0.01905395949396302,-0.0374212570124212
-4.93,0.01972309069394042,-0.05585248646106716
-4.92875,0.02039222189391753,-0.06557077107943898
-4.9275,0.02039222189391753,-0.06490054455403403
-4.92625,0.02005765629392882,-0.05484714667295074
-4.925,0.01972309069394042,-0.03507546417351361
-4.92375,0.01871939389397478,-0.01463355514866255
-4.9225,0.01838482829398638,0.004467900825369931
-4.92125,0.01771569709400898,0.02021822417239792
-4.92,0.01738113149402058,0.02658537616374208
-4.91875,0.01738113149402058,0.02222890374860988
-4.9175,0.01805026269399737,0.00949459976592156
-4.91625,0.01871939389397478,-0.01128242252163778
-4.915,0.01972309069394042,-0.03339989786000123
-4.91375,0.02039222189391753,-0.05317158035944735
-4.9125,0.02106135309389462,-0.06590588434214269
-4.91125,0.02106135309389462,-0.06858679044376127
-4.91,0.02106135309389462,-0.06121429866430679
-4.90875,0.02039222189391783,-0.04412352226648825
-4.9075,0.01972309069394042,-0.02200604692811703
-4.90625,0.01905395949396333,-0.002234364428670911
-4.905,0.01838482829398623,0.01586175175726282
-4.90375,0.01805026269399768,0.02591514963833697
-4.9025,0.01805026269399768,0.02558003637563465
-4.90125,0.01838482829398623,0.0161968650199653
-4.9,0.01905395949396302,-0.001899251165960205
-4.89875,0.02005765629392898,-0.02435183976703437
-4.8975,0.02072678749390607,-0.04479374879188544
-4.89625,0.02139591869388317,-0.06054407213890184
-4.895,0.02173048429387172,-0.06624099760484195
-4.89375,0.02173048429387172,-0.06188452518971174
-4.8925,0.02139591869388317,-0.04847999468161268
-4.89125,0.02072678749390638,-0.02703274586866393
-4.89,0.02005765629392852,-0.006925950106496746
-4.88875,0.01905395949396333,0.01251061913023806
-4.8875,0.01871939389397478,0.02558003637563465
-4.88625,0.01871939389397478,0.02826094247725324
-4.885,0.01871939389397478,0.0218937904859074
-4.88375,0.01938852509395188,0.006143467138891003
-4.8825,0.02005765629392898,-0.01597400819947245
-4.88125,0.02106135309389493,-0.03742125701243933
-4.88,0.02173048429387172,-0.05585248646106716
-4.87875,0.02239961549384882,-0.06590588434214147
-4.8775,0.02239961549384882,-0.06557077107943914
-4.87625,0.02206504989386027,-0.05618759972376964
-4.875,0.02173048429387172,-0.036751030487026
-4.87375,0.02106135309389462,-0.01563889493676997
-4.8725,0.02039222189391722,0.003127447774575876
-4.87125,0.01972309069394042,0.01887777112158511
-4.87,0.01938852509395188,0.02524492311293217
-4.86875,0.01972309069394027,0.02122356396050428
-4.8675,0.02005765629392898,0.008154146715105863
-4.86625,0.02072678749390607,-0.01262287557244769
-4.865,0.02173048429387172,-0.03507546417351361
-4.86375,0.02239961549384912,-0.05518225993566816
-4.8625,0.02306874669382591,-0.0682516771810588
-4.86125,0.02340331229381446,-0.07026235675727366
-4.86,0.02306874669382607,-0.06322497824052485
-4.85875,0.02273418109383706,-0.04680442836809054
-4.8575,0.02206504989386027,-0.02535717955514179
-4.85625,0.02139591869388317,-0.005920610318398154
-4.855,0.02072678749390638,0.01217550586752735
-4.85375,0.02039222189391753,0.02256401701131236
-4.8525,0.02039222189391753,0.02256401701131236
-4.85125,0.02072678749390607,0.01351595891834549
-4.85,0.02139591869388347,-0.004245044004895828
-4.84875,0.02206504989386027,-0.02636251934324923
-4.8475,0.02306874669382591,-0.04713954163080277
-4.84625,0.02373787789380271,-0.06255475171510969
-4.845,0.02407244349379156,-0.0682516771810588
-4.84375,0.02407244349379156,-0.0638952047659266
-4.8425,0.02373787789380302,-0.04982044773242258
-4.84125,0.02306874669382546,-0.02870831218215681
-4.84,0.02206504989386027,-0.00726106336920806
-4.83875,0.02139591869388317,0.01184039260483311
-4.8375,0.02106135309389478,0.02591514963833072
-4.83625,0.02072678749390607,0.02960139552806436
-4.835,0.02106135309389462,0.02390447006212226
-4.83375,0.02173048429387172,0.008824373240510816
-4.8325,0.02239961549384912,-0.01195264904705218
-4.83125,0.02306874669382591,-0.03272967133459628
-4.83,0.02373787789380302,-0.04982044773242258
-4.82875,0.02440700909377981,-0.05886850582538534
-4.8275,0.02440700909377996,-0.05719293951187204
-4.82625,0.02407244349379156,-0.04613420184269534
-4.825,0.02340331229381446,-0.02535717955514179
-4.82375,0.02273418109383767,-0.002904590954086076
-4.8225,0.02206504989386027,0.01820754459618016
-4.82125,0.02139591869388317,0.03596854751941142
-4.82,0.02106135309389462,0.04468149234967581
-4.81875,0.02106135309389478,0.04267081277345623
-4.8175,0.02139591869388317,0.03228230162968418
-4.81625,0.02206504989386027,0.01284573239294053
-4.815,0.02273418109383706,-0.007596176631901241
-4.81375,0.02340331229381446,-0.02569229281784427
-4.8125,0.02407244349379156,-0.03708614374972848
-4.81125,0.02407244349379156,-0.0380914835378359
-4.81,0.02373787789380271,-0.02904342544486096
-4.80875,0.02306874669382591,-0.01128242252163778
-4.8075,0.02239961549384882,0.01217550586753558
-4.80625,0.02139591869388363,0.03328764141778201
-4.805,0.02072678749390607,0.0533944371799402
-4.80375,0.02039222189391753,0.06612874116263431
-4.8025,0.02039222189391753,0.06746919421344422
-4.80125,0.02039222189391768,0.06043181569668505
-4.8,0.02072678749390607,0.04468149234967581
-4.79875,0.02173048429387172,0.02390447006212226
-4.7975,0.02239961549384851,0.00513812735079211
-4.79625,0.02273418109383752,-0.009606856208127377
-4.795,0.02306874669382591,-0.01396332862325759
-4.79375,0.02273418109383737,-0.008266403157315489
-4.7925,0.02239961549384897,0.006478580401586775
-4.79125,0.02139591869388317,0.02926628226536189
-4.79,0.02072678749390607,0.05138375760372534
-4.78875,0.01972309069394042,0.07316611967938631
-4.7875,0.01905395949396317,0.0882462165009999
-4.78625,0.01871939389397478,0.09293780217883243
-4.785,0.01871939389397478,0.08858132976370024
-4.78375,0.01905395949396317,0.07517679925560727
-4.7825,0.01972309069394042,0.05507000349345258
-4.78125,0.02039222189391753,0.03529832099400647
-4.78,0.02106135309389462,0.01820754459618016
-4.77875,0.02139591869388317,0.009494599765916684
-4.7775,0.02139591869388317,0.01150527934213063
-4.77625,0.02106135309389462,0.02222890374860988
-4.775,0.02005765629392943,0.04267081277345165
-4.77375,0.01938852509395188,0.06545851463722936
-4.7725,0.01838482829398623,0.0862355369247829
-4.77125,0.01771569709400913,0.1036614265853117
-4.77,0.01704656589403203,0.1123743714155749
-4.76875,0.01704656589403203,0.1096934653139563
-4.7675,0.01738113149402058,0.09896984090747701
-4.76625,0.01771569709400898,0.07919815840803988
-4.765,0.01871939389397508,0.05808602285776603
-4.76375,0.01938852509395188,0.03864945362103123
-4.7625,0.01972309069394042,0.02558003637563465
-4.76125,0.01972309069394042,0.02323424353671837
-4.76,0.01938852509395188,0.03060673531617179
-4.75875,0.01871939389397478,0.04702728518859314
-4.7575,0.01805026269399768,0.06880964726425412
-4.75625,0.01704656589403157,0.08891644302641095
-4.755,0.01604286909406638,0.1070125592123365
-4.75375,0.01570830349407784,0.1177361836188157
-4.7525,0.01537373789408944,0.1174010703561134
-4.75125,0.01570830349407784,0.1086881255258488
-4.75,0.01604286909406638,0.0905920093399151
-4.74875,0.01671200029404349,0.06746919421344422
-4.7475,0.01738113149402089,0.04635705866318057
-4.74625,0.01805026269399768,0.02960139552806436
-4.745,0.01838482829398623,0.0218937904859074
-4.74375,0.01805026269399783,0.02490980985022832
-4.7425,0.01771569709400913,0.03697388730751885
-4.74125,0.01704656589403203,0.05741579633236992
-4.74,0.01604286909406638,0.07685236556911357
-4.73875,0.01537373789408898,0.09528359501775556
-4.7375,0.01470460669411219,0.1080178990004439
-4.73625,0.01437004109412364,0.1106988051020637
-4.735,0.01437004109412364,0.1036614265853149
-4.73375,0.01503917229410089,0.08791110323828477
-4.7325,0.01537373789408929,0.06478828811182441
-4.73125,0.01637743469405493,0.04233569951075847
-4.73,0.01671200029404333,0.02256401701132135
-4.72875,0.01738113149402058,0.01083505281672567
-4.7275,0.01738113149402058,0.01083505281672567
-4.72625,0.01704656589403203,0.01854265785888264
-4.725,0.01604286909406608,0.03630366078212304
-4.72375,0.01537373789408929,0.05641045654426249
-4.7225,0.01470460669411219,0.07450657273019623
-4.72125,0.01403547549413539,0.08958666955180082
-4.72,0.01370090989414654,0.09628893480585721
-4.71875,0.01336634429415799,0.09159734912802253
-4.7175,0.01403547549413509,0.07886304514532842
-4.71625,0.0143700410941241,0.05775090959506173
-4.715,0.01537373789408929,0.03429298120589903
-4.71375,0.01604286909406638,0.01318084565564301
-4.7125,0.01671200029404318,-0.001564137903259254
-4.71125,0.01671200029404349,-0.006255723581100631
-4.71,0.01637743469405493,-0.0008939113778610051
-4.70875,0.01604286909406638,0.01385107218104796
-4.7075,0.01503917229410043,0.03496320773131237
-4.70625,0.01437004109412364,0.0533944371799402
-4.705,0.01370090989414654,0.07082032684046899
-4.70375,0.01303177869416975,0.08087372472153871
-4.7025,0.0130317786941696,0.0798683849334316
-4.70125,0.01336634429415799,0.07048521357776651
-4.7,0.01370090989414654,0.05205398412913029
-4.69875,0.01470460669411173,0.0285960557399676
-4.6975,0.01537373789408929,0.00647858040159348
-4.69625,0.01604286909406638,-0.0109473092589353
-4.695,0.01637743469405493,-0.01899002756379474
-4.69375,0.01604286909406623,-0.01630912146216975
-4.6925,0.01570830349407784,-0.004915270530290724
-4.69125,0.01503917229410074,0.01519152523185787
-4.69,0.01437004109412394,0.03496320773129499
-4.68875,0.01336634429415799,0.0533944371799402
-4.6875,0.01269721309418089,0.06679896768803927
-4.68625,0.01269721309418089,0.06947987378965907
-4.685,0.01269721309418105,0.06344783506100733
-4.68375,0.01303177869416944,0.0476975117139981
-4.6825,0.01403547549413509,0.02524492311293217
-4.68125,0.01470460669411189,0.003127447774578771
-4.68,0.01537373789408929,-0.01664423472487741
-4.67875,0.01570830349407784,-0.02736785913135666
-4.6775,0.01570830349407784,-0.02837319891946408
-4.67625,0.01570830349407753,-0.01966025408919147
-4.675,0.01503917229410074,-0.001564137903265958
-4.67375,0.01403547549413509,0.01887777112158511
-4.6725,0.0133663442941583,0.03797922709561759
-4.67125,0.01269721309418074,0.05406466370534866
-4.67,0.01236264749419235,0.06177226874750211
-4.66875,0.01236264749419235,0.05808602285777487
-4.6675,0.01269721309418074,0.0460219454004912
-4.66625,0.01336634429415799,0.02524492311293217
-4.665,0.01403547549413509,0.002792334511866237
-4.66375,0.01503917229410074,-0.01764957451298483
-4.6625,0.01537373789408944,-0.03239455807189563
-4.66125,0.01570830349407784,-0.03641591722432352
-4.66,0.01537373789408929,-0.03038387849567895
-4.65875,0.01503917229410089,-0.015974008199479
-4.6575,0.01437004109412364,0.005808353876188527
-4.65625,0.01336634429415799,0.02524492311293217
-4.655,0.01269721309418089,0.04367615256156838
-4.65375,0.01236264749419235,0.05439977696804763
-4.6525,0.01236264749419235,0.05439977696804763
-4.65125,0.01236264749419235,0.04535171887508076
-4.65,0.01303177869416914,0.0279258292145599
-4.64875,0.01370090989414654,0.005138127350783573
-4.6475,0.01437004109412364,-0.01630912146217493
-4.64625,0.01503917229410074,-0.03373501112270371
-4.645,0.01537373789408929,-0.04110750290215697
-4.64375,0.01537373789408929,-0.03842659680053838
-4.6425,0.01503917229410074,-0.02636251934324923
-4.64125,0.01437004109412394,-0.006255723581109773
-4.64,0.01370090989414609,0.01418618544375897
-4.63875,0.01269721309418089,0.03295252815508913
-4.6375,0.01236264749419235,0.04702728518859314
-4.63625,0.01202808189420395,0.05071353107831871
-4.635,0.0120280818942038,0.04501660561237829
-4.63375,0.01236264749419235,0.03027162205346932
-4.6325,0.01336634429415799,0.008154146715105863
-4.63125,0.01403547549413539,-0.01362821536056365
-4.63,0.01470460669411219,-0.0323945580718938
-4.62875,0.01503917229410074,-0.04412352226648048
-4.6275,0.01537373789408913,-0.04479374879188514
-4.62625,0.01503917229410074,-0.03641591722432352
-4.625,0.01437004109412364,-0.01798468777568731
-4.62375,0.01370090989414654,0.00346256103727119
-4.6225,0.01269721309418074,0.02256401701131967
-4.62125,0.01236264749419235,0.03864945362103123
-4.62,0.01169351629421525,0.04669217192589067
