ECG_Samples/Baseline/baseline_data_1.csv

#Digilent WaveForms Oscilloscope Acquisition
#Device Name: Discovery
#Serial Number: SN:210244566833
#Date Time: 2019-07-09 14:00:50.971
#Sample rate: 800Hz
#Samples: 8192
#Trigger: Source: Channel 1 Type: Edge Condition: Rising Level: 0 V Hyst.: Auto HoldOff: 0 s
#Channel 1: Range: 500 mV/div Offset: 0 V Attenuation: 1 X
#Channel 2: Range: 500 mV/div Offset: 0 V Attenuation: 1 X
#Power Supplies: ON
#Positive Supply: ON
#Negative Supply: ON

Time (s),Channel 1 (V),Channel 2 (V)
-5.12,-0.0003508453053725187,0.001451881461056331
-5.11875,-0.0003508453053725187,0.0004465416729493583
-5.1175,-0.0003508453053725187,-0.000223684852456052
-5.11625,-0.0003508453053725187,-0.0008939113778610051
-5.115,-0.0003508453053725187,-0.001564137903265958
-5.11375,-0.0003508453053725187,-0.001564137903265806
-5.1125,-0.0003508453053725187,-0.001229024640563482
-5.11125,-0.0003508453053725187,-0.0005587981151585285
-5.11,-0.0003508453053725187,0.0001114284102461198
-5.10875,-0.0003508453053725187,0.001116768198354159
-5.1075,-0.0003508453053725187,0.001786994723758807
-5.10625,-0.0003508453053725187,0.002122107986461284
-5.105,-0.0003508453053725187,0.002122107986461284
-5.10375,-0.0003508453053725187,0.001786994723758807
-5.1025,-0.0003508453053725187,0.0007816549356513777
-5.10125,-0.0003508453053725187,0.0001114284102464246
-5.1,-0.0003508453053725187,-0.0008939113778613099
-5.09875,-0.0003508453053725187,-0.001564137903265958
-5.0975,-0.0003508453053725187,-0.001564137903265958
-5.09625,-0.0003508453053725187,-0.001564137903265958
-5.095,-0.0003508453053725187,-0.0008939113778610051
-5.09375,-0.0003508453053725187,-0.000223684852456052
-5.0925,-0.0003508453053725187,0.0007816549356513777
-5.09125,-0.0003508453053726709,0.001451881461056636
-5.09,-0.0006854109053610678,0.002122107986461284
-5.08875,-0.0006854109053610678,0.002122107986461284
-5.0875,-0.0003508453053726709,0.00178699472375896
-5.08625,-0.0003508453053725187,0.001116768198353854
-5.085,-0.0003508453053725187,0.0001114284102464246
-5.08375,-0.0003508453053725187,-0.0005587981151585285
-5.0825,-0.0003508453053725187,-0.001229024640563634
-5.08125,-0.0003508453053725187,-0.001564137903265958
-5.08,-0.0003508453053725187,-0.001564137903265958
-5.07875,-0.0003508453053725187,-0.001229024640563634
-5.0775,-0.0003508453053725187,-0.0005587981151580713
-5.07625,-0.0003508453053725187,0.0004465416729489012
-5.075,-0.0003508453053725187,0.001116768198353854
-5.07375,-0.0006854109053609156,0.001786994723758502
-5.0725,-0.0003508453053725187,0.002122107986461284
-5.07125,-0.0003508453053725187,0.001786994723758807
-5.07,-0.0003508453053725187,0.001451881461056331
-5.06875,-0.0003508453053725187,0.0004465416729485964
-5.0675,-0.0003508453053725187,-0.000223684852456052
-5.06625,-0.0003508453053725187,-0.001229024640563482
-5.065,-0.0003508453053725187,-0.001564137903265806
-5.06375,-0.0003508453053725187,-0.001564137903265958
-5.0625,-0.0003508453053725187,-0.001564137903265958
-5.06125,-0.0003508453053725187,-0.0008939113778610051
-5.06,-0.0003508453053725187,0.0001114284102467294
-5.05875,-0.0003508453053725187,0.0007816549356513777
-5.0575,-0.0003508453053725187,0.001786994723758807
-5.05625,-0.0003508453053725187,0.002122107986461132
-5.055,-0.0003508453053725187,0.001786994723758807
-5.05375,-0.0003508453053725187,0.001451881461056331
-5.0525,-0.0003508453053725187,0.0007816549356513777
-5.05125,-0.0003508453053725187,-0.0002236848524563568
-5.05,-0.0003508453053725187,-0.0008939113778610051
-5.04875,-0.0003508453053725187,-0.001564137903265958
-5.0475,-0.0003508453053725187,-0.001564137903265958
-5.04625,-0.0003508453053725187,-0.001564137903265653
-5.045,-0.0003508453053725187,-0.0008939113778610051
-5.04375,-0.0003508453053725187,-0.000223684852456052
-5.0425,-0.0003508453053725187,0.0007816549356509206
-5.04125,-0.0003508453053725187,0.001451881461056331
-5.04,-0.0006854109053610678,0.001786994723758807
-5.03875,-0.0003508453053725187,0.001786994723758807
-5.0375,-0.0003508453053725187,0.001451881461056179
-5.03625,-0.0003508453053725187,0.001116768198353854
-5.035,-0.0003508453053725187,0.0001114284102464246
-5.03375,-0.0003508453053725187,-0.0005587981151582238
-5.0325,-0.0003508453053725187,-0.001229024640563482
-5.03125,-0.0003508453053725187,-0.001564137903265958
-5.03,-0.0003508453053725187,-0.001564137903265958
-5.02875,-0.0003508453053725187,-0.001229024640563177
-5.0275,-0.0003508453053725187,-0.0005587981151585285
-5.02625,-0.0003508453053725187,0.0004465416729489012
-5.025,-0.0003508453053725187,0.001116768198353549
-5.02375,-0.0003508453053725187,0.001786994723758807
-5.0225,-0.0003508453053725187,0.001786994723758807
-5.02125,-0.0003508453053725187,0.001786994723758807
-5.02,-0.0003508453053725187,0.001116768198353549
-5.01875,-0.0003508453053725187,0.0004465416729489012
-5.0175,-0.0003508453053725187,-0.000223684852456052
-5.01625,-0.0003508453053725187,-0.001229024640563025
-5.015,-0.0003508453053725187,-0.001564137903265958
-5.01375,-0.0003508453053725187,-0.001564137903265958
-5.0125,-0.0003508453053725187,-0.001564137903265958
-5.01125,-0.0003508453053725187,-0.0008939113778613099
-5.01,-0.0003508453053725187,0.0001114284102464246
-5.00875,-0.0003508453053725187,0.0007816549356513777
-5.0075,-0.0003508453053725187,0.001451881461056331
-5.00625,-0.0003508453053725187,0.002122107986461284
-5.005,-0.0003508453053725187,0.002122107986461284
-5.00375,-0.0003508453053725187,0.001451881461056331
-5.0025,-0.0003508453053725187,0.0007816549356516824
-5.00125,-0.0003508453053725187,0.0001114284102464246
-5,-0.0003508453053725187,-0.0008939113778610051
-4.99875,-0.0003508453053725187,-0.001564137903265958
-4.9975,-0.0003508453053725187,-0.001899251165968283
-4.99625,-0.0003508453053725187,-0.001564137903265958
-4.995,-0.0003508453053725187,-0.0008939113778610051
-4.99375,-0.0003508453053725187,-0.0002236848524563567
-4.9925,-0.0003508453053725187,0.0007816549356513777
-4.99125,-0.0003508453053725187,0.001451881461056331
-4.99,-0.0003508453053725187,0.001786994723758807
-4.98875,-0.0003508453053725187,0.001786994723758655
-4.9875,-0.0003508453053725187,0.001451881461056331
-4.98625,-0.0003508453053725187,0.001116768198353854
-4.985,-0.0003508453053725187,0.0001114284102468818
-4.98375,-0.0003508453053725187,-0.0008939113778613099
-4.9825,-0.0003508453053725187,-0.001564137903265958
-4.98125,-0.0003508453053725187,-0.001899251165968435
-4.98,-0.0003508453053725187,-0.001564137903266111
-4.97875,-0.0003508453053725187,-0.001229024640563482
-4.9775,-0.0003508453053725187,-0.0005587981151585285
-4.97625,-0.0003508453053725187,0.0004465416729489012
-4.975,-0.0003508453053725187,0.001116768198354159
-4.97375,-0.0003508453053725187,0.001786994723758807
-4.9725,-0.0003508453053725187,0.001786994723758807
-4.97125,-0.0003508453053725187,0.001786994723758807
-4.97,-0.0003508453053725187,0.001116768198353854
-4.96875,-0.0003508453053725187,0.0004465416729489012
-4.9675,-0.0003508453053725187,-0.0005587981151585285
-4.96625,-0.0003508453053725187,-0.001229024640563634
-4.965,-0.0003508453053725187,-0.001564137903265958
-4.96375,-0.0003508453053725187,-0.001899251165968435
-4.9625,-0.0003508453053725187,-0.001564137903266111
-4.96125,-0.0003508453053725187,-0.0008939113778610051
-4.96,-0.0003508453053725187,0.0001114284102464246
-4.95875,-0.0003508453053725187,0.0007816549356513777
-4.9575,-0.0003508453053725187,0.001451881461056483
-4.95625,-0.0003508453053725187,0.001786994723758807
-4.955,-0.0003508453053725187,0.001786994723758807
-4.95375,-0.0003508453053725187,0.001451881461056483
-4.9525,-0.0003508453053725187,0.0007816549356509205
-4.95125,-0.0003508453053725187,-0.000223684852456052
-4.95,-0.0003508453053725187,-0.0008939113778610051
-4.94875,-0.0003508453053725187,-0.001564137903265653
-4.9475,-0.0003508453053725187,-0.001899251165968435
-4.94625,-0.0003508453053725187,-0.001564137903265958
-4.945,-0.0003508453053725187,-0.001229024640563482
-4.94375,-0.0003508453053725187,-0.0002236848524555948
-4.9425,-0.0003508453053725187,0.0007816549356513777
-4.94125,-0.0003508453053725187,0.001116768198353854
-4.94,-0.0003508453053725187,0.001786994723758502
-4.93875,-0.0003508453053725187,0.001786994723758807
-4.9375,-0.0003508453053725187,0.001451881461056331
-4.93625,-0.0003508453053725187,0.0007816549356513777
-4.935,-0.0003508453053725187,0.0001114284102459674
-4.93375,-0.0003508453053725187,-0.0008939113778610051
-4.9325,-0.0003508453053725187,-0.001564137903265958
-4.93125,-0.0003508453053725187,-0.001899251165968283
-4.93,-0.0003508453053725187,-0.001899251165968435
-4.92875,-0.0003508453053725187,-0.001229024640563482
-4.9275,-0.0003508453053725187,-0.0005587981151585285
-4.92625,-0.0003508453053725187,0.0001114284102468818
-4.925,-0.0003508453053725187,0.001116768198353854
-4.92375,-0.0003508453053725187,0.001786994723758807
-4.9225,-0.0003508453053725187,0.001786994723758807
-4.92125,-0.0003508453053725187,0.001786994723758502
-4.92,-0.0003508453053725187,0.001116768198353854
-4.91875,-0.0003508453053725187,0.0004465416729489012
-4.9175,-0.0003508453053725187,-0.0005587981151580713
-4.91625,-0.0003508453053725187,-0.001229024640563482
-4.915,-0.0003508453053725187,-0.001899251165968435
-4.91375,-0.0003508453053725187,-0.001899251165968435
-4.9125,-0.0003508453053725187,-0.001564137903265653
-4.91125,-0.0003508453053725187,-0.0008939113778610051
-4.91,-0.0003508453053725187,0.0001114284102464246
-4.90875,-0.0003508453053725187,0.0007816549356510729
-4.9075,-0.0003508453053725187,0.001451881461056331
-4.90625,-0.0003508453053725187,0.001786994723758807
-4.905,-0.0003508453053725187,0.001786994723758807
-4.90375,-0.0003508453053725187,0.001451881461056026
-4.9025,-0.0003508453053725187,0.0007816549356513777
-4.90125,-0.0003508453053725187,-0.000223684852456052
-4.9,-0.0003508453053725187,-0.0008939113778607004
-4.89875,-0.0003508453053725187,-0.001564137903265958
-4.8975,-0.0003508453053725187,-0.001899251165968435
-4.89625,-0.0003508453053725187,-0.001564137903265958
-4.895,-0.0003508453053725187,-0.001229024640563177
-4.89375,-0.0003508453053725187,-0.0005587981151585285
-4.8925,-0.0003508453053725187,0.0004465416729489012
-4.89125,-0.0003508453053725187,0.001116768198353549
-4.89,-0.0003508453053725187,0.001786994723758807
-4.88875,-0.0003508453053725187,0.001786994723758807
-4.8875,-0.0003508453053725187,0.001451881461056331
-4.88625,-0.0003508453053725187,0.0007816549356516824
-4.885,-0.0003508453053725187,0.0001114284102464246
-4.88375,-0.0003508453053725187,-0.0005587981151585285
-4.8825,-0.0003508453053725187,-0.001564137903265958
-4.88125,-0.0003508453053725187,-0.001899251165968435
-4.88,-0.0003508453053725187,-0.001899251165968435
-4.87875,-0.0003508453053725187,-0.001564137903265958
-4.8775,-0.0003508453053725187,-0.0005587981151589858
-4.87625,-0.0003508453053725187,0.0001114284102464246
-4.875,-0.0003508453053725187,0.001116768198353854
-4.87375,-0.0003508453053725187,0.001786994723758807
-4.8725,-0.0003508453053725187,0.002122107986461132
-4.87125,-0.0003508453053725187,0.001786994723758807
-4.87,-0.0003508453053725187,0.001116768198353854
-4.86875,-0.0003508453053725187,0.000446541672949206
-4.8675,-0.0003508453053725187,-0.000223684852456052
-4.86625,-0.0003508453053725187,-0.001229024640563482
-4.865,-0.0003508453053725187,-0.001564137903265958
-4.86375,-0.0003508453053725187,-0.001899251165968283
-4.8625,-0.0003508453053725187,-0.001564137903265958
-4.86125,-0.0003508453053725187,-0.0008939113778610051
-4.86,-0.0003508453053725187,0.0001114284102459674
-4.85875,-0.0003508453053725187,0.0007816549356516824
-4.8575,-0.0003508453053725187,0.001451881461056331
-4.85625,-0.0003508453053725187,0.001786994723758807
-4.855,-0.0003508453053725187,0.001786994723758807
-4.85375,-0.0003508453053725187,0.001451881461056331
-4.8525,-0.0003508453053725187,0.0007816549356513777
-4.85125,-0.0003508453053725187,-0.000223684852456052
-4.85,-0.0003508453053725187,-0.0008939113778613099
-4.84875,-0.0003508453053725187,-0.001564137903265958
-4.8475,-0.0003508453053725187,-0.001899251165968435
-4.84625,-0.0003508453053725187,-0.001564137903266111
-4.845,-0.0003508453053725187,-0.001229024640563482
-4.84375,-0.0003508453053725187,-0.000223684852456052
-4.8425,-0.0003508453053725187,0.0004465416729489012
-4.84125,-0.0003508453053725187,0.001116768198354159
-4.84,-0.0003508453053725187,0.001786994723758807
-4.83875,-0.0003508453053725187,0.001786994723758807
-4.8375,-0.0003508453053725187,0.001451881461056483
-4.83625,-0.0003508453053725187,0.001116768198353854
-4.835,-0.0003508453053725187,0.0001114284102464246
-4.83375,-0.0003508453053725187,-0.0005587981151585285
-4.8325,-0.0003508453053725187,-0.001229024640563786
-4.83125,-0.0003508453053725187,-0.001899251165968435
-4.83,-0.0003508453053725187,-0.001564137903265958
-4.82875,-0.0003508453053725187,-0.001229024640563634
-4.8275,-0.0003508453053725187,-0.0005587981151580713
-4.82625,-0.0003508453053725187,0.0004465416729489012
-4.825,-0.0003508453053725187,0.001116768198353854
-4.82375,-0.0003508453053725187,0.001786994723758502
-4.8225,-0.0003508453053725187,0.001786994723758807
-4.82125,-0.0003508453053725187,0.001786994723758807
-4.82,-0.0003508453053725187,0.001451881461056331
-4.81875,-0.0003508453053725187,0.0004465416729485964
-4.8175,-0.0003508453053725187,-0.000223684852456052
-4.81625,-0.0003508453053725187,-0.001229024640563482
-4.815,-0.0003508453053725187,-0.001564137903265806
-4.81375,-0.0003508453053725187,-0.001564137903265958
-4.8125,-0.0003508453053725187,-0.001564137903265958
-4.81125,-0.0003508453053725187,-0.0008939113778610051
-4.81,-0.0003508453053725187,0.0001114284102467294
-4.80875,-0.0003508453053725187,0.0007816549356513777
-4.8075,-0.0003508453053725187,0.001451881461056331
-4.80625,-0.0003508453053725187,0.002122107986460979
-4.805,-0.0003508453053725187,0.001786994723758807
-4.80375,-0.0003508453053725187,0.001451881461056331
-4.8025,-0.0003508453053725187,0.0007816549356513777
-4.80125,-0.0003508453053725187,0.0001114284102459674
-4.8,-0.0003508453053725187,-0.0008939113778610051
-4.79875,-0.0003508453053725187,-0.001564137903265958
-4.7975,-0.0003508453053725187,-0.001899251165968283
-4.79625,-0.0003508453053725187,-0.001564137903265653
-4.795,-0.0003508453053725187,-0.0008939113778610051
-4.79375,-0.0003508453053725187,-0.000223684852456052
-4.7925,-0.0003508453053725187,0.0007816549356509206
-4.79125,-0.0003508453053725187,0.001451881461056331
-4.79,-0.0003508453053725187,0.001786994723758807
-4.78875,-0.0003508453053725187,0.002122107986461284
-4.7875,-0.0003508453053725187,0.001786994723758502
-4.78625,-0.0003508453053725187,0.001116768198353854
-4.785,-0.0003508453053725187,0.0001114284102464246
-4.78375,-0.0003508453053725187,-0.0005587981151582238
-4.7825,-0.0003508453053725187,-0.001229024640563482
-4.78125,-0.0003508453053725187,-0.001564137903265958
-4.78,-0.0003508453053725187,-0.001564137903265958
-4.77875,-0.0003508453053725187,-0.001229024640563177
-4.7775,-0.0003508453053725187,-0.0005587981151585285
-4.77625,-0.0003508453053725187,0.0004465416729489012
-4.775,-0.0003508453053725187,0.001116768198353549
-4.77375,-0.0003508453053725187,0.001786994723758807
-4.7725,-0.0003508453053725187,0.002122107986461284
-4.77125,-0.0003508453053725187,0.001786994723758807
-4.77,-0.0003508453053725187,0.001451881461055874
-4.76875,-0.0003508453053725187,0.0004465416729489012
-4.7675,-0.0003508453053725187,-0.000223684852456052
-4.76625,-0.0003508453053725187,-0.0008939113778607004
-4.765,-0.0003508453053725187,-0.001564137903265958
-4.76375,-0.0003508453053725187,-0.001564137903265958
-4.7625,-0.0003508453053725187,-0.001229024640563482
-4.76125,-0.0003508453053725187,-0.0008939113778611576
-4.76,-0.0003508453053725187,0.0001114284102464246
-4.75875,-0.0003508453053725187,0.001116768198353854
-4.7575,-0.0003508453053725187,0.001786994723758807
-4.75625,-0.0003508453053725187,0.002122107986461284
-4.755,-0.0003508453053725187,0.002122107986461284
-4.75375,-0.0003508453053725187,0.001786994723758807
-4.7525,-0.0003508453053725187,0.001116768198354159
-4.75125,-0.0003508453053725187,0.0001114284102464246
-4.75,-0.0003508453053725187,-0.0005587981151585285
-4.74875,-0.0003508453053725187,-0.001229024640563482
-4.7475,-0.0003508453053725187,-0.001564137903265958
-4.74625,-0.0003508453053725187,-0.001564137903265958
-4.745,-0.0003508453053725187,-0.0008939113778610051
-4.74375,-0.0003508453053725187,-0.0002236848524563567
-4.7425,-0.0003508453053725187,0.0007816549356513777
-4.74125,-0.0003508453053725187,0.001451881461056331
-4.74,-0.0003508453053725187,0.002122107986461284
-4.73875,-0.0003508453053725187,0.002122107986461132
-4.7375,-0.0003508453053725187,0.001786994723758807
-4.73625,-0.0003508453053725187,0.001116768198353854
-4.735,-0.0003508453053725187,0.000446541672949206
-4.73375,-0.0003508453053725187,-0.0005587981151588333
-4.7325,-0.0003508453053725187,-0.001229024640563482
-4.73125,-0.0003508453053725187,-0.001564137903265958
-4.73,-0.0003508453053725187,-0.001564137903265958
-4.72875,-0.0003508453053725187,-0.001229024640563482
-4.7275,-0.0003508453053725187,-0.000223684852456052
-4.72625,-0.0003508453053725187,0.0004465416729489012
-4.725,-0.0003508453053725187,0.001451881461056483
-4.72375,-0.0003508453053725187,0.001786994723758807
-4.7225,-0.0003508453053725187,0.002122107986461284
-4.72125,-0.0003508453053725187,0.002122107986461284
-4.72,-0.0003508453053725187,0.001451881461056331
-4.71875,-0.0003508453053725187,0.0007816549356513777
-4.7175,-0.0003508453053725187,-0.000223684852456052
-4.71625,-0.0003508453053725187,-0.0008939113778611576
-4.715,-0.0003508453053725187,-0.001229024640563482
-4.71375,-0.0003508453053725187,-0.001564137903265958
-4.7125,-0.0003508453053725187,-0.001229024640563634
-4.71125,-0.0003508453053725187,-0.0005587981151585285
-4.71,-0.0003508453053725187,0.0001114284102464246
-4.70875,-0.0003508453053725187,0.001116768198353854
-4.7075,-0.0003508453053725187,0.00178699472375896
-4.70625,-0.0003508453053725187,0.002122107986461284
-4.705,-0.0003508453053725187,0.002122107986461284
-4.70375,-0.0003508453053725187,0.00178699472375896
-4.7025,-0.0003508453053725187,0.001116768198353397
-4.70125,-0.0003508453053725187,0.0001114284102464246
-4.7,-0.0003508453053725187,-0.0005587981151585285
-4.69875,-0.0003508453053725187,-0.001229024640563177
-4.6975,-0.0003508453053725187,-0.001564137903265958
-4.69625,-0.0003508453053725187,-0.001229024640563482
-4.695,-0.0003508453053725187,-0.0008939113778610051
-4.69375,-0.0003508453053725187,-0.0002236848524555948
-4.6925,-0.0003508453053725187,0.0007816549356513777
-4.69125,-0.0003508453053725187,0.001451881461056331
-4.69,-0.0003508453053725187,0.002122107986460979
-4.68875,-0.0003508453053725187,0.002122107986461284
-4.6875,-0.0003508453053725187,0.001786994723758807
-4.68625,-0.0003508453053725187,0.001451881461056331
-4.685,-0.0003508453053725187,0.0004465416729485964
-4.68375,-0.0003508453053725187,-0.000223684852456052
-4.6825,-0.0003508453053725187,-0.001229024640563482
-4.68125,-0.0003508453053725187,-0.001564137903265806
-4.68,-0.0003508453053725187,-0.001564137903265958
-4.67875,-0.0003508453053725187,-0.0008939113778610051
-4.6775,-0.0003508453053725187,-0.000223684852456052
-4.67625,-0.0003508453053725187,0.0007816549356516824
-4.675,-0.0003508453053725187,0.001451881461056331
-4.67375,-0.0003508453053725187,0.002122107986461284
-4.6725,-0.0003508453053725187,0.002122107986461284
-4.67125,-0.0003508453053725187,0.002122107986461132
-4.67,-0.0003508453053725187,0.001786994723758807
-4.66875,-0.0003508453053725187,0.0007816549356513777
-4.6675,-0.0003508453053725187,0.0001114284102467294
-4.66625,-0.0003508453053725187,-0.0008939113778610051
-4.665,-0.0003508453053725187,-0.001229024640563482
-4.66375,-0.0003508453053725187,-0.001564137903265958
-4.6625,-0.0003508453053725187,-0.001229024640563177
-4.66125,-0.0003508453053725187,-0.0005587981151585285
-4.66,-0.0003508453053725187,0.0004465416729489012
