ECG_Samples/Baseline/baseline_data_3.csv

#Digilent WaveForms Oscilloscope Acquisition
#Device Name: Discovery
#Serial Number: SN:210244566833
#Date Time: 2019-07-09 14:04:42.664
#Sample rate: 800Hz
#Samples: 8192
#Trigger: Source: Channel 1 Type: Edge Condition: Rising Level: 0 V Hyst.: Auto HoldOff: 0 s
#Channel 1: Range: 500 mV/div Offset: 0 V Attenuation: 1 X
#Channel 2: Range: 500 mV/div Offset: 0 V Attenuation: 1 X
#Power Supplies: ON
#Positive Supply: ON
#Negative Supply: ON

Time (s),Channel 1 (V),Channel 2 (V)
-5.12,-1.627970538396967e-05,0.0001114284102464246
-5.11875,-1.627970538396967e-05,-0.0005587981151582238
-5.1175,-1.627970538396967e-05,-0.001229024640563482
-5.11625,-1.627970538396967e-05,-0.001564137903265958
-5.115,-1.627970538396967e-05,-0.001229024640563482
-5.11375,0.0003182858946044272,-0.0008939113778605479
-5.1125,-1.627970538396967e-05,0.0001114284102464246
-5.11125,-1.627970538396967e-05,0.0007816549356513777
-5.11,-1.627970538396967e-05,0.00178699472375835
-5.10875,-1.627970538396967e-05,0.002122107986461284
-5.1075,-1.627970538396967e-05,0.002122107986461284
-5.10625,-1.627970538396967e-05,0.001786994723758807
-5.105,-1.627970538396967e-05,0.001116768198354159
-5.10375,-1.627970538396967e-05,0.0004465416729489012
-5.1025,-1.627970538396967e-05,-0.0005587981151585285
-5.10125,0.0003182858946045794,-0.001229024640563482
-5.1,0.0003182858946045794,-0.001564137903265958
-5.09875,0.0003182858946045794,-0.001564137903265958
-5.0975,0.0003182858946045794,-0.001229024640563482
-5.09625,0.0003182858946045794,-0.0002236848524565091
-5.095,-1.627970538396967e-05,0.0004465416729489012
-5.09375,-1.627970538396967e-05,0.001451881461056331
-5.0925,-1.627970538396967e-05,0.001786994723758807
-5.09125,-1.627970538396967e-05,0.002122107986461284
-5.09,-1.627970538396967e-05,0.002122107986461284
-5.08875,-1.627970538396967e-05,0.001451881461056331
-5.0875,-1.627970538396967e-05,0.0007816549356516824
-5.08625,-1.627970538396967e-05,-0.000223684852456052
-5.085,0.0003182858946045794,-0.0008939113778610051
-5.08375,0.0003182858946045794,-0.001229024640563482
-5.0825,-1.627970538396967e-05,-0.001564137903265806
-5.08125,-1.627970538396967e-05,-0.001229024640563482
-5.08,0.0003182858946045794,-0.0005587981151585285
-5.07875,-1.62797053838175e-05,0.000446541672948444
-5.0775,-1.627970538396967e-05,0.001116768198354159
-5.07625,-1.627970538396967e-05,0.001786994723758807
-5.075,-1.627970538396967e-05,0.002122107986461284
-5.07375,-1.627970538396967e-05,0.002122107986461284
-5.0725,-1.627970538396967e-05,0.001786994723758807
-5.07125,-1.627970538396967e-05,0.001116768198353854
-5.07,0.0003182858946045794,0.0001114284102464246
-5.06875,-1.627970538381753e-05,-0.0005587981151588333
-5.0675,0.0003182858946045794,-0.001229024640563482
-5.06625,0.0003182858946045794,-0.001564137903265958
-5.065,0.0003182858946045794,-0.001229024640563634
-5.06375,0.0003182858946045794,-0.0008939113778610051
-5.0625,-1.627970538396967e-05,0.0001114284102464246
-5.06125,-1.627970538396967e-05,0.0007816549356513777
-5.06,-1.627970538396967e-05,0.00178699472375896
-5.05875,-1.627970538396967e-05,0.002122107986461284
-5.0575,-1.627970538396967e-05,0.002122107986461284
-5.05625,-1.627970538396967e-05,0.00178699472375896
-5.055,-1.627970538396967e-05,0.001116768198353854
-5.05375,-1.627970538396967e-05,0.0004465416729489012
-5.0525,-1.627970538396967e-05,-0.0005587981151585285
-5.05125,0.0003182858946045794,-0.001229024640563634
-5.05,0.0003182858946045794,-0.001564137903265958
-5.04875,-1.627970538396967e-05,-0.001564137903265958
-5.0475,-1.627970538396967e-05,-0.001229024640563634
-5.04625,0.0003182858946045794,-0.0002236848524557472
-5.045,0.0003182858946045794,0.0004465416729489012
-5.04375,-1.627970538396967e-05,0.001451881461056331
-5.0425,-1.627970538396967e-05,0.002122107986460979
-5.04125,-1.627970538396967e-05,0.002122107986461284
-5.04,-1.627970538396967e-05,0.002122107986461284
-5.03875,-1.627970538396967e-05,0.001451881461056331
-5.0375,-1.627970538396967e-05,0.0004465416729485964
-5.03625,-1.627970538396967e-05,-0.000223684852456052
-5.035,-1.627970538396967e-05,-0.0008939113778610051
-5.03375,-1.627970538396967e-05,-0.001564137903265653
-5.0325,0.0003182858946045794,-0.001564137903265958
-5.03125,-1.627970538396967e-05,-0.001229024640563482
-5.03,0.0003182858946045794,-0.0005587981151585285
-5.02875,-1.627970538396967e-05,0.0001114284102468818
-5.0275,-1.627970538396967e-05,0.001116768198353854
-5.02625,-1.627970538396967e-05,0.001786994723758807
-5.025,-1.627970538396967e-05,0.002122107986461132
-5.02375,-1.627970538396967e-05,0.002122107986461284
-5.0225,-1.627970538396967e-05,0.001786994723758807
-5.02125,-1.627970538396967e-05,0.0007816549356513777
-5.02,0.0003182858946045794,0.0001114284102461198
-5.01875,0.0003182858946045794,-0.0005587981151585285
-5.0175,0.0003182858946045794,-0.001229024640563482
-5.01625,0.0003182858946045794,-0.001564137903265806
-5.015,0.0003182858946045794,-0.001229024640563329
-5.01375,0.0003182858946045794,-0.0008939113778610051
-5.0125,0.0003182858946045794,0.0001114284102464246
-5.01125,0.0003182858946045794,0.0007816549356510729
-5.01,0.0003182858946045794,0.001451881461056331
-5.00875,-1.627970538396967e-05,0.002122107986461284
-5.0075,-1.627970538396967e-05,0.002122107986461284
-5.00625,-1.627970538396967e-05,0.001786994723758502
-5.005,-1.627970538396967e-05,0.001116768198353854
-5.00375,0.0003182858946045794,0.0004465416729489012
-5.0025,0.0003182858946045794,-0.0005587981151580713
-5.00125,0.0003182858946045794,-0.001229024640563482
-5,0.0003182858946045794,-0.001564137903265958
-4.99875,0.0003182858946045794,-0.001564137903265958
-4.9975,0.0003182858946044272,-0.0008939113778607004
-4.99625,-1.627970538396967e-05,-0.000223684852456052
-4.995,0.0003182858946045794,0.0004465416729489012
-4.99375,0.0003182858946045794,0.001451881461055874
-4.9925,-1.627970538396967e-05,0.001786994723758807
-4.99125,-1.627970538396967e-05,0.002122107986461284
-4.99,-1.627970538396967e-05,0.001786994723758807
-4.98875,-1.627970538396967e-05,0.001451881461055874
-4.9875,-1.627970538396967e-05,0.0004465416729489012
-4.98625,0.0003182858946045794,-0.000223684852456052
-4.985,0.0003182858946045794,-0.0008939113778607004
-4.98375,0.0003182858946045794,-0.001564137903265958
-4.9825,0.0003182858946045794,-0.001564137903265958
-4.98125,0.0003182858946045794,-0.001229024640563482
-4.98,0.0003182858946045794,-0.0005587981151588333
-4.97875,0.0003182858946045794,0.0001114284102464246
-4.9775,0.0003182858946045794,0.001116768198353854
-4.97625,0.0003182858946045794,0.001786994723758807
-4.975,0.0003182858946045794,0.002122107986461284
-4.97375,0.0003182858946045794,0.002122107986461284
-4.9725,-1.627970538396967e-05,0.001451881461056331
-4.97125,-1.627970538396967e-05,0.0007816549356516824
-4.97,0.0003182858946045794,0.0001114284102464246
-4.96875,0.0003182858946045794,-0.0008939113778610051
-4.9675,0.0003182858946045794,-0.001564137903265958
-4.96625,0.0003182858946045794,-0.001564137903265958
-4.965,0.0003182858946045794,-0.001564137903265958
-4.96375,0.0003182858946045794,-0.0008939113778610051
-4.9625,-1.62797053838175e-05,-0.0002236848524563567
-4.96125,-1.627970538396967e-05,0.0007816549356513777
-4.96,-1.627970538396967e-05,0.001451881461056331
-4.95875,-1.627970538396967e-05,0.001786994723758807
-4.9575,-1.627970538396967e-05,0.002122107986461132
-4.95625,-1.627970538396967e-05,0.001786994723758807
-4.955,-1.627970538396967e-05,0.001116768198353854
-4.95375,-1.627970538396967e-05,0.0001114284102468818
-4.9525,0.0003182858946045794,-0.0005587981151588333
-4.95125,0.0003182858946045794,-0.001229024640563482
-4.95,0.0003182858946045794,-0.001564137903265958
-4.94875,0.0003182858946045794,-0.001564137903265958
-4.9475,0.0003182858946045794,-0.001229024640563482
-4.94625,0.0003182858946045794,-0.0005587981151585285
-4.945,0.0003182858946045794,0.0004465416729489012
-4.94375,0.0003182858946044272,0.001116768198354159
-4.9425,-1.627970538396967e-05,0.001786994723758807
-4.94125,-1.627970538396967e-05,0.002122107986461284
-4.94,-1.627970538396967e-05,0.00178699472375896
-4.93875,0.0003182858946045794,0.001451881461056331
-4.9375,0.0003182858946045794,0.0004465416729489012
-4.93625,0.0003182858946045794,-0.000223684852456052
-4.935,0.0003182858946045794,-0.0008939113778613099
-4.93375,0.0003182858946045794,-0.001564137903265958
-4.9325,0.0003182858946045794,-0.001564137903265958
-4.93125,0.0003182858946045794,-0.001229024640563634
-4.93,0.0003182858946045794,-0.0005587981151585285
-4.92875,0.0003182858946045794,0.0001114284102464246
-4.9275,-1.627970538396967e-05,0.001116768198353854
-4.92625,0.0003182858946044272,0.00178699472375896
-4.925,-1.627970538396967e-05,0.002122107986461284
-4.92375,-1.627970538396967e-05,0.002122107986461284
-4.9225,-1.627970538396967e-05,0.00178699472375896
-4.92125,-1.627970538381753e-05,0.0007816549356510729
-4.92,0.0003182858946045794,0.0001114284102464246
-4.91875,0.0003182858946045794,-0.0008939113778610051
-4.9175,0.0003182858946045794,-0.001229024640563329
-4.91625,0.0003182858946045794,-0.001564137903265958
-4.915,0.0003182858946045794,-0.001229024640563482
-4.91375,0.0003182858946045794,-0.0008939113778610051
-4.9125,0.0003182858946044272,-0.0002236848524555948
-4.91125,-1.627970538396967e-05,0.0007816549356513777
-4.91,-1.627970538396967e-05,0.001451881461056331
-4.90875,-1.627970538396967e-05,0.002122107986460979
-4.9075,-1.627970538396967e-05,0.002122107986461284
-4.90625,-1.627970538396967e-05,0.001786994723758807
-4.905,-1.627970538396967e-05,0.001116768198353854
-4.90375,0.0003182858946045794,0.000446541672948444
-4.9025,0.0003182858946045794,-0.0005587981151585285
-4.90125,0.0003182858946045794,-0.001229024640563482
-4.9,0.0003182858946045794,-0.001564137903265806
-4.89875,0.0003182858946045794,-0.001564137903265958
-4.8975,0.0003182858946045794,-0.001229024640563482
-4.89625,0.0003182858946045794,-0.000223684852456052
-4.895,0.0003182858946045794,0.000446541672949206
-4.89375,0.0003182858946045794,0.001116768198353854
-4.8925,-1.627970538396967e-05,0.001786994723758807
-4.89125,-1.627970538396967e-05,0.002122107986461132
-4.89,-1.627970538396967e-05,0.001786994723758655
-4.88875,-1.627970538396967e-05,0.001451881461056331
-4.8875,-1.627970538396967e-05,0.0007816549356513777
-4.88625,-1.627970538396967e-05,-0.0002236848524555949
-4.885,-1.627970538396967e-05,-0.0008939113778610051
-4.88375,0.0003182858946045794,-0.001564137903265958
-4.8825,0.0003182858946045794,-0.001564137903265958
-4.88125,0.0003182858946044272,-0.001229024640563177
-4.88,-1.627970538396967e-05,-0.0005587981151585285
-4.87875,0.0003182858946045794,0.0001114284102464246
-4.8775,0.0003182858946045794,0.001116768198353397
-4.87625,-1.627970538396967e-05,0.001786994723758807
-4.875,-1.627970538396967e-05,0.002122107986461284
-4.87375,-1.627970538396967e-05,0.002122107986461284
-4.8725,0.0003182858946045794,0.001451881461056026
-4.87125,0.0003182858946045794,0.0007816549356513777
-4.87,0.0003182858946045794,0.0001114284102464246
-4.86875,0.0003182858946045794,-0.0008939113778605479
-4.8675,0.0003182858946045794,-0.001229024640563482
-4.86625,0.0003182858946045794,-0.001564137903265958
-4.865,0.0003182858946045794,-0.001564137903265958
-4.86375,0.0003182858946045794,-0.0008939113778607004
-4.8625,0.0003182858946045794,-0.000223684852456052
-4.86125,0.0003182858946045794,0.0007816549356513777
-4.86,0.0003182858946045794,0.001451881461056026
-4.85875,-1.627970538396967e-05,0.002122107986461284
-4.8575,-1.627970538396967e-05,0.002122107986461284
-4.85625,-1.627970538396967e-05,0.001786994723758807
-4.855,-1.627970538396967e-05,0.001116768198354159
-4.85375,-1.627970538396967e-05,0.0004465416729489012
-4.8525,0.0003182858946045794,-0.0005587981151585285
-4.85125,0.0003182858946045794,-0.001229024640563482
-4.85,0.0003182858946045794,-0.001564137903265958
-4.84875,0.0003182858946045794,-0.001564137903265958
-4.8475,0.0003182858946045794,-0.001229024640563482
-4.84625,0.0003182858946045794,-0.0002236848524565091
-4.845,0.0003182858946045794,0.0004465416729489012
-4.84375,-1.627970538396967e-05,0.001116768198353854
-4.8425,-1.627970538396967e-05,0.001786994723758807
-4.84125,-1.627970538396967e-05,0.002122107986461284
-4.84,-1.627970538396967e-05,0.002122107986461284
-4.83875,-1.627970538396967e-05,0.001451881461056331
-4.8375,-1.627970538396967e-05,0.0007816549356516824
-4.83625,0.0003182858946045794,-0.000223684852456052
-4.835,0.0003182858946045794,-0.0008939113778610051
-4.83375,0.0003182858946045794,-0.001564137903265958
-4.8325,0.0003182858946045794,-0.001564137903265806
-4.83125,0.0003182858946045794,-0.001229024640563482
-4.83,-1.627970538396967e-05,-0.0005587981151585285
-4.82875,0.0003182858946044272,0.0001114284102461198
-4.8275,0.0003182858946044272,0.001116768198354159
-4.82625,-1.627970538396967e-05,0.001786994723758807
-4.825,-1.627970538396967e-05,0.002122107986461284
-4.82375,-1.627970538396967e-05,0.002122107986461284
-4.8225,-1.627970538396967e-05,0.001786994723758807
-4.82125,-1.627970538396967e-05,0.0007816549356513777
-4.82,-1.627970538396967e-05,0.0001114284102464246
-4.81875,0.0003182858946045794,-0.0005587981151588333
-4.8175,0.0003182858946045794,-0.001229024640563482
-4.81625,0.0003182858946045794,-0.001564137903265958
-4.815,0.0003182858946045794,-0.001229024640563634
-4.81375,0.0003182858946045794,-0.0008939113778610051
-4.8125,-1.627970538396967e-05,-0.000223684852456052
-4.81125,-1.627970538396967e-05,0.0007816549356513777
-4.81,-1.627970538396967e-05,0.001451881461056636
-4.80875,-1.627970538396967e-05,0.002122107986461284
-4.8075,-1.627970538396967e-05,0.002122107986461284
-4.80625,-1.627970538396967e-05,0.00178699472375896
-4.805,-1.627970538396967e-05,0.001116768198353854
-4.80375,-1.627970538396967e-05,0.0004465416729489012
-4.8025,-1.627970538396967e-05,-0.0005587981151585285
-4.80125,-1.627970538381753e-05,-0.001229024640563634
-4.8,0.0003182858946045794,-0.001564137903265958
-4.79875,0.0003182858946045794,-0.001564137903265958
-4.7975,0.0003182858946045794,-0.001229024640563634
-4.79625,0.0003182858946045794,-0.0005587981151580713
-4.795,0.0003182858946045794,0.0004465416729489012
-4.79375,-1.627970538396967e-05,0.001451881461056331
-4.7925,-1.627970538396967e-05,0.001786994723758655
-4.79125,-1.627970538396967e-05,0.002122107986461284
-4.79,-1.627970538396967e-05,0.002122107986461284
-4.78875,-1.627970538396967e-05,0.001451881461056331
-4.7875,-1.627970538396967e-05,0.0007816549356509205
-4.78625,-1.627970538396967e-05,-0.000223684852456052
-4.785,0.0003182858946045794,-0.0008939113778610051
-4.78375,0.0003182858946045794,-0.001229024640563329
-4.7825,-1.627970538396967e-05,-0.001564137903265958
-4.78125,0.0003182858946045794,-0.001229024640563482
-4.78,-1.627970538396967e-05,-0.0005587981151585285
-4.77875,-1.627970538396967e-05,0.0001114284102468818
-4.7775,-1.627970538396967e-05,0.001116768198353854
-4.77625,-1.627970538396967e-05,0.001786994723758807
-4.775,-1.627970538396967e-05,0.002122107986461132
-4.77375,-1.627970538396967e-05,0.002122107986461284
-4.7725,-1.627970538396967e-05,0.001786994723758807
-4.77125,-1.627970538396967e-05,0.001116768198353854
-4.77,-1.627970538396967e-05,0.0001114284102461198
-4.76875,-1.627970538396967e-05,-0.0005587981151585285
-4.7675,-1.627970538396967e-05,-0.001229024640563482
-4.76625,0.0003182858946044272,-0.001564137903265806
-4.765,-1.627970538381753e-05,-0.001229024640563329
-4.76375,0.0003182858946045794,-0.0008939113778610051
-4.7625,-1.627970538396967e-05,-0.000223684852456052
-4.76125,-1.627970538396967e-05,0.0007816549356509206
-4.76,-1.627970538396967e-05,0.001451881461056331
-4.75875,-1.627970538396967e-05,0.002122107986461284
-4.7575,-1.627970538396967e-05,0.002122107986461284
-4.75625,-1.627970538396967e-05,0.001786994723758655
-4.755,-1.627970538396967e-05,0.001451881461056331
-4.75375,0.0003182858946045794,0.0004465416729489012
-4.7525,0.0003182858946045794,-0.0002236848524557472
-4.75125,0.0003182858946045794,-0.001229024640563482
-4.75,0.0003182858946045794,-0.001564137903265958
-4.74875,0.0003182858946045794,-0.001564137903265958
-4.7475,0.0003182858946045794,-0.001229024640563025
-4.74625,0.0003182858946045794,-0.000223684852456052
-4.745,-1.627970538396967e-05,0.0004465416729489012
-4.74375,-1.627970538396967e-05,0.001451881461055874
-4.7425,-1.627970538396967e-05,0.001786994723758807
-4.74125,-1.627970538396967e-05,0.002122107986461284
-4.74,-1.627970538396967e-05,0.002122107986461284
-4.73875,-1.627970538396967e-05,0.001451881461056026
-4.7375,-1.627970538396967e-05,0.0007816549356513777
-4.73625,0.0003182858946045794,-0.000223684852456052
-4.735,0.0003182858946045794,-0.0008939113778607004
-4.73375,0.0003182858946045794,-0.001229024640563634
-4.7325,0.0003182858946045794,-0.001564137903265958
-4.73125,0.0003182858946045794,-0.001229024640563482
-4.73,-1.62797053838175e-05,-0.0005587981151588333
-4.72875,-1.627970538396967e-05,0.0001114284102464246
-4.7275,-1.627970538396967e-05,0.001116768198353854
-4.72625,-1.627970538396967e-05,0.001786994723758807
-4.725,-1.627970538396967e-05,0.002122107986461284
-4.72375,-1.627970538396967e-05,0.002122107986461284
-4.7225,-1.627970538396967e-05,0.001786994723758807
-4.72125,0.0003182858946044272,0.001116768198354159
-4.72,0.0003182858946045794,0.0001114284102464246
-4.71875,-1.627970538396967e-05,-0.0005587981151585285
-4.7175,0.0003182858946045794,-0.001229024640563482
-4.71625,0.0003182858946045794,-0.001564137903265806
-4.715,0.0003182858946045794,-0.001229024640563482
-4.71375,0.0003182858946045794,-0.0008939113778610051
-4.7125,-1.62797053838175e-05,-0.0002236848524563567
-4.71125,-1.627970538396967e-05,0.0007816549356513777
-4.71,-1.627970538396967e-05,0.001451881461056331
-4.70875,-1.627970538396967e-05,0.002122107986461284
-4.7075,-1.627970538396967e-05,0.002122107986461284
-4.70625,-1.627970538396967e-05,0.002122107986461284
-4.705,-1.627970538396967e-05,0.001451881461056331
-4.70375,-1.627970538396967e-05,0.0004465416729493583
-4.7025,0.0003182858946045794,-0.0002236848524565091
-4.70125,0.0003182858946045794,-0.001229024640563482
-4.7,0.0003182858946045794,-0.001564137903265958
-4.69875,0.0003182858946045794,-0.001564137903265958
-4.6975,0.0003182858946045794,-0.001229024640563482
-4.69625,0.0003182858946045794,-0.000223684852456052
-4.695,0.0003182858946045794,0.0004465416729489012
-4.69375,-1.627970538396967e-05,0.001451881461056636
-4.6925,-1.627970538396967e-05,0.002122107986461284
-4.69125,-1.627970538396967e-05,0.002122107986461284
-4.69,-1.627970538396967e-05,0.002122107986461284
-4.68875,-1.627970538396967e-05,0.001451881461056331
-4.6875,-1.627970538396967e-05,0.0007816549356513777
-4.68625,-1.627970538396967e-05,-0.000223684852456052
-4.685,-1.627970538381753e-05,-0.0008939113778611576
-4.68375,0.0003182858946045794,-0.001229024640563482
-4.6825,0.0003182858946045794,-0.001564137903265958
-4.68125,-1.62797053838175e-05,-0.001229024640563634
-4.68,-1.627970538396967e-05,-0.0005587981151585285
-4.67875,-1.627970538396967e-05,0.0001114284102464246
-4.6775,-1.627970538396967e-05,0.001116768198353854
-4.67625,-1.627970538396967e-05,0.00178699472375896
-4.675,-1.627970538396967e-05,0.002122107986461284
-4.67375,-1.627970538396967e-05,0.002122107986461284
-4.6725,-1.627970538396967e-05,0.00178699472375896
-4.67125,-1.627970538381753e-05,0.001116768198353397
-4.67,0.0003182858946045794,0.0001114284102464246
-4.66875,0.0003182858946045794,-0.0005587981151585285
-4.6675,0.0003182858946045794,-0.001229024640563177
-4.66625,0.0003182858946045794,-0.001564137903265958
-4.665,0.0003182858946045794,-0.001564137903265958
-4.66375,0.0003182858946045794,-0.0008939113778610051
-4.6625,0.0003182858946044272,-0.0002236848524555948
-4.66125,-1.627970538396967e-05,0.0007816549356513777
-4.66,0.0003182858946045794,0.001451881461056331
-4.65875,-1.62797053838175e-05,0.002122107986460979
-4.6575,-1.627970538396967e-05,0.002122107986461284
-4.65625,-1.627970538396967e-05,0.001786994723758807
