ECG_Samples/New_Data/test_sub2.1/New_Ranye_1.csv

#Digilent WaveForms Oscilloscope Acquisition
#Device Name: Discovery
#Serial Number: SN:210244566833
#Date Time: 2019-07-15 10:38:04.618
#Sample rate: 800Hz
#Samples: 8192
#Trigger: Source: Channel 1 Type: Edge Condition: Rising Level: 0 V Hyst.: Auto HoldOff: 0 s
#Channel 1: Range: 500 mV/div Offset: 0 V Attenuation: 1 X
#Channel 2: Range: 200 mV/div Offset: 0 V Attenuation: 1 X
#Power Supplies: ON
#Positive Supply: ON
#Negative Supply: ON

Time (s),Channel 1 (V),Channel 2 (V)
-5.12,-0.003027370105280911,0.09092712260261758
-5.11875,-0.003361935705269308,0.0939431419669385
-5.1175,-0.002692804505292362,0.07551191251830365
-5.11625,-0.002023673305315264,0.06009670243398973
-5.115,-0.002023673305315264,0.05104864434102287
-5.11375,-0.0006854109053596986,0.01016482629128415
-5.1125,0.002325679494535874,-0.07026235675727366
-5.11125,0.003329376294501521,-0.0997523238750916
-5.11,0.002994810694513124,-0.08065086790105912
-5.10875,0.002325679494535722,-0.06054407213889635
-5.1075,0.001991113894547325,-0.04847999468161268
-5.10625,0.001991113894547325,-0.04110750290215819
-5.105,-1.627970538305677e-05,0.01653197828264157
-5.10375,-0.002692804505292362,0.08053861145884081
-5.1025,-0.003696501305258009,0.09829961438207206
-5.10125,-0.003027370105280911,0.08321951756046062
-5.1,-0.002358238905303661,0.06545851463722388
-5.09875,-0.002023673305315264,0.0533944371799402
-5.0975,-0.001354542105338166,0.03328764141779161
-5.09625,0.001321982694569009,-0.04613420184265924
-5.095,0.003329376294501521,-0.09874698408698417
-5.09375,0.002994810694512972,-0.08902869946861235
-5.0925,0.002660245094524423,-0.06758145065565384
-5.09125,0.002325679494535722,-0.05283646709674137
-5.09,0.001991113894547325,-0.04512886205458792
-5.08875,0.0009874170945816775,-0.01161753578434026
-5.0875,-0.002023673305313895,0.06344783506098035
-5.08625,-0.003696501305258009,0.09561870828045226
-5.085,-0.00336193570526946,0.08824621650099776
-5.08375,-0.002692804505292362,0.06947987378965907
-5.0825,-0.002023673305315264,0.05540511675615033
-5.08125,-0.002023673305315264,0.04501660561237829
-5.08,0.0006528514945931285,-0.01932514082649722
-5.07875,0.002994810694511907,-0.0896989259939853
-5.0775,0.003329376294501217,-0.09673630451075955
-5.07625,0.002660245094524423,-0.0752890556978108
-5.075,0.002325679494535874,-0.05786316603728203
-5.07375,0.001991113894547477,-0.04814488141891463
-5.0725,0.001656548294558776,-0.0323945580718938
-5.07125,-0.001019976505349617,0.04032501993454361
-5.07,-0.00336193570526946,0.08958666955180768
-5.06875,-0.003696501305257553,0.093608028704229
-5.0675,-0.002692804505292362,0.07517679925560118
-5.06625,-0.002358238905303813,0.05942647590858478
-5.065,-0.001689107705327019,0.04970819129021738
-5.06375,-0.0006854109053610678,0.009494599765915769
-5.0625,0.002325679494535874,-0.07160280980808356
-5.06125,0.003329376294501521,-0.100757663663199
-5.06,0.002994810694512668,-0.08232643421455367
-5.05875,0.002325679494535874,-0.06221963845241422
-5.0575,0.001991113894547325,-0.05049067425782754
-5.05625,0.001656548294558928,-0.04345329574107873
-5.055,-0.0003508453053725187,0.01418618544375044
-5.05375,-0.002692804505292362,0.07886304514532842
-5.0525,-0.00336193570526946,0.09628893480585721
-5.05125,-0.003027370105280607,0.0815439512469403
-5.05,-0.002358238905303813,0.06411806158641944
-5.04875,-0.002023673305315264,0.05238909739183277
-5.0475,-0.00135454210533847,0.03127696184158635
-5.04625,0.00132198269457114,-0.04814488141893398
-5.045,0.003329376294501521,-0.1004225504004966
-5.04375,0.002994810694512972,-0.09003403925671978
-5.0425,0.002660245094524575,-0.06858679044377103
-5.04125,0.002325679494535874,-0.05384180688485231
-5.04,0.001991113894547325,-0.04613420184269534
-5.03875,0.0009874170945816775,-0.01228776230974521
-5.0375,-0.002023673305316025,0.06277760853562417
-5.03625,-0.003696501305258009,0.0949484817550473
-5.035,-0.00336193570526946,0.08757598997559281
-5.03375,-0.002692804505292667,0.06914476052696499
-5.0325,-0.002023673305315264,0.05507000349345258
-5.03125,-0.002023673305315264,0.04434637908697334
-5.03,0.0003182858946045794,-0.02033048061460465
-5.02875,0.002994810694513124,-0.09070426578212809
-5.0275,0.003329376294501521,-0.09807675756157921
-5.02625,0.002994810694512972,-0.07662950874862071
-5.025,0.002325679494536178,-0.05886850582539753
-5.02375,0.001991113894547325,-0.04915022120701763
-5.0225,0.001321982694570227,-0.03339989786000123
-5.02125,-0.001019976505349617,0.03898456688373371
-5.02,-0.003361935705269613,0.08858132976370207
-5.01875,-0.003696501305258009,0.09260268891612997
-5.0175,-0.002692804505292362,0.07450657273019623
-5.01625,-0.002358238905303965,0.05875624938318699
-5.015,-0.002023673305314656,0.04836773823938507
-5.01375,-0.0006854109053610678,0.008824373240510816
-5.0125,0.002325679494535874,-0.07160280980808356
-5.01125,0.003329376294501064,-0.1020981167139951
-5.01,0.002994810694512972,-0.08299666073996777
-5.00875,0.002325679494535874,-0.06288986497781918
-5.0075,0.001991113894547325,-0.05015556099512506
-5.00625,0.00199111389454626,-0.043118182478347
-5.005,-0.0003508453053725187,0.01418618544375044
-5.00375,-0.002692804505292362,0.07886304514532842
-5.0025,-0.003696501305257553,0.09628893480584928
-5.00125,-0.003027370105280911,0.08154395124694823
-5,-0.002358238905303813,0.06378294832371698
-4.99875,-0.002023673305315264,0.05205398412913029
-4.9975,-0.001354542105336949,0.03228230162964837
-4.99625,0.001321982694570227,-0.04646931510539782
-4.995,0.003329376294501521,-0.09908209734968665
-4.99375,0.002994810694513124,-0.08969892599402157
-4.9925,0.002660245094524423,-0.06791656391835632
-4.99125,0.002325679494535874,-0.05350669362214983
-4.99,0.001991113894547325,-0.04579908857999287
-4.98875,0.0009874170945803082,-0.01295798883511587
-4.9875,-0.002023673305315264,0.06244249527290707
-4.98625,-0.003696501305258009,0.09461336849234482
-4.985,-0.003361935705269613,0.08757598997559601
-4.98375,-0.002692804505292058,0.0684745340015451
-4.9825,-0.002023673305315264,0.05406466370534516
-4.98125,-0.001689107705326715,0.04401126582427085
-4.98,0.0003182858946036665,-0.02066559387727772
-4.97875,0.002994810694512972,-0.0910393790448272
-4.9775,0.003329376294501521,-0.09774164429887673
-4.97625,0.002994810694512972,-0.07629439548591824
-4.975,0.002325679494535874,-0.0585333925626824
-4.97375,0.002325679494535874,-0.04847999468161268
-4.9725,0.001656548294558776,-0.03306478459729876
-4.97125,-0.0010199765053484,0.03931968014640327
-4.97,-0.00336193570526946,0.08891644302640273
-4.96875,-0.003696501305258009,0.09260268891612997
-4.9675,-0.002692804505292362,0.07417145946749375
-4.96625,-0.002023673305315264,0.05775090959506798
-4.965,-0.002023673305315264,0.04803262497670058
-4.96375,-0.0006854109053610678,0.007819033452403385
-4.9625,0.002660245094522902,-0.07260814959615443
-4.96125,0.003329376294501521,-0.1024332299767114
-4.96,0.002994810694512972,-0.08366688726537272
-4.95875,0.002660245094524423,-0.0638952047659266
-4.9575,0.002325679494535722,-0.05116090078322945
-4.95625,0.001991113894547325,-0.04445863552918296
-4.955,-1.627970538396967e-05,0.01284573239294053
-4.95375,-0.002692804505291145,0.07718747883178678
-4.9525,-0.003696501305257705,0.09528359501774307
-4.95125,-0.003027370105280911,0.08053861145884081
-4.95,-0.002358238905303813,0.06311272179831202
-4.94875,-0.001689107705327019,0.05138375760373068
-4.9475,-0.001354542105338166,0.03127696184157674
-4.94625,0.001656548294558776,-0.04713954163080277
-4.945,0.00366394189449007,-0.1000874371377941
-4.94375,0.003329376294501217,-0.09070426578211498
-4.9425,0.002660245094524423,-0.06925701696916622
-4.94125,0.002325679494535874,-0.05451203341025726
-4.94,0.001991113894547477,-0.0468044283681038
-4.93875,0.0009874170945816775,-0.01329310209785264
-4.9375,-0.002023673305315264,0.06210738201020459
-4.93625,-0.00336193570526946,0.09528359501774977
-4.935,-0.003361935705269004,0.08757598997558397
-4.93375,-0.002358238905303813,0.06813942073884917
-4.9325,-0.002023673305315264,0.05406466370534516
-4.93125,-0.001689107705326867,0.0436761525615731
-4.93,0.0006528514945931285,-0.02066559387730712
-4.92875,0.002994810694512972,-0.09070426578212473
-4.9275,0.003329376294501521,-0.09807675756157921
-4.92625,0.002994810694512668,-0.07696462201131496
-4.925,0.002325679494535874,-0.05886850582538945
-4.92375,0.001991113894547325,-0.04881510794431516
-4.9225,0.001656548294558928,-0.03440523764811521
-4.92125,-0.00101997650535053,0.03831434035835161
-4.92,-0.003027370105280911,0.08858132976370024
-4.91875,-0.00336193570526946,0.09260268891612997
-4.9175,-0.002692804505292667,0.07450657273020446
-4.91625,-0.002358238905303813,0.05808602285777487
-4.915,-0.002023673305315264,0.04803262497670058
-4.91375,-0.0006854109053610678,0.008154146715105863
-4.9125,0.00232567949453633,-0.07227303633350222
-4.91125,0.003329376294501521,-0.1024332299767114
-4.91,0.002994810694512972,-0.08433711379077767
-4.90875,0.002660245094524575,-0.06356009150323358
-4.9075,0.002325679494535874,-0.05149601404593497
-4.90625,0.001991113894547325,-0.04445863552918296
-4.905,-1.627970538396967e-05,0.01284573239294053
-4.90375,-0.002358238905304422,0.07785770535722922
-4.9025,-0.003696501305258009,0.09595382154315472
-4.90125,-0.003027370105280911,0.08120883798424576
-4.9,-0.002358238905304118,0.06344783506102257
-4.89875,-0.001689107705326715,0.05138375760372534
-4.8975,-0.001354542105338166,0.03094184857887427
-4.89625,0.001321982694570227,-0.04747465489350525
-4.895,0.003329376294501521,-0.1004225504004921
-4.89375,0.003329376294501521,-0.09070426578212473
-4.8925,0.002660245094524423,-0.06925701696916622
-4.89125,0.002325679494536026,-0.05417692014756164
-4.89,0.001991113894546869,-0.04613420184268072
-4.88875,0.0009874170945816775,-0.01396332862325759
-4.8875,-0.001689107705326715,0.06177226874750211
-4.88625,-0.0033619357052687,0.09461336849232989
-4.885,-0.00336193570526946,0.08791110323829529
-4.88375,-0.002358238905303813,0.0691447605269566
-4.8825,-0.002023673305315264,0.05507000349345258
-4.88125,-0.00168910770532565,0.04535171887505166
-4.88,0.0006528514945931285,-0.01865491430109226
-4.87875,0.002994810694512972,-0.08902869946861235
-4.8775,0.003329376294501369,-0.09640119124806347
-4.87625,0.002994810694512972,-0.0752890556978108
-4.875,0.002325679494535874,-0.05752805277457955
-4.87375,0.001991113894547325,-0.04780976815620773
-4.8725,0.001656548294557559,-0.03272967133456321
-4.87125,-0.001019976505349617,0.03998990667184114
-4.87,-0.00336193570526946,0.09025689607721263
-4.86875,-0.00336193570526946,0.09461336849234284
-4.8675,-0.002692804505292362,0.07651725230641108
-4.86625,-0.002358238905303813,0.06009670243398973
-4.865,-0.002023673305315264,0.05004330455291543
-4.86375,-0.0003508453053713016,0.01117016607939127
-4.8625,0.002325679494535874,-0.06992724349457118
-4.86125,0.003329376294501521,-0.100757663663199
-4.86,0.002994810694513124,-0.0823264342145712
-4.85875,0.002325679494535874,-0.06288986497781339
-4.8575,0.002325679494535874,-0.05015556099512506
-4.85625,0.001991113894547325,-0.04345329574107553
-4.855,-1.627970538305677e-05,0.01318084565561726
-4.85375,-0.002692804505292362,0.07819281861992347
-4.8525,-0.003696501305258009,0.09595382154315472
-4.85125,-0.003027370105280911,0.08154395124694823
-4.85,-0.002358238905303661,0.06378294832371149
-4.84875,-0.002023673305315264,0.05171887086642782
-4.8475,-0.001354542105338166,0.03161207510427922
-4.84625,0.001321982694569009,-0.04713954163076695
-4.845,0.003329376294501521,-0.1004225504004966
-4.84375,0.002994810694512972,-0.0910393790448272
-4.8425,0.002660245094524423,-0.06959213023186871
-4.84125,0.002325679494535722,-0.05451203341025391
-4.84,0.001991113894547325,-0.04713954163080277
-4.83875,0.0006528514945931285,-0.01429844188596007
-4.8375,-0.00168910770532565,0.06110204222206288
-4.83625,-0.00336193570526946,0.09360802870423739
-4.835,-0.003027370105280911,0.08690576345018786
-4.83375,-0.002692804505292362,0.06813942073884917
-4.8325,-0.002023673305315112,0.05372955044263811
-4.83125,-0.001689107705326715,0.04367615256156838
-4.83,0.0003182858946045794,-0.01999536735190217
-4.82875,0.003329376294500152,-0.09070426578209258
-4.8275,0.003329376294501369,-0.09908209734967689
-4.82625,0.002994810694512972,-0.07763484853672814
-4.825,0.002660245094524423,-0.05987384561349688
-4.82375,0.002325679494536026,-0.04948533446972483
-4.8225,0.001656548294558776,-0.03474035091081114
-4.82125,-0.001019976505349617,0.0376441138329238
-4.82,-0.003027370105280911,0.08824621650099776
-4.81875,-0.003361935705269308,0.0922675756534191
-4.8175,-0.003027370105280911,0.07383634620479128
-4.81625,-0.002358238905303813,0.05741579633236992
-4.815,-0.002023673305315416,0.04769751171400252
-4.81375,-0.0006854109053610678,0.008824373240510816
-4.8125,0.002325679494535874,-0.07227303633348851
-4.81125,0.003329376294501521,-0.1027683432394139
-4.81,0.00299481069451282,-0.08467222705347086
-4.80875,0.002660245094524423,-0.06423031802862908
-4.8075,0.002325679494535874,-0.05216624057133992
-4.80625,0.001991113894547477,-0.04546397531729344
-4.805,-1.627970538396967e-05,0.01150527934213063
-4.80375,-0.002692804505292362,0.07685236556911357
-4.8025,-0.003696501305258009,0.0949484817550473
-4.80125,-0.003027370105280607,0.08053861145883288
-4.8,-0.002358238905303813,0.06311272179831202
-4.79875,-0.002023673305315264,0.05138375760372534
-4.7975,-0.00135454210533847,0.03161207510428821
-4.79625,0.00132198269457114,-0.04680442836812453
-4.795,0.003329376294501521,-0.1000874371377941
-4.79375,0.003329376294501521,-0.09137449230752968
-4.7925,0.002660245094524727,-0.06992724349458093
-4.79125,0.002325679494535874,-0.05484714667295974
-4.79,0.001991113894547325,-0.0468044283681003
-4.78875,0.0009874170945816775,-0.01429844188596007
-4.7875,-0.001689107705327476,0.06143715548481472
-4.78625,-0.00336193570526946,0.09461336849234482
-4.785,-0.00336193570526946,0.08791110323829529
-4.78375,-0.002692804505292667,0.06914476052696514
-4.7825,-0.002023673305315264,0.05473489023075011
-4.78125,-0.001689107705326715,0.04434637908697334
-4.78,0.0003182858946045794,-0.01966025408919969
-4.77875,0.002994810694513124,-0.08936381273131834
-4.7775,0.003329376294501521,-0.09707141777347178
-4.77625,0.002994810694512972,-0.07562416896051329
-4.775,0.002325679494536178,-0.0578631660372901
-4.77375,0.002325679494535874,-0.04780976815620773
-4.7725,0.001656548294558776,-0.03306478459729876
-4.77125,-0.001019976505349617,0.03931968014643619
-4.77,-0.00336193570526946,0.08992178281451198
-4.76875,-0.00336193570526946,0.09394314196693987
-4.7675,-0.002692804505292362,0.07651725230641108
-4.76625,-0.002023673305315569,0.06043181569669952
-4.765,-0.002023673305314656,0.05037841781559978
-4.76375,-0.0006854109053610678,0.0104999395540232
-4.7625,0.002325679494535874,-0.07093258328267861
-4.76125,0.003329376294501064,-0.1007576636631855
-4.76,0.002994810694512972,-0.08199132095186033
-4.75875,0.002660245094524423,-0.06154941192700927
-4.7575,0.002325679494535874,-0.04948533446972011
-4.75625,0.001991113894546412,-0.04244795595294235
-4.755,-1.627970538396967e-05,0.01418618544375044
-4.75375,-0.002692804505292362,0.07886304514532842
-4.7525,-0.003696501305257553,0.09762938785665858
-4.75125,-0.003027370105280911,0.08254929103505566
-4.75,-0.002358238905303813,0.06445317484912193
-4.74875,-0.002023673305315264,0.05238909739183277
-4.7475,-0.001354542105336797,0.03194718836694604
-4.74625,0.001656548294558776,-0.04646931510539782
-4.745,0.00366394189449007,-0.0997523238750916
-4.74375,0.003329376294501673,-0.08936381273131955
-4.7425,0.002660245094524423,-0.06791656391835632
-4.74125,0.002325679494535874,-0.05283646709674487
-4.74,0.002325679494535874,-0.04479374879188544
-4.73875,0.0009874170945803082,-0.01295798883511572
-4.7375,-0.002023673305315264,0.06277760853560954
-4.73625,-0.00336193570526946,0.09628893480585721
-4.735,-0.00336193570526946,0.0892515562891084
-4.73375,-0.002358238905303661,0.07082032684046244
-4.7325,-0.002023673305315264,0.05641045654426249
-4.73125,-0.002023673305315264,0.04635705866318819
-4.73,0.0003182858946035143,-0.01664423472484876
-4.72875,0.002994810694512972,-0.08768824641780244
-4.7275,0.003329376294501521,-0.09606607798536436
-4.72625,0.002994810694512972,-0.0752890556978108
-4.725,0.002325679494535874,-0.05786316603727745
-4.72375,0.002325679494535874,-0.04780976815620773
-4.7225,0.001656548294558776,-0.03339989786000123
-4.72125,-0.0010199765053484,0.03898456688370079
-4.72,-0.00336193570526946,0.08992178281451015
-4.71875,-0.00336193570526946,0.09427825522964234
-4.7175,-0.002692804505292362,0.07584702578100613
-4.71625,-0.002023673305315264,0.0594264759085802
-4.715,-0.002023673305315264,0.04937307802751048
-4.71375,-0.0006854109053610678,0.01016482629132072
-4.7125,0.002660245094522902,-0.07059747001993941
-4.71125,0.003329376294501521,-0.1010927769259015
-4.71,0.002994810694512972,-0.08266154747726528
-4.70875,0.002325679494535874,-0.06288986497781918
-4.7075,0.002325679494535722,-0.05015556099512186
-4.70625,0.001991113894547325,-0.04311818247837305
-4.705,-1.627970538396967e-05,0.01318084565564301
-4.70375,-0.002692804505291145,0.07852793188259623
-4.7025,-0.003696501305257705,0.09695916133125546
-4.70125,-0.003027370105280911,0.08221417777235318
-4.7,-0.002358238905303813,0.06445317484912193
-4.69875,-0.002023673305315416,0.05238909739183826
-4.6975,-0.001354542105338166,0.03261741489238665
-4.69625,0.001321982694570227,-0.04546397531729039
-4.695,0.003329376294501521,-0.09941721061238912
-4.69375,0.00299481069451282,-0.09036915251941249
-4.6925,0.002660245094524423,-0.06892190370646376
-4.69125,0.002325679494535874,-0.05384180688485231
-4.69,0.001991113894547477,-0.04579908857999652
-4.68875,0.0009874170945816775,-0.01396332862325759
-4.6875,-0.002023673305315264,0.06177226874750211
-4.68625,-0.00336193570526946,0.09528359501774977
-4.685,-0.003361935705269156,0.08824621650098938
-4.68375,-0.002692804505292362,0.06981498705236155
-4.6825,-0.002023673305315264,0.05540511675615506
-4.68125,-0.001689107705326867,0.04535171887508534
-4.68,0.0003182858946045794,-0.01731446125028236
-4.67875,0.002994810694512972,-0.08835847294320739
-4.6775,0.003329376294501521,-0.09740653103617426
-4.67625,0.00299481069451282,-0.07595928222320752
-4.675,0.002660245094524423,-0.05786316603728203
-4.67375,0.002325679494535874,-0.04814488141891021
-4.6725,0.00165654829455908,-0.03407012438541258
-4.67125,-0.00101997650535053,0.03797922709564959
-4.67,-0.003027370105280911,0.08925155628910519
-4.66875,-0.00336193570526946,0.09327291544153492
-4.6675,-0.002692804505292667,0.07517679925560941
-4.66625,-0.002358238905303813,0.05875624938317982
-4.665,-0.002023673305315264,0.04870285150210553
-4.66375,-0.0006854109053610678,0.0104999395540232
-4.6625,0.00232567949453633,-0.07026235675728798
-4.66125,0.003329376294501521,-0.1017630034513065
-4.66,0.002994810694512972,-0.08366688726537272
-4.65875,0.002660245094524575,-0.06389520476593559
-4.6575,0.001991113894547325,-0.05149601404593497
-4.65625,0.001991113894547325,-0.04445863552918296
-4.655,-1.627970538396967e-05,0.01184039260483311
-4.65375,-0.002692804505292818,0.07752259209452675
-4.6525,-0.003696501305258009,0.09561870828045226
-4.65125,-0.00336193570526946,0.08154395124694823
-4.65,-0.002358238905304269,0.06411806158642737
-4.64875,-0.002023673305315264,0.05205398412913029
-4.6475,-0.001354542105338166,0.03295252815508913
-4.64625,0.001321982694570227,-0.04479374879188544
-4.645,0.003329376294501369,-0.0994172106123853
-4.64375,0.002994810694512972,-0.0910393790448272
-4.6425,0.002660245094524423,-0.06992724349457118
-4.64125,0.002325679494536026,-0.05484714667296659
-4.64,0.001991113894546869,-0.04713954163078814
-4.63875,0.0009874170945816775,-0.01496866841136502
-4.6375,-0.002023673305315264,0.06043181569669221
-4.63625,-0.003361935705268852,0.09461336849232928
-4.635,-0.00336193570526946,0.08824621650099776
-4.63375,-0.002358238905303813,0.06981498705236155
