ECG_Samples/New_Data/test_sub2/Ranye_2.csv

#Digilent WaveForms Oscilloscope Acquisition
#Device Name: Discovery
#Serial Number: SN:210244566833
#Date Time: 2019-07-09 13:37:44.680
#Sample rate: 800Hz
#Samples: 8192
#Trigger: Source: Channel 1 Type: Edge Condition: Either Level: 0 V Hyst.: Auto HoldOff: 0 s
#Channel 1: Range: 100 mV/div Offset: 0 V Attenuation: 1 X
#Channel 2: Range: 100 mV/div Offset: 0 V Attenuation: 1 X
#Power Supplies: ON
#Positive Supply: ON
#Negative Supply: ON

Time (s),Channel 1 (V),Channel 2 (V)
-5.12,0.006675032294387012,0.03395786794319656
-5.11875,0.006340466694398614,0.03931968014643375
-5.1175,0.006340466694398463,0.03697388730751885
-5.11625,0.006675032294387012,0.0262502629010396
-5.115,0.007344163494364109,0.008824373240510816
-5.11375,0.008013294694341512,-0.00960685620813332
-5.1125,0.008682425894318306,-0.02703274586865418
-5.11125,0.009016991494306854,-0.0380914835378359
-5.11,0.009351557094295252,-0.04043727637675217
-5.10875,0.009016991494306702,-0.03440523764810242
-5.1075,0.008682425894318306,-0.02066559387730712
-5.10625,0.008013294694341208,-0.003239704216778341
-5.105,0.007344163494364414,0.01452129870644484
-5.10375,0.006675032294387012,0.03027162205346932
-5.1025,0.006340466694398463,0.03898456688373371
-5.10125,0.006340466694398463,0.03898456688373371
-5.1,0.006675032294387164,0.03127696184156943
-5.09875,0.007009597894375561,0.01519152523185787
-5.0975,0.007678729094352659,-0.003574817479480818
-5.09625,0.008347860294329454,-0.02200604692810865
-5.095,0.009016991494306854,-0.03541057743621609
-5.09375,0.009016991494306854,-0.04043727637675324
-5.0925,0.009016991494306854,-0.03708614374972848
-5.09125,0.008682425894318002,-0.02569229281783665
-5.09,0.008013294694341208,-0.008936629682720442
-5.08875,0.007678729094352659,0.008489259977808339
-5.0875,0.007009597894375865,0.02524492311292455
-5.08625,0.006340466694398463,0.03663877404481637
-5.085,0.006340466694398463,0.03931968014643619
-5.08375,0.006340466694398463,0.03496320773130399
-5.0825,0.007009597894375865,0.02122356396049391
-5.08125,0.007678729094352659,0.002457221249163761
-5.08,0.008347860294329757,-0.01597400819947245
-5.07875,0.008682425894318153,-0.03105410502107704
-5.0775,0.009016991494306854,-0.03943193658864566
-5.07625,0.009016991494306854,-0.03909682332594334
-5.075,0.009016991494306854,-0.03071899175838142
-5.07375,0.008347860294330061,-0.01463355514866986
-5.0725,0.007678729094352659,0.002792334511866237
-5.07125,0.007009597894375561,0.02021822417239502
-5.07,0.006675032294387012,0.03395786794319656
-5.06875,0.006340466694398463,0.03998990667183976
-5.0675,0.006340466694398463,0.03697388730751885
-5.06625,0.006675032294387012,0.02658537616374208
-5.065,0.007344163494363805,0.009494599765923539
-5.06375,0.008013294694341208,-0.009941969470827873
-5.0625,0.008682425894318306,-0.02703274586865418
-5.06125,0.009016991494306854,-0.03775637027513343
-5.06,0.009351557094295252,-0.04010216311404818
-5.05875,0.009016991494306854,-0.03440523764810866
-5.0575,0.008682425894318306,-0.02033048061460465
-5.05625,0.008013294694341512,-0.003239704216786113
-5.055,0.007344163494364109,0.01452129870645292
-5.05375,0.006675032294387012,0.03027162205346932
-5.0525,0.006340466694398463,0.03864945362103123
-5.05125,0.006340466694398463,0.03864945362102788
-5.05,0.006340466694398463,0.03127696184157674
-5.04875,0.007009597894375561,0.01519152523185787
-5.0475,0.007678729094352355,-0.003574817479472282
-5.04625,0.008347860294330061,-0.02200604692812297
-5.045,0.009016991494306854,-0.03507546417351361
-5.04375,0.009351557094295405,-0.04043727637675324
-5.0425,0.009016991494307007,-0.03742125701243233
-5.04125,0.008682425894318306,-0.02602740608054675
-5.04,0.008347860294329757,-0.008601516420017967
-5.03875,0.007678729094352659,0.008489259977808339
-5.0375,0.007009597894375256,0.02558003637563967
-5.03625,0.006340466694398463,0.03663877404481637
-5.035,0.006340466694398463,0.03965479340913866
-5.03375,0.006340466694398463,0.03462809446860379
-5.0325,0.006675032294387012,0.02122356396050245
-5.03125,0.007344163494364109,0.002457221249163761
-5.03,0.008013294694341208,-0.01597400819947245
-5.02875,0.008682425894318458,-0.03172433154649251
-5.0275,0.009016991494306854,-0.03976704985134829
-5.02625,0.009351557094295405,-0.03943193658864581
-5.025,0.009016991494307007,-0.03105410502108771
-5.02375,0.008347860294329757,-0.01463355514866255
-5.0225,0.008013294694341208,0.002457221249163761
-5.02125,0.007009597894375561,0.02021822417239502
-5.02,0.00667503229438686,0.03429298120590162
-5.01875,0.006340466694398463,0.03998990667184114
-5.0175,0.006340466694398463,0.03797922709562628
-5.01625,0.00667503229438686,0.02725560268915191
-5.015,0.007344163494364414,0.009494599765907084
-5.01375,0.008013294694341208,-0.009606856208125396
-5.0125,0.008682425894318306,-0.02703274586865418
-5.01125,0.009016991494306702,-0.03675103048702158
-5.01,0.009016991494306854,-0.03909682332594334
-5.00875,0.009016991494306854,-0.03474035091081114
-5.0075,0.008682425894318306,-0.02033048061460465
-5.00625,0.008013294694340905,-0.003239704216770264
-5.005,0.007344163494364109,0.01452129870645292
-5.00375,0.006675032294387012,0.03027162205346932
-5.0025,0.006340466694398614,0.03864945362102742
-5.00125,0.006340466694398463,0.03898456688373371
-5,0.006675032294387012,0.03127696184157674
-4.99875,0.007009597894375561,0.01552663849456035
-4.9975,0.007678729094352963,-0.002904590954084399
-4.99625,0.008347860294329757,-0.02167093366541455
-4.995,0.009016991494306854,-0.03440523764810866
-4.99375,0.009351557094295252,-0.03943193658864353
-4.9925,0.009351557094295405,-0.03742125701243095
-4.99125,0.009016991494306854,-0.02602740608054675
-4.99,0.008347860294329757,-0.008266403157315489
-4.98875,0.007678729094352355,0.009159486503221063
-4.9875,0.007009597894375561,0.0262502629010396
-4.98625,0.006340466694398463,0.03730900057022132
-4.985,0.006340466694398463,0.03998990667183992
-4.98375,0.006340466694398767,0.03496320773129774
-4.9825,0.007009597894375561,0.02122356396050245
-4.98125,0.007344163494364109,0.002792334511866237
-4.98,0.008013294694340905,-0.01597400819946392
-4.97875,0.008682425894318306,-0.0310541050210839
-4.9775,0.009016991494306854,-0.03976704985134829
-4.97625,0.009016991494306854,-0.03943193658864581
-4.975,0.009016991494306551,-0.03105410502107643
-4.97375,0.008347860294329757,-0.01463355514866255
-4.9725,0.007678729094352659,0.002457221249163761
-4.97125,0.007009597894375865,0.02021822417238694
-4.97,0.006675032294387012,0.03395786794319656
-4.96875,0.006340466694398463,0.03998990667184114
-4.9675,0.006340466694398463,0.03730900057022132
-4.96625,0.006675032294387317,0.02658537616373415
-4.965,0.007344163494364109,0.009159486503213292
-4.96375,0.008013294694341208,-0.009606856208125396
-4.9625,0.008682425894318002,-0.02703274586864626
-4.96125,0.009016991494306854,-0.03775637027513343
-4.96,0.009351557094295405,-0.03976704985134829
-4.95875,0.009016991494306854,-0.03440523764810866
-4.9575,0.008682425894318002,-0.0206655938772992
-4.95625,0.008013294694341208,-0.003239704216778341
-4.955,0.007344163494364109,0.01452129870645292
-4.95375,0.006675032294387317,0.03027162205346216
-4.9525,0.006340466694398463,0.03864945362103139
-4.95125,0.006340466694398463,0.03898456688373371
-4.95,0.006675032294387012,0.03127696184157674
-4.94875,0.007009597894375409,0.01552663849456751
-4.9475,0.007678729094352659,-0.002904590954075865
-4.94625,0.008347860294329757,-0.02167093366541455
-4.945,0.009016991494306854,-0.03474035091081114
-4.94375,0.009016991494306854,-0.04043727637675187
-4.9425,0.009016991494306854,-0.03742125701243095
-4.94125,0.008682425894318306,-0.02602740608054675
-4.94,0.008013294694341512,-0.008601516420025889
-4.93875,0.007678729094352659,0.008489259977808339
-4.9375,0.007009597894375561,0.02591514963833712
-4.93625,0.006340466694398463,0.03663877404481637
-4.935,0.006340466694398463,0.03965479340913638
-4.93375,0.006340466694398463,0.03462809446860151
-4.9325,0.006675032294387012,0.02122356396050245
-4.93125,0.007678729094352203,0.003127447774576943
-4.93,0.008013294694341208,-0.01597400819947245
-4.92875,0.008682425894318306,-0.0310541050210839
-4.9275,0.009016991494306854,-0.03943193658864581
-4.92625,0.009016991494306854,-0.03909682332593953
-4.925,0.009016991494306854,-0.03071899175838142
-4.92375,0.008347860294329757,-0.01463355514866255
-4.9225,0.008013294694341361,0.002792334511858315
-4.92125,0.007344163494363805,0.0205533374351039
-4.92,0.006675032294387012,0.03462809446860151
-4.91875,0.006340466694398463,0.03965479340913866
-4.9175,0.006340466694398463,0.03764411383292472
-4.91625,0.006675032294387012,0.02692048942644455
-4.915,0.007344163494364109,0.009159486503213292
-4.91375,0.008013294694341208,-0.009606856208125396
-4.9125,0.008682425894318458,-0.02669763260595658
-4.91125,0.009016991494306854,-0.03742125701243095
-4.91,0.009351557094295405,-0.03943193658864581
-4.90875,0.009016991494307007,-0.03440523764811095
-4.9075,0.008682425894318306,-0.01999536735190217
-4.90625,0.008013294694341208,-0.002904590954075865
-4.905,0.007344163494364109,0.01519152523185787
-4.90375,0.00667503229438686,0.03060673531617576
-4.9025,0.006340466694398463,0.03931968014643619
-4.90125,0.006340466694398463,0.03931968014643619
-4.9,0.006340466694398463,0.03194718836698505
-4.89875,0.007009597894375561,0.0161968650199653
-4.8975,0.007678729094352659,-0.002904590954075865
-4.89625,0.008347860294329757,-0.0210007071400096
-4.895,0.009016991494306854,-0.03440523764811095
-4.89375,0.009016991494306854,-0.03943193658864581
-4.8925,0.009016991494306854,-0.036751030487026
-4.89125,0.008682425894318458,-0.02535717955514698
-4.89,0.008013294694340905,-0.008266403157307565
-4.88875,0.007344163494364109,0.009159486503213292
-4.8875,0.007009597894375561,0.0262502629010396
-4.88625,0.006340466694398767,0.03764411383291862
-4.885,0.006340466694398463,0.04066013319724609
-4.88375,0.006340466694398463,0.03563343425670894
-4.8825,0.006675032294387012,0.02222890374860988
-4.88125,0.007344163494364414,0.003462561037262961
-4.88,0.008013294694341208,-0.01463355514866255
-4.87875,0.008682425894318306,-0.03038387849567895
-4.8775,0.009016991494306702,-0.03842659680053472
-4.87625,0.009351557094295405,-0.03842659680053838
-4.875,0.009016991494306854,-0.02971365197027399
-4.87375,0.008347860294329757,-0.01362821536055512
-4.8725,0.007678729094352355,0.003797674299981743
-4.87125,0.007009597894375561,0.02155867722320493
-4.87,0.006340466694398463,0.03529832099400647
-4.86875,0.006340466694398463,0.04099524645994598
-4.8675,0.006340466694398463,0.03864945362103123
-4.86625,0.006675032294387012,0.02826094247725446
-4.865,0.007344163494364109,0.01016482629132072
-4.86375,0.008013294694341512,-0.008601516420025738
-4.8625,0.008682425894318306,-0.02569229281784427
-4.86125,0.009016991494306854,-0.03641591722432352
-4.86,0.009016991494306854,-0.03876171006323979
-4.85875,0.009016991494306702,-0.03339989785999499
-4.8575,0.008682425894318306,-0.01966025408919969
-4.85625,0.008013294694341208,-0.002234364428670911
-4.855,0.007344163494364414,0.01552663849455227
-4.85375,0.006675032294387012,0.03127696184157674
-4.8525,0.006340466694398463,0.03965479340913866
-4.85125,0.006340466694398463,0.03998990667184114
-4.85,0.006340466694398767,0.03194718836697469
-4.84875,0.007009597894375561,0.01653197828266778
-4.8475,0.007678729094352659,-0.002234364428670911
-4.84625,0.008347860294329454,-0.02100070714000107
-4.845,0.009016991494306854,-0.03407012438540619
-4.84375,0.009016991494306854,-0.03943193658864581
-4.8425,0.009016991494306854,-0.03708614374972848
-4.84125,0.008682425894318002,-0.02535717955513402
-4.84,0.008013294694341208,-0.008266403157315489
-4.83875,0.007344163494364109,0.009159486503213292
-4.8375,0.006675032294387317,0.0259151496383295
-4.83625,0.006340466694398463,0.03730900057022132
-4.835,0.006340466694398463,0.04032501993454361
-4.83375,0.006340466694398463,0.03529832099400647
-4.8325,0.007009597894375713,0.02189379048589887
-4.83125,0.007344163494364109,0.003127447774568714
-4.83,0.008013294694341208,-0.0153037816740675
-4.82875,0.008682425894318002,-0.03071899175837441
-4.8275,0.009016991494306854,-0.03909682332594318
-4.82625,0.009016991494306854,-0.03876171006324086
-4.825,0.009016991494306854,-0.03038387849567895
-4.82375,0.008347860294330061,-0.01429844188596738
-4.8225,0.007678729094352659,0.002792334511866237
-4.82125,0.007009597894375561,0.02088845069779997
-4.82,0.006340466694398463,0.03462809446860151
-4.81875,0.006340466694398463,0.03998990667184022
-4.8175,0.006340466694398463,0.03797922709562628
-4.81625,0.006675032294387012,0.0275907159518495
-4.815,0.007009597894375409,0.00982971302862632
-4.81375,0.007678729094352659,-0.008936629682720442
-4.8125,0.008347860294329757,-0.02602740608054675
-4.81125,0.009016991494306854,-0.03708614374972848
-4.81,0.009016991494306854,-0.03943193658864323
-4.80875,0.009016991494306854,-0.03373501112270371
-4.8075,0.008347860294329757,-0.01999536735190217
-4.80625,0.008013294694341361,-0.002904590954083637
-4.805,0.007344163494364109,0.01519152523185787
-4.80375,0.006675032294387012,0.03060673531617179
-4.8025,0.006340466694398463,0.03931968014643619
-4.80125,0.006340466694398614,0.03931968014643268
-4.8,0.006675032294387012,0.03161207510427922
-4.79875,0.007009597894375561,0.01586175175726282
-4.7975,0.007678729094352355,-0.002234364428662681
-4.79625,0.008347860294330061,-0.0210007071400157
-4.795,0.009016991494306854,-0.03440523764810866
-4.79375,0.009016991494306854,-0.03943193658864581
-4.7925,0.009016991494306854,-0.03708614374972954
-4.79125,0.008682425894318306,-0.02569229281784427
-4.79,0.008013294694341208,-0.008266403157315489
-4.78875,0.007678729094352659,0.008824373240510816
-4.7875,0.007009597894375256,0.0259151496383423
-4.78625,0.006340466694398463,0.03730900057022132
-4.785,0.006340466694398463,0.04032501993454361
-4.78375,0.006340466694398463,0.03529832099400875
-4.7825,0.006675032294387012,0.02155867722320493
-4.78125,0.007344163494364109,0.00346256103727119
-4.78,0.008013294694341208,-0.01563889493676997
-4.77875,0.008682425894318458,-0.03071899175838523
-4.7775,0.009016991494306854,-0.03909682332594334
-4.77625,0.009016991494306854,-0.03909682332594334
-4.775,0.009016991494306854,-0.03038387849568291
-4.77375,0.008347860294329757,-0.01429844188596007
-4.7725,0.007678729094352659,0.002792334511866237
-4.77125,0.007009597894375561,0.0205533374350975
-4.77,0.00667503229438686,0.03429298120590147
-4.76875,0.006340466694398463,0.03965479340913866
-4.7675,0.006340466694398463,0.0376441138329238
-4.76625,0.00667503229438686,0.02692048942644943
-4.765,0.007344163494364414,0.009494599765907084
-4.76375,0.008013294694341208,-0.009606856208125396
-4.7625,0.008347860294329757,-0.0266976326059517
-4.76125,0.009016991494306551,-0.03742125701242607
-4.76,0.009016991494306854,-0.04010216311405077
-4.75875,0.009016991494306854,-0.03440523764810866
-4.7575,0.008347860294329757,-0.02066559387730712
-4.75625,0.008013294694340905,-0.003574817479472741
-4.755,0.007344163494364109,0.01418618544375044
-4.75375,0.006675032294387012,0.02993650879076684
-4.7525,0.006340466694398614,0.03864945362102727
-4.75125,0.006340466694398463,0.03864945362103123
-4.75,0.006340466694398463,0.03127696184157674
-4.74875,0.007009597894375561,0.01519152523185787
-4.7475,0.007678729094352963,-0.0035748174794892
-4.74625,0.008347860294329757,-0.02200604692811703
-4.745,0.008682425894318306,-0.03541057743621609
-4.74375,0.009016991494306702,-0.04077238963945328
-4.7425,0.009016991494306854,-0.0380914835378359
-4.74125,0.008682425894318306,-0.0266976326059517
-4.74,0.008013294694341208,-0.009606856208125396
-4.73875,0.007678729094352355,0.007819033452411004
-4.7375,0.007009597894375561,0.02457469658752721
-4.73625,0.006340466694398463,0.03563343425670894
-4.735,0.006340466694398463,0.03864945362102986
-4.73375,0.006340466694398614,0.03395786794319047
-4.7325,0.006675032294387012,0.0205533374350975
-4.73125,0.007344163494364109,0.001786994723758807
-4.73,0.008013294694340905,-0.01697934798757135
-4.72875,0.008682425894318306,-0.0323945580718938
-4.7275,0.009016991494306854,-0.04077238963945572
-4.72625,0.009016991494306854,-0.04077238963945572
-4.725,0.009016991494306551,-0.03239455807188649
-4.72375,0.008347860294329757,-0.01630912146217493
-4.7225,0.007678729094352659,0.0007816549356513777
-4.72125,0.007009597894375865,0.01887777112157688
-4.72,0.006675032294387012,0.03261741489238665
-4.71875,0.006340466694398463,0.03831434035832876
-4.7175,0.006340466694398463,0.03596854751941142
-4.71625,0.006675032294387164,0.02490980985022192
-4.715,0.007009597894375561,0.007819033452403385
-4.71375,0.008013294694341208,-0.0109473092589353
-4.7125,0.008682425894318002,-0.02870831218215849
-4.71125,0.009016991494306854,-0.03943193658864581
-4.71,0.009351557094295405,-0.04177772942756315
-4.70875,0.009016991494306854,-0.03641591722432352
-4.7075,0.008682425894318002,-0.02234116019081173
-4.70625,0.008013294694341208,-0.005250383792993201
-4.705,0.007344163494364109,0.01284573239294053
-4.70375,0.006675032294387317,0.02826094247724745
-4.7025,0.006340466694398463,0.036973887307519
-4.70125,0.006340466694398463,0.03730900057022132
-4.7,0.006675032294387012,0.02926628226536189
-4.69875,0.007009597894375409,0.01385107218105497
-4.6975,0.007678729094352659,-0.004915270530290724
-4.69625,0.008347860294329757,-0.02334649997892694
-4.695,0.009016991494306854,-0.03641591722432352
-4.69375,0.009016991494306854,-0.04177772942756193
-4.6925,0.009016991494306854,-0.03909682332594334
-4.69125,0.008682425894318306,-0.02770297239405913
-4.69,0.00834786029432991,-0.01027708273353827
-4.68875,0.007678729094352659,0.007148806926998433
-4.6875,0.007009597894375561,0.02390447006212226
-4.68625,0.006675032294387012,0.03529832099400647
-4.685,0.006340466694398463,0.03831434035832647
-4.68375,0.006340466694398463,0.03328764141779161
-4.6825,0.007009597894375561,0.01988311090969254
-4.68125,0.007344163494363958,0.001786994723767036
-4.68,0.008013294694341208,-0.01664423472487741
-4.67875,0.008682425894318306,-0.0323945580718938
-4.6775,0.009016991494306854,-0.04077238963945572
-4.67625,0.009351557094295252,-0.04043727637674928
-4.675,0.009016991494306854,-0.03172433154648885
-4.67375,0.008347860294329757,-0.01563889493676997
-4.6725,0.008013294694341361,0.001786994723750882
-4.67125,0.007344163494363805,0.01954799764699647
-4.67,0.006675032294387012,0.03362275468049408
-4.66875,0.006340466694398463,0.03898456688373371
-4.6675,0.006340466694398463,0.03697388730751976
-4.66625,0.006675032294387012,0.0262502629010396
-4.665,0.007344163494364109,0.008489259977808339
-4.66375,0.008013294694341208,-0.01027708273353035
-4.6625,0.008682425894318458,-0.02736785913136153
-4.66125,0.009016991494306854,-0.0380914835378359
-4.66,0.009351557094295405,-0.04043727637675324
-4.65875,0.009351557094295405,-0.03507546417351605
-4.6575,0.008682425894318306,-0.0210007071400096
-4.65625,0.008013294694341208,-0.003909930742183295
-4.655,0.007344163494364109,0.01385107218104796
-4.65375,0.00667503229438686,0.02960139552806832
-4.6525,0.006340466694398463,0.03831434035832876
-4.65125,0.006340466694398463,0.03864945362103123
-4.65,0.00667503229438686,0.03094184857887777
-4.64875,0.007009597894375561,0.01519152523185787
-4.6475,0.007678729094352659,-0.003239704216778341
-4.64625,0.008347860294329757,-0.02200604692811703
-4.645,0.009016991494306854,-0.0350754641735162
-4.64375,0.009016991494306854,-0.04077238963945572
-4.6425,0.009016991494306854,-0.0380914835378359
-4.64125,0.008682425894318458,-0.02669763260595688
-4.64,0.008347860294329454,-0.009271742945414996
-4.63875,0.007678729094352659,0.008154146715105863
-4.6375,0.007009597894375561,0.02524492311293217
-4.63625,0.006675032294387164,0.03630366078210887
-4.635,0.006340466694398463,0.03931968014643619
-4.63375,0.006340466694398463,0.03462809446860151
-4.6325,0.007009597894375561,0.02122356396050245
-4.63125,0.007678729094352963,0.002457221249155379
