ECG_Samples/New_Data/test_sub2/Ranye_3.csv

#Digilent WaveForms Oscilloscope Acquisition
#Device Name: Discovery
#Serial Number: SN:210244566833
#Date Time: 2019-07-09 13:38:27.265
#Sample rate: 800Hz
#Samples: 8192
#Trigger: Source: Channel 1 Type: Edge Condition: Either Level: 0 V Hyst.: Auto HoldOff: 0 s
#Channel 1: Range: 100 mV/div Offset: 0 V Attenuation: 1 X
#Channel 2: Range: 100 mV/div Offset: 0 V Attenuation: 1 X
#Power Supplies: ON
#Positive Supply: ON
#Negative Supply: ON

Time (s),Channel 1 (V),Channel 2 (V)
-5.12,0.00366394189449007,0.02323424353671731
-5.11875,0.004333073094466864,0.005473240613494128
-5.1175,0.005002204294444266,-0.01295798883515016
-5.11625,0.005671335494421365,-0.02904342544486904
-5.115,0.006005901094409913,-0.03842659680053838
-5.11375,0.006340466694398311,-0.03943193658864261
-5.1125,0.006005901094409913,-0.0323945580718938
-5.11125,0.005671335494421365,-0.01731446125028236
-5.11,0.005002204294444571,0.0001114284102384996
-5.10875,0.004333073094466864,0.01820754459618671
-5.1075,0.00366394189449007,0.03261741489238665
-5.10625,0.003329376294501521,0.03898456688373371
-5.105,0.003329376294501521,0.03764411383292441
-5.10375,0.00366394189449007,0.02792582921455198
-5.1025,0.004333073094467168,0.01150527934213063
-5.10125,0.005002204294444266,-0.006925950106505584
-5.1,0.005671335494421516,-0.02435183976703985
-5.09875,0.006005901094409913,-0.03641591722432352
-5.0975,0.006340466694398463,-0.04010216311405077
-5.09625,0.006005901094410065,-0.03574569069892056
-5.095,0.005671335494421365,-0.02301138671622446
-5.09375,0.005002204294444266,-0.005920610318398154
-5.0925,0.004333073094467168,0.01217550586753558
-5.09125,0.003663941894489918,0.0285960557399612
-5.09,0.003329376294501521,0.03797922709562628
-5.08875,0.003329376294501521,0.03898456688373371
-5.0875,0.003329376294501521,0.03228230162968723
-5.08625,0.00399850749447862,0.01753731807077521
-5.085,0.004667638694455717,-0.0005587981151585285
-5.08375,0.005336769894432816,-0.01865491430109226
-5.0825,0.006005901094410065,-0.03306478459730165
-5.08125,0.006340466694398463,-0.03943193658864581
-5.08,0.006005901094409913,-0.03775637027513343
-5.07875,0.006005901094409913,-0.0277029723940637
-5.0775,0.005336769894432511,-0.0112824225216297
-5.07625,0.004667638694455717,0.00647858040159348
-5.075,0.00399850749447862,0.02390447006212226
-5.07375,0.003329376294501825,0.03596854751940593
-5.0725,0.003329376294501521,0.03998990667184114
-5.07125,0.003329376294501521,0.03596854751941142
-5.07,0.00366394189449007,0.02356935679941979
-5.06875,0.004333073094467473,0.005808353876180145
-5.0675,0.005002204294444266,-0.01262287557244769
-5.06625,0.005671335494421365,-0.02870831218216656
-5.065,0.006005901094409761,-0.03775637027512931
-5.06375,0.006340466694398463,-0.03876171006324086
-5.0625,0.006005901094409913,-0.03172433154648885
-5.06125,0.005336769894432816,-0.01664423472487741
-5.06,0.005002204294443962,0.0007816549356594544
-5.05875,0.004333073094467168,0.01854265785888264
-5.0575,0.00366394189449007,0.03295252815508913
-5.05625,0.003329376294501673,0.03965479340913561
-5.055,0.003329376294501521,0.03831434035832876
-5.05375,0.00366394189449007,0.02859605573995693
-5.0525,0.004333073094467168,0.01184039260483311
-5.05125,0.005002204294444418,-0.006590836843810879
-5.05,0.005336769894432816,-0.02368161324162941
-5.04875,0.006005901094409913,-0.03574569069891857
-5.0475,0.006005901094409913,-0.03943193658864413
-5.04625,0.006005901094409761,-0.03507546417350782
-5.045,0.005671335494421365,-0.0223411601908195
-5.04375,0.005002204294444266,-0.005250383792993201
-5.0425,0.004333073094467473,0.01251061913022998
-5.04125,0.00366394189449007,0.02926628226536189
-5.04,0.003329376294501521,0.03864945362103123
-5.03875,0.003329376294501521,0.03965479340913866
-5.0375,0.003663941894490222,0.03295252815508228
-5.03625,0.00399850749447862,0.01787243133347768
-5.035,0.004667638694455717,-0.000223684852456052
-5.03375,0.005336769894432511,-0.01831980103838156
-5.0325,0.005671335494421365,-0.0323945580718938
-5.03125,0.006005901094409913,-0.03876171006324086
-5.03,0.006005901094409913,-0.03708614374972848
-5.02875,0.006005901094409609,-0.02736785913134904
-5.0275,0.005336769894432816,-0.01061219599623283
-5.02625,0.004667638694455717,0.006813693664295956
-5.025,0.003998507494478924,0.02423958332481681
-5.02375,0.003329376294501521,0.0363036607821139
-5.0225,0.003329376294501521,0.03998990667184114
-5.02125,0.003329376294501521,0.0363036607821139
-5.02,0.003663941894490375,0.02356935679941186
-5.01875,0.004333073094467168,0.006143467138891003
-5.0175,0.005002204294444266,-0.01228776230974521
-5.01625,0.00567133549442106,-0.02837319891945677
-5.015,0.006005901094409913,-0.03742125701243156
-5.01375,0.006005901094409913,-0.03876171006324086
-5.0125,0.006005901094409913,-0.03172433154648885
-5.01125,0.00533676989443312,-0.01664423472488426
-5.01,0.004667638694455717,0.0007816549356513777
-5.00875,0.00399850749447862,0.01887777112158511
-5.0075,0.00366394189449007,0.03328764141779161
-5.00625,0.003329376294501521,0.0396547934091379
-5.005,0.003329376294501521,0.03797922709562628
-5.00375,0.00366394189449007,0.02859605573995693
-5.0025,0.003998507494478468,0.01251061913024537
-5.00125,0.004667638694455717,-0.005920610318398154
-5,0.005336769894432816,-0.02368161324162941
-4.99875,0.006005901094409913,-0.03574569069891857
-4.9975,0.006005901094409913,-0.03943193658864383
-4.99625,0.006005901094409913,-0.03507546417351361
-4.995,0.005671335494421365,-0.0223411601908195
-4.99375,0.005002204294444571,-0.005250383793000971
-4.9925,0.004333073094467168,0.01251061913023806
-4.99125,0.00366394189449007,0.02926628226536189
-4.99,0.003329376294501521,0.03864945362103123
-4.98875,0.003329376294501521,0.03965479340913561
-4.9875,0.003329376294501521,0.03295252815508913
-4.98625,0.00399850749447862,0.01820754459618016
-4.985,0.004667638694455412,0.0004465416729569766
-4.98375,0.005336769894432968,-0.01831980103839619
-4.9825,0.005671335494421365,-0.0323945580718938
-4.98125,0.006005901094409913,-0.03876171006324086
-4.98,0.006005901094409913,-0.03708614374972924
-4.97875,0.005671335494421365,-0.02703274586865418
-4.9775,0.005336769894432816,-0.01061219599623283
-4.97625,0.004667638694455717,0.006813693664295956
-4.975,0.003998507494478315,0.02423958332483038
-4.97375,0.003329376294501521,0.03663877404481637
-4.9725,0.003329376294501521,0.04032501993454361
-4.97125,0.003329376294501521,0.0359685475194134
-4.97,0.00366394189449007,0.02390447006212226
-4.96875,0.004333073094467168,0.006143467138891003
-4.9675,0.005002204294444266,-0.01262287557244769
-4.96625,0.005671335494421516,-0.02870831218217068
-4.965,0.006005901094409913,-0.03775637027513343
-4.96375,0.006005901094409913,-0.03876171006324086
-4.9625,0.006005901094409913,-0.03172433154649205
-4.96125,0.005336769894432816,-0.01664423472487741
-4.96,0.004667638694455717,0.0007816549356513777
-4.95875,0.00399850749447862,0.01887777112158511
-4.9575,0.003329376294501521,0.03295252815509218
-4.95625,0.003329376294501521,0.03965479340913866
-4.955,0.003329376294501521,0.03831434035832876
-4.95375,0.003329376294501521,0.02826094247725903
-4.9525,0.003998507494478924,0.01184039260482472
-4.95125,0.004667638694455717,-0.006590836843803107
-4.95,0.005336769894432816,-0.02368161324162941
-4.94875,0.006005901094409609,-0.03574569069891308
-4.9475,0.006005901094409913,-0.03909682332594334
-4.94625,0.006005901094409913,-0.03507546417351361
-4.945,0.005336769894432816,-0.02200604692811703
-4.94375,0.005002204294443962,-0.004915270530282647
-4.9425,0.004333073094467168,0.01284573239294053
-4.94125,0.00366394189449007,0.02926628226536189
-4.94,0.003329376294501673,0.03898456688372929
-4.93875,0.002994810694512972,0.03998990667184114
-4.9375,0.003329376294501521,0.03295252815508913
-4.93625,0.00366394189449007,0.01820754459618016
-4.935,0.004333073094467473,-0.0002236848524642811
-4.93375,0.005002204294444266,-0.01831980103838979
-4.9325,0.005671335494421365,-0.0323945580718938
-4.93125,0.006005901094409761,-0.03909682332594029
-4.93,0.006005901094409913,-0.03708614374972848
-4.92875,0.005671335494421365,-0.02703274586865418
-4.9275,0.005002204294444266,-0.01061219599623283
-4.92625,0.004667638694455412,0.007148806927006357
-4.925,0.00399850749447862,0.02457469658752721
-4.92375,0.003329376294501521,0.0363036607821139
-4.9225,0.002994810694513124,0.04032501993454178
-4.92125,0.003329376294501673,0.03596854751940593
-4.92,0.00366394189449007,0.02390447006212226
-4.91875,0.004333073094467168,0.006143467138891003
-4.9175,0.005002204294443962,-0.01228776230973683
-4.91625,0.005336769894432816,-0.02837319891946408
-4.915,0.006005901094409913,-0.03742125701243095
-4.91375,0.006005901094409913,-0.03842659680053838
-4.9125,0.005671335494421213,-0.03138921828377952
-4.91125,0.005336769894432816,-0.01630912146217493
-4.91,0.004667638694455717,0.0007816549356513777
-4.90875,0.003998507494478924,0.01921288438427921
-4.9075,0.003329376294501521,0.03328764141779161
-4.90625,0.002994810694512972,0.03965479340913866
-4.905,0.002994810694512972,0.03831434035832876
-4.90375,0.003329376294501825,0.02859605573994932
-4.9025,0.00399850749447862,0.01184039260483311
-4.90125,0.004667638694455717,-0.006255723581100631
-4.9,0.005336769894432511,-0.02368161324162149
-4.89875,0.006005901094409913,-0.03574569069891857
-4.8975,0.006005901094409913,-0.03943193658864581
-4.89625,0.005671335494421365,-0.03541057743621609
-4.895,0.005336769894432664,-0.02234116019081173
-4.89375,0.005002204294444266,-0.005250383792993201
-4.8925,0.004333073094467168,0.01284573239294053
-4.89125,0.003663941894490375,0.02893116900265209
-4.89,0.003329376294501369,0.03831434035832906
-4.88875,0.002994810694512972,0.03898456688373371
-4.8875,0.003329376294501521,0.03228230162968418
-4.88625,0.003663941894489918,0.01720220480807959
-4.885,0.004333073094467168,-0.0008939113778610051
-4.88375,0.005002204294444266,-0.01899002756379474
-4.8825,0.005671335494421365,-0.03339989786000123
-4.88125,0.006005901094409913,-0.03976704985134753
-4.88,0.006005901094409913,-0.0380914835378359
-4.87875,0.005671335494421365,-0.02803808565676161
-4.8775,0.005002204294444571,-0.01161753578434772
-4.87625,0.004333073094467168,0.005808353876188527
-4.875,0.00366394189449007,0.02356935679941979
-4.87375,0.003329376294501521,0.03529832099400647
-4.8725,0.002994810694513124,0.03898456688373188
-4.87125,0.003329376294501521,0.03496320773130399
-4.87,0.00366394189449007,0.02256401701131236
-4.86875,0.004333073094466864,0.004803014088089173
-4.8675,0.005002204294444266,-0.01362821536055512
-4.86625,0.005671335494421365,-0.02971365197027399
-4.865,0.006005901094409913,-0.03876171006324086
-4.86375,0.006005901094409913,-0.03976704985134509
-4.8625,0.006005901094409913,-0.03272967133459628
-4.86125,0.005336769894432816,-0.01764957451298483
-4.86,0.004667638694456021,-0.0002236848524639762
-4.85875,0.003998507494478315,0.01753731807078176
-4.8575,0.003329376294501521,0.0319471883669817
-4.85625,0.003329376294501521,0.03831434035832876
-4.855,0.003329376294501521,0.03697388730751946
-4.85375,0.00366394189449007,0.02725560268914703
-4.8525,0.00399850749447862,0.0104999395540232
-4.85125,0.004667638694455717,-0.007596176631910537
-4.85,0.005336769894432968,-0.02502206629244465
-4.84875,0.005671335494421365,-0.036751030487026
-4.8475,0.006005901094409913,-0.04043727637675324
-4.84625,0.006005901094409913,-0.03641591722432536
-4.845,0.005671335494421365,-0.02334649997892694
-4.84375,0.005002204294444266,-0.006255723581100631
-4.8425,0.004333073094467168,0.01150527934213063
-4.84125,0.003663941894489918,0.02792582921455609
-4.84,0.003329376294501521,0.03697388730751885
-4.83875,0.003329376294501521,0.03831434035832876
-4.8375,0.003329376294501521,0.03127696184157994
-4.83625,0.00399850749447862,0.0161968650199653
-4.835,0.004667638694455717,-0.001564137903265958
-4.83375,0.005336769894432816,-0.01999536735190217
-4.8325,0.005671335494421516,-0.03407012438540908
-4.83125,0.006005901094409913,-0.04043727637675324
-4.83,0.006005901094409913,-0.03876171006324086
-4.82875,0.005671335494421516,-0.02870831218217113
-4.8275,0.005336769894432511,-0.01228776230973729
-4.82625,0.004667638694455717,0.005138127350783573
-4.825,0.00399850749447862,0.02289913027401483
-4.82375,0.003329376294501825,0.0349632077312985
-4.8225,0.003329376294501521,0.03864945362103123
-4.82125,0.003329376294501521,0.03462809446860151
-4.82,0.00366394189449007,0.02222890374860988
-4.81875,0.004333073094467473,0.004467900825370239
-4.8175,0.005002204294444266,-0.01396332862325759
-4.81625,0.005671335494421365,-0.03004876523297647
-4.815,0.006005901094409761,-0.03909682332593922
-4.81375,0.006005901094409913,-0.04010216311405077
-4.8125,0.006005901094409913,-0.03306478459729876
-4.81125,0.005336769894432816,-0.01798468777568731
-4.81,0.00500220429444381,-0.0005587981151502993
-4.80875,0.00399850749447862,0.01753731807077521
-4.8075,0.00366394189449007,0.0319471883669817
-4.80625,0.003329376294501673,0.03864945362102819
-4.805,0.003329376294501521,0.03730900057022132
-4.80375,0.00366394189449007,0.02725560268914703
-4.8025,0.004333073094467168,0.01083505281672567
-4.80125,0.005002204294444418,-0.007596176631918308
-4.8,0.005336769894432816,-0.02468695302973684
-4.79875,0.006005901094409913,-0.03641591722432352
-4.7975,0.006340466694398311,-0.04010216311404909
-4.79625,0.006005901094409761,-0.03574569069891278
-4.795,0.005671335494421365,-0.02301138671622446
-4.79375,0.005002204294444266,-0.005585497055695677
-4.7925,0.004333073094467473,0.01217550586752751
-4.79125,0.00366394189449007,0.02859605573995693
-4.79,0.003329376294501521,0.03797922709562628
-4.78875,0.003329376294501521,0.03898456688373371
-4.7875,0.003329376294501825,0.03194718836697499
-4.78625,0.00399850749447862,0.01720220480807273
-4.785,0.004667638694455717,-0.0008939113778610051
-4.78375,0.005336769894432511,-0.01899002756378651
-4.7825,0.005671335494421365,-0.03339989786000123
-4.78125,0.006005901094409913,-0.03943193658864581
-4.78,0.006005901094409913,-0.03775637027513343
-4.77875,0.005671335494421213,-0.02770297239405167
-4.7775,0.005336769894432816,-0.01128242252163778
-4.77625,0.004667638694455717,0.006143467138891003
-4.775,0.003998507494478924,0.02390447006211419
-4.77375,0.003329376294501521,0.0363036607821139
-4.7725,0.003329376294501521,0.03998990667184114
-4.77125,0.003329376294501521,0.03563343425670894
-4.77,0.003663941894490375,0.02323424353670923
-4.76875,0.004333073094467168,0.00547324061348605
-4.7675,0.005002204294444266,-0.01295798883515016
-4.76625,0.00567133549442106,-0.0287083121821594
-4.765,0.006005901094409913,-0.03809148353783621
-4.76375,0.006005901094409913,-0.03876171006324086
-4.7625,0.006005901094409913,-0.03172433154648885
-4.76125,0.00533676989443312,-0.01664423472488426
-4.76,0.004667638694455717,0.0007816549356513777
-4.75875,0.00399850749447862,0.01854265785888264
-4.7575,0.00366394189449007,0.03295252815508913
-4.75625,0.003329376294501521,0.03931968014643557
-4.755,0.003329376294501521,0.03797922709562628
-4.75375,0.00366394189449007,0.02826094247725446
-4.7525,0.003998507494478468,0.01150527934213825
-4.75125,0.004667638694455717,-0.006925950106505584
-4.75,0.005336769894432816,-0.02401672650433189
-4.74875,0.006005901094409913,-0.03608080396162105
-4.7475,0.006005901094409913,-0.03976704985134616
-4.74625,0.006005901094409913,-0.03507546417351361
-4.745,0.005671335494421365,-0.0223411601908195
-4.74375,0.005002204294444571,-0.004915270530298648
-4.7425,0.004333073094467168,0.01284573239294053
-4.74125,0.00366394189449007,0.02926628226536189
-4.74,0.003329376294501521,0.03831434035832876
-4.73875,0.003329376294501521,0.03965479340913546
-4.7375,0.003329376294501521,0.03261741489238665
-4.73625,0.00399850749447862,0.01787243133347768
-4.735,0.004667638694455412,-0.0002236848524478224
-4.73375,0.005336769894432968,-0.01865491430109866
-4.7325,0.005671335494421365,-0.03272967133459628
-4.73125,0.006005901094409913,-0.03909682332594334
-4.73,0.006005901094409913,-0.03742125701243171
-4.72875,0.005671335494421365,-0.02703274586865418
-4.7275,0.005336769894432816,-0.01027708273353035
-4.72625,0.004667638694455717,0.006813693664295956
-4.725,0.003998507494478315,0.02423958332483022
-4.72375,0.003329376294501521,0.0363036607821139
-4.7225,0.003329376294501521,0.03965479340913866
-4.72125,0.003329376294501521,0.03563343425671077
-4.72,0.00366394189449007,0.02289913027401483
-4.71875,0.004333073094467168,0.004803014088081097
-4.7175,0.005002204294444266,-0.01362821536055512
-4.71625,0.005671335494421516,-0.02971365197027795
-4.715,0.006005901094409913,-0.03842659680053838
-4.71375,0.006340466694398463,-0.03943193658864581
-4.7125,0.006005901094410065,-0.03272967133459933
-4.71125,0.005336769894432816,-0.01731446125028236
-4.71,0.004667638694455717,0.0001114284102464246
-4.70875,0.00399850749447862,0.01820754459618016
-4.7075,0.003663941894489918,0.03228230162968707
-4.70625,0.003329376294501521,0.03864945362103123
-4.705,0.003329376294501521,0.03730900057022132
-4.70375,0.003663941894489918,0.0272556026891516
-4.7025,0.004333073094467473,0.01083505281671729
-4.70125,0.005002204294444266,-0.007596176631910537
-4.7,0.005336769894432816,-0.02502206629243932
-4.69875,0.006005901094409609,-0.03675103048702066
-4.6975,0.006005901094409913,-0.04010216311405077
-4.69625,0.006005901094409913,-0.03574569069891857
-4.695,0.005671335494421365,-0.02301138671622446
-4.69375,0.005002204294443962,-0.00592061031839023
-4.6925,0.004333073094467168,0.01150527934213063
-4.69125,0.00366394189449007,0.02792582921455198
-4.69,0.003329376294501673,0.03764411383291938
-4.68875,0.003329376294501521,0.03831434035832876
-4.6875,0.00366394189449007,0.03127696184157674
-4.68625,0.00399850749447862,0.0161968650199653
-4.685,0.004667638694456021,-0.001899251165976664
-4.68375,0.005336769894432816,-0.01999536735190217
-4.6825,0.006005901094409913,-0.03407012438540619
-4.68125,0.006005901094409913,-0.04043727637675035
-4.68,0.006005901094409913,-0.03842659680053838
-4.67875,0.006005901094409913,-0.02837319891946408
-4.6775,0.005336769894432816,-0.01161753578434026
-4.67625,0.004667638694455412,0.005808353876196451
-4.675,0.00399850749447862,0.02323424353671731
-4.67375,0.00366394189449007,0.03529832099400647
-4.6725,0.003329376294501673,0.03864945362102971
-4.67125,0.003329376294501673,0.03462809446859587
-4.67,0.00366394189449007,0.02222890374860988
-4.66875,0.004333073094467168,0.00446790082537862
-4.6675,0.005002204294443962,-0.01396332862324921
-4.66625,0.005671335494421365,-0.03004876523297647
-4.665,0.006005901094409913,-0.03909682332594334
-4.66375,0.006340466694398463,-0.03976704985134829
-4.6625,0.006005901094409609,-0.03239455807188679
-4.66125,0.005336769894432816,-0.01697934798757988
-4.66,0.005002204294444266,0.0001114284102464246
-4.65875,0.004333073094467473,0.01820754459617193
-4.6575,0.00366394189449007,0.03295252815508913
-4.65625,0.003329376294501521,0.03965479340913866
-4.655,0.003329376294501521,0.0376441138329238
-4.65375,0.003663941894490375,0.02792582921454421
-4.6525,0.004333073094467168,0.01083505281672567
-4.65125,0.005002204294444266,-0.00726106336920806
-4.65,0.00567133549442106,-0.02468695302972892
-4.64875,0.006005901094409913,-0.03641591722432352
-4.6475,0.006340466694398463,-0.04010216311405077
-4.64625,0.006340466694398463,-0.03574569069891857
-4.645,0.00567133549442106,-0.02267627345351421
-4.64375,0.005002204294444266,-0.005585497055695677
-4.6425,0.004333073094467168,0.01217550586753558
-4.64125,0.003998507494478771,0.02859605573994947
-4.64,0.003663941894489918,0.03831434035832906
-4.63875,0.003329376294501521,0.03898456688373371
-4.6375,0.00366394189449007,0.03228230162968418
-4.63625,0.003998507494478468,0.01720220480807959
-4.635,0.004667638694455717,-0.0005587981151585285
-4.63375,0.005336769894432816,-0.01865491430109226
-4.6325,0.006005901094409913,-0.03272967133459628
-4.63125,0.006005901094409913,-0.03909682332594257
-4.63,0.006005901094409913,-0.03742125701243095
